{"uid":"b42fdc1b5df24464","name":"product recommendations FR","historyId":"43074173-25ca-4da0-b460-92e11a365080","time":{"start":1784704622851,"stop":1784704623008,"duration":157},"status":"failed","statusMessage":"MOQ and price are string if the exist: expected { Object (currency, kind, ...) } to be a string","statusTrace":"folder=Endpoint tests / Homepage, products\nenv=Hummingbird_Staging\nenvUid=10155542-4ef9191e-ae13-46f4-bfc1-7b40219e3634\nmethod=GET\nurl=https://api.staging.visable.io/mobile/public_api/products/recommendations\nhttpStatus=200\nresponseTimeMs=157\nresponseBody={\"display_products\":true,\"paging\":{\"current_page\":1,\"total\":51,\"total_pages\":2},\"products\":[{\"company\":{\"average_response_time\":\"<24h\",\"country_code\":\"PL\",\"is_email_existing\":false,\"is_quick_responder\":true,\"is_top_partner\":false,\"is_top_responder\":true,\"is_verified\":true,\"logo_url\":\"https://media.visable-staging.com/https://wlw-1-company-facts-media20191122174836234900000006.s3.eu-central-1.amazonaws.com/edffc1b0-bfb2-435f-a003-44568b1874f7.gif?w=300&h=300\",\"name\":\"SPRINGOS SP\",\"response_rate\":\"97%\",\"uuid\":\"61d4efe3-d34b-3816-9b10-05429527b7a5\"},\"id\":\"9f700bfd-8f74-4ca5-baf2-8352d4b398b5\",\"image\":{\"url\":\"https://media.visable-staging.com/https://supplier-offers-media-production.s3.eu-central-1.amazonaws.com/6231dff4-02cd-11f1-888b-0a58a9feac02.jpeg?w=300&h=300\"},\"images\":[{\"url\":\"https://media.visable-staging.com/https://supplier-offers-media-production.s3.eu-central-1.amazonaws.com/6231dff4-02cd-11f1-888b-0a58a9feac02.jpeg?w=300&h=300\"}],\"language\":\"fr\",\"minimum_order_quantity\":\"350 kg\",\"name\":\"Déchets de CPU en céramique abordables pour la récupération d'or prêts à expédier, disponibles en stock, livraison rapide au prix de gros\",\"price\":{\"currency\":\"EUR\",\"kind\":\"fixed\",\"min\":\"9\",\"original_currency\":\"EUR\",\"original_min\":\"9\",\"vat_included\":false},\"sell_points\":[],\"trace_info_id\":\"1f8f36aa5d3a4943b2a86d3cec40dd0f\",\"uuid\":\"9f700bfd-8f74-4ca5-baf2-8352d4b398b5\"},{\"company\":{\"average_response_time\":\"24h-48h\",\"country_code\":\"DE\",\"is_email_existing\":false,\"is_quick_responder\":false,\"is_top_partner\":false,\"is_top_responder\":false,\"is_verified\":true,\"logo_url\":\"https://media.visable-staging.com/https://wlw-1-company-facts-media20191122174836234900000006.s3.eu-central-1.amazonaws.com/6f614fd1-83ea-44dc-9704-91fe763a94fe.jpeg?w=300&h=300\",\"name\":\"tk accelis Materials GmbH, Zweigniederlassung Eisenmetall\",\"response_rate\":\"3%\",\"uuid\":\"00505682-f25b-1ee9-bd91-d265bd28f7fb\"},\"id\":\"35bce858-fc4b-5fb0-809f-bedfe73ba9a9\",\"image\":{\"url\":\"https://media.visable-staging.com/https://supplier-offers-media-production.s3.eu-central-1.amazonaws.com/a0c1047d-2155-11ee-95e4-0a58a9feac02.jpeg?w=300&h=300\"},\"images\":[{\"url\":\"https://media.visable-staging.com/https://supplier-offers-media-production.s3.eu-central-1.amazonaws.com/a0c1047d-2155-11ee-95e4-0a58a9feac02.jpeg?w=300&h=300\"}],\"language\":\"fr\",\"name\":\"Plaques en aluminium / Découpes de plaques\",\"sell_points\":[],\"trace_info_id\":\"1f8f36aa5d3a4943b2a86d3cec40dd0f\",\"uuid\":\"35bce858-fc4b-5fb0-809f-bedfe73ba9a9\"},{\"company\":{\"average_response_time\":\"24h-48h\",\"country_code\":\"DE\",\"is_email_existing\":false,\"is_quick_responder\":false,\"is_top_partner\":false,\"is_top_responder\":false,\"is_verified\":true,\"logo_url\":\"https://media.visable-staging.com/https://wlw-1-company-facts-media20191122174836234900000006.s3.eu-central-1.amazonaws.com/20635dc7-b1c2-43c0-a4b9-e12564a2dc96.png?w=300&h=300\",\"name\":\"ID Metall GmbH\",\"response_rate\":\"9%\",\"uuid\":\"f360ed5d-11bf-459b-8742-6bc031b3b96b\"},\"id\":\"75f809ec-a6a1-4dcf-9ab5-ff64b994212f\",\"image\":...(truncated)","flaky":false,"newFailed":false,"newBroken":false,"newPassed":false,"retriesCount":0,"retriesStatusChange":false,"beforeStages":[],"testStage":{"status":"failed","statusMessage":"MOQ and price are string if the exist: expected { Object (currency, kind, ...) } to be a string","statusTrace":"folder=Endpoint tests / Homepage, products\nenv=Hummingbird_Staging\nenvUid=10155542-4ef9191e-ae13-46f4-bfc1-7b40219e3634\nmethod=GET\nurl=https://api.staging.visable.io/mobile/public_api/products/recommendations\nhttpStatus=200\nresponseTimeMs=157\nresponseBody={\"display_products\":true,\"paging\":{\"current_page\":1,\"total\":51,\"total_pages\":2},\"products\":[{\"company\":{\"average_response_time\":\"<24h\",\"country_code\":\"PL\",\"is_email_existing\":false,\"is_quick_responder\":true,\"is_top_partner\":false,\"is_top_responder\":true,\"is_verified\":true,\"logo_url\":\"https://media.visable-staging.com/https://wlw-1-company-facts-media20191122174836234900000006.s3.eu-central-1.amazonaws.com/edffc1b0-bfb2-435f-a003-44568b1874f7.gif?w=300&h=300\",\"name\":\"SPRINGOS SP\",\"response_rate\":\"97%\",\"uuid\":\"61d4efe3-d34b-3816-9b10-05429527b7a5\"},\"id\":\"9f700bfd-8f74-4ca5-baf2-8352d4b398b5\",\"image\":{\"url\":\"https://media.visable-staging.com/https://supplier-offers-media-production.s3.eu-central-1.amazonaws.com/6231dff4-02cd-11f1-888b-0a58a9feac02.jpeg?w=300&h=300\"},\"images\":[{\"url\":\"https://media.visable-staging.com/https://supplier-offers-media-production.s3.eu-central-1.amazonaws.com/6231dff4-02cd-11f1-888b-0a58a9feac02.jpeg?w=300&h=300\"}],\"language\":\"fr\",\"minimum_order_quantity\":\"350 kg\",\"name\":\"Déchets de CPU en céramique abordables pour la récupération d'or prêts à expédier, disponibles en stock, livraison rapide au prix de gros\",\"price\":{\"currency\":\"EUR\",\"kind\":\"fixed\",\"min\":\"9\",\"original_currency\":\"EUR\",\"original_min\":\"9\",\"vat_included\":false},\"sell_points\":[],\"trace_info_id\":\"1f8f36aa5d3a4943b2a86d3cec40dd0f\",\"uuid\":\"9f700bfd-8f74-4ca5-baf2-8352d4b398b5\"},{\"company\":{\"average_response_time\":\"24h-48h\",\"country_code\":\"DE\",\"is_email_existing\":false,\"is_quick_responder\":false,\"is_top_partner\":false,\"is_top_responder\":false,\"is_verified\":true,\"logo_url\":\"https://media.visable-staging.com/https://wlw-1-company-facts-media20191122174836234900000006.s3.eu-central-1.amazonaws.com/6f614fd1-83ea-44dc-9704-91fe763a94fe.jpeg?w=300&h=300\",\"name\":\"tk accelis Materials GmbH, Zweigniederlassung Eisenmetall\",\"response_rate\":\"3%\",\"uuid\":\"00505682-f25b-1ee9-bd91-d265bd28f7fb\"},\"id\":\"35bce858-fc4b-5fb0-809f-bedfe73ba9a9\",\"image\":{\"url\":\"https://media.visable-staging.com/https://supplier-offers-media-production.s3.eu-central-1.amazonaws.com/a0c1047d-2155-11ee-95e4-0a58a9feac02.jpeg?w=300&h=300\"},\"images\":[{\"url\":\"https://media.visable-staging.com/https://supplier-offers-media-production.s3.eu-central-1.amazonaws.com/a0c1047d-2155-11ee-95e4-0a58a9feac02.jpeg?w=300&h=300\"}],\"language\":\"fr\",\"name\":\"Plaques en aluminium / Découpes de plaques\",\"sell_points\":[],\"trace_info_id\":\"1f8f36aa5d3a4943b2a86d3cec40dd0f\",\"uuid\":\"35bce858-fc4b-5fb0-809f-bedfe73ba9a9\"},{\"company\":{\"average_response_time\":\"24h-48h\",\"country_code\":\"DE\",\"is_email_existing\":false,\"is_quick_responder\":false,\"is_top_partner\":false,\"is_top_responder\":false,\"is_verified\":true,\"logo_url\":\"https://media.visable-staging.com/https://wlw-1-company-facts-media20191122174836234900000006.s3.eu-central-1.amazonaws.com/20635dc7-b1c2-43c0-a4b9-e12564a2dc96.png?w=300&h=300\",\"name\":\"ID Metall GmbH\",\"response_rate\":\"9%\",\"uuid\":\"f360ed5d-11bf-459b-8742-6bc031b3b96b\"},\"id\":\"75f809ec-a6a1-4dcf-9ab5-ff64b994212f\",\"image\":...(truncated)","steps":[{"name":"GET https://api.staging.visable.io/mobile/public_api/products/recommendations","time":{"start":1784704622851,"stop":1784704623008,"duration":157},"status":"passed","steps":[],"attachments":[],"parameters":[{"name":"httpStatus","value":"200"},{"name":"responseTimeMs","value":"157"}],"shouldDisplayMessage":false,"stepsCount":0,"attachmentsCount":0,"hasContent":true},{"name":"assert: Status code is 200 or 201","time":{},"status":"passed","steps":[],"attachments":[],"parameters":[],"shouldDisplayMessage":false,"stepsCount":0,"attachmentsCount":0,"hasContent":false},{"name":"assert: Response time is less than 8000ms","time":{},"status":"passed","steps":[],"attachments":[],"parameters":[],"shouldDisplayMessage":false,"stepsCount":0,"attachmentsCount":0,"hasContent":false},{"name":"assert: Response body is JSON","time":{},"status":"passed","steps":[],"attachments":[],"parameters":[],"shouldDisplayMessage":false,"stepsCount":0,"attachmentsCount":0,"hasContent":false},{"name":"assert: Header Content-Type is application/json","time":{},"status":"passed","steps":[],"attachments":[],"parameters":[],"shouldDisplayMessage":false,"stepsCount":0,"attachmentsCount":0,"hasContent":false},{"name":"assert: Pagination","time":{},"status":"passed","steps":[],"attachments":[],"parameters":[],"shouldDisplayMessage":false,"stepsCount":0,"attachmentsCount":0,"hasContent":false},{"name":"assert: Company object","time":{},"status":"passed","steps":[],"attachments":[],"parameters":[],"shouldDisplayMessage":false,"stepsCount":0,"attachmentsCount":0,"hasContent":false},{"name":"assert: Product object","time":{},"status":"passed","steps":[],"attachments":[],"parameters":[],"shouldDisplayMessage":false,"stepsCount":0,"attachmentsCount":0,"hasContent":false},{"name":"assert: MOQ and price are string if the exist","time":{},"status":"failed","statusMessage":"expected { Object (currency, kind, ...) } to be a string","steps":[],"attachments":[],"parameters":[],"shouldDisplayMessage":true,"stepsCount":0,"attachmentsCount":0,"hasContent":true}],"attachments":[{"uid":"7eb33e5113182ab4","name":"request","source":"7eb33e5113182ab4.txt","type":"text/plain","size":627},{"uid":"bf2f8607b3a68348","name":"response","source":"bf2f8607b3a68348.txt","type":"text/plain","size":12585}],"parameters":[],"shouldDisplayMessage":true,"stepsCount":9,"attachmentsCount":2,"hasContent":true},"afterStages":[],"labels":[{"name":"epic","value":"Hummingbird"},{"name":"feature","value":"Technical"},{"name":"framework","value":"newman"},{"name":"language","value":"javascript"},{"name":"parentSuite","value":"1.1 Team Hummingbird - BFF | WLW app"},{"name":"suite","value":"Endpoint tests"},{"name":"subSuite","value":"Homepage, products"},{"name":"testClass","value":"product recommendations FR"},{"name":"package","value":"1.1 Team Hummingbird - BFF | WLW app / Endpoint tests / Homepage, products"},{"name":"resultFormat","value":"allure2"}],"parameters":[{"name":"env","value":"Hummingbird_Staging"},{"name":"envUid","value":"10155542-4ef9191e-ae13-46f4-bfc1-7b40219e3634"},{"name":"folder","value":"Endpoint tests / Homepage, products"},{"name":"httpStatus","value":"200"},{"name":"method","value":"GET"},{"name":"url","value":"https://api.staging.visable.io/mobile/public_api/products/recommendations"}],"links":[],"hidden":false,"retry":false,"extra":{"severity":"normal","retries":[],"categories":[{"name":"Product defects","matchedStatuses":[],"flaky":false}],"tags":[]},"source":"b42fdc1b5df24464.json","parameterValues":["Hummingbird_Staging","10155542-4ef9191e-ae13-46f4-bfc1-7b40219e3634","Endpoint tests / Homepage, products","200","GET","https://api.staging.visable.io/mobile/public_api/products/recommendations"]}