{"uid":"cefcadda0e4989f2","name":"product recommendations EN","historyId":"f6b34873-56ef-4eb2-a919-d9f0c81a0dcc","time":{"start":1784704567850,"stop":1784704567972,"duration":122},"status":"failed","statusMessage":"MOQ and price are string if the exist: expected { Object (currency, kind, ...) } to be a string","statusTrace":"folder=Endpoint tests / Homepage, products\nenv=Hummingbird_Staging\nenvUid=10155542-4ef9191e-ae13-46f4-bfc1-7b40219e3634\nmethod=GET\nurl=https://api.staging.visable.io/mobile/public_api/products/recommendations\nhttpStatus=200\nresponseTimeMs=122\nresponseBody={\"display_products\":true,\"paging\":{\"current_page\":1,\"total\":51,\"total_pages\":2},\"products\":[{\"company\":{\"average_response_time\":\"<24h\",\"country_code\":\"BE\",\"is_email_existing\":false,\"is_quick_responder\":true,\"is_top_partner\":false,\"is_top_responder\":true,\"is_verified\":false,\"logo_url\":\"https://media.visable-staging.com/https://wlw-1-company-facts-media20191122174836234900000006.s3.eu-central-1.amazonaws.com/946e1350-8896-476c-a6c7-926cb5161995.jpeg?w=300&h=300\",\"name\":\"B.J.K Import Export B.V\",\"response_rate\":\"90%\",\"uuid\":\"e14b01f9-9498-4b36-a86f-0f866ff3306d\"},\"id\":\"e8c3ea72-2f92-4d94-90ec-969a5eaf7fc5\",\"image\":{\"url\":\"https://media.visable-staging.com/https://supplier-offers-media-production.s3.eu-central-1.amazonaws.com/93c813ae-53b7-11f1-8b83-0a58a9feac02.jpeg?w=300&h=300\"},\"images\":[{\"url\":\"https://media.visable-staging.com/https://supplier-offers-media-production.s3.eu-central-1.amazonaws.com/93c813ae-53b7-11f1-8b83-0a58a9feac02.jpeg?w=300&h=300\"}],\"language\":\"en\",\"minimum_order_quantity\":\"250000 kg\",\"name\":\"Used Branded Shoes Wholesale, Sneakers, Second-Hand Vans Brand Shoes for Export.\",\"price\":{\"currency\":\"EUR\",\"kind\":\"range\",\"max\":\"10\",\"min\":\"7\",\"original_currency\":\"EUR\",\"original_max\":\"10\",\"original_min\":\"7\",\"vat_included\":false},\"sell_points\":[],\"trace_info_id\":\"41945cc2ecce4473a41d4cb0fd2a046d\",\"uuid\":\"e8c3ea72-2f92-4d94-90ec-969a5eaf7fc5\"},{\"company\":{\"average_response_time\":\"<24h\",\"country_code\":\"DE\",\"is_email_existing\":false,\"is_quick_responder\":false,\"is_top_partner\":false,\"is_top_responder\":false,\"is_verified\":false,\"logo_url\":\"https://media.visable-staging.com/https://wlw-1-company-facts-media20191122174836234900000006.s3.eu-central-1.amazonaws.com/23e26ae5-e6a7-4896-a872-cdffa2f5b019.png?w=300&h=300\",\"name\":\"SKC Textilrecycling KG\",\"response_rate\":\"0%\",\"uuid\":\"43ff91f2-26a1-4d2a-9b88-e5cea234fb6a\"},\"id\":\"28c88680-12f3-4189-b9bb-adb31f906215\",\"image\":{\"url\":\"https://media.visable-staging.com/https://supplier-offers-media-production.s3.eu-central-1.amazonaws.com/a6d98f81-52b3-11f1-996b-0a58a9feac02.jpeg?w=300&h=300\"},\"images\":[{\"url\":\"https://media.visable-staging.com/https://supplier-offers-media-production.s3.eu-central-1.amazonaws.com/a6d98f81-52b3-11f1-996b-0a58a9feac02.jpeg?w=300&h=300\"}],\"language\":\"en\",\"name\":\"Used Clothing Frankfurt am Main Circle\",\"sell_points\":[],\"trace_info_id\":\"41945cc2ecce4473a41d4cb0fd2a046d\",\"uuid\":\"28c88680-12f3-4189-b9bb-adb31f906215\"},{\"company\":{\"average_response_time\":\"<24h\",\"country_code\":\"GB\",\"is_email_existing\":false,\"is_quick_responder\":true,\"is_top_partner\":false,\"is_top_responder\":true,\"is_verified\":false,\"logo_url\":\"https://media.visable-staging.com/?w=300&h=300\",\"name\":\"FLEXITRADE IMPORT-EXPORT LTD\",\"response_rate\":\"91%\",\"uuid\":\"6674cc39-62d3-472f-8410-69911a280541\"},\"id\":\"5255f8f2-0bfe-4056-b196-aa0a9b6a957b\",\"image\":{\"url\":\"https://media.visable-staging.com/https://supplier-offers-media-production.s3.eu-central-1.amazonaws.com/3c260cd3-34c3-11f1-a8de-0a58a9feac02.jpeg?w=300&h=300\"},\"...(truncated)","flaky":false,"newFailed":false,"newBroken":false,"newPassed":false,"retriesCount":0,"retriesStatusChange":false,"beforeStages":[],"testStage":{"status":"failed","statusMessage":"MOQ and price are string if the exist: expected { Object (currency, kind, ...) } to be a string","statusTrace":"folder=Endpoint tests / Homepage, products\nenv=Hummingbird_Staging\nenvUid=10155542-4ef9191e-ae13-46f4-bfc1-7b40219e3634\nmethod=GET\nurl=https://api.staging.visable.io/mobile/public_api/products/recommendations\nhttpStatus=200\nresponseTimeMs=122\nresponseBody={\"display_products\":true,\"paging\":{\"current_page\":1,\"total\":51,\"total_pages\":2},\"products\":[{\"company\":{\"average_response_time\":\"<24h\",\"country_code\":\"BE\",\"is_email_existing\":false,\"is_quick_responder\":true,\"is_top_partner\":false,\"is_top_responder\":true,\"is_verified\":false,\"logo_url\":\"https://media.visable-staging.com/https://wlw-1-company-facts-media20191122174836234900000006.s3.eu-central-1.amazonaws.com/946e1350-8896-476c-a6c7-926cb5161995.jpeg?w=300&h=300\",\"name\":\"B.J.K Import Export B.V\",\"response_rate\":\"90%\",\"uuid\":\"e14b01f9-9498-4b36-a86f-0f866ff3306d\"},\"id\":\"e8c3ea72-2f92-4d94-90ec-969a5eaf7fc5\",\"image\":{\"url\":\"https://media.visable-staging.com/https://supplier-offers-media-production.s3.eu-central-1.amazonaws.com/93c813ae-53b7-11f1-8b83-0a58a9feac02.jpeg?w=300&h=300\"},\"images\":[{\"url\":\"https://media.visable-staging.com/https://supplier-offers-media-production.s3.eu-central-1.amazonaws.com/93c813ae-53b7-11f1-8b83-0a58a9feac02.jpeg?w=300&h=300\"}],\"language\":\"en\",\"minimum_order_quantity\":\"250000 kg\",\"name\":\"Used Branded Shoes Wholesale, Sneakers, Second-Hand Vans Brand Shoes for Export.\",\"price\":{\"currency\":\"EUR\",\"kind\":\"range\",\"max\":\"10\",\"min\":\"7\",\"original_currency\":\"EUR\",\"original_max\":\"10\",\"original_min\":\"7\",\"vat_included\":false},\"sell_points\":[],\"trace_info_id\":\"41945cc2ecce4473a41d4cb0fd2a046d\",\"uuid\":\"e8c3ea72-2f92-4d94-90ec-969a5eaf7fc5\"},{\"company\":{\"average_response_time\":\"<24h\",\"country_code\":\"DE\",\"is_email_existing\":false,\"is_quick_responder\":false,\"is_top_partner\":false,\"is_top_responder\":false,\"is_verified\":false,\"logo_url\":\"https://media.visable-staging.com/https://wlw-1-company-facts-media20191122174836234900000006.s3.eu-central-1.amazonaws.com/23e26ae5-e6a7-4896-a872-cdffa2f5b019.png?w=300&h=300\",\"name\":\"SKC Textilrecycling KG\",\"response_rate\":\"0%\",\"uuid\":\"43ff91f2-26a1-4d2a-9b88-e5cea234fb6a\"},\"id\":\"28c88680-12f3-4189-b9bb-adb31f906215\",\"image\":{\"url\":\"https://media.visable-staging.com/https://supplier-offers-media-production.s3.eu-central-1.amazonaws.com/a6d98f81-52b3-11f1-996b-0a58a9feac02.jpeg?w=300&h=300\"},\"images\":[{\"url\":\"https://media.visable-staging.com/https://supplier-offers-media-production.s3.eu-central-1.amazonaws.com/a6d98f81-52b3-11f1-996b-0a58a9feac02.jpeg?w=300&h=300\"}],\"language\":\"en\",\"name\":\"Used Clothing Frankfurt am Main Circle\",\"sell_points\":[],\"trace_info_id\":\"41945cc2ecce4473a41d4cb0fd2a046d\",\"uuid\":\"28c88680-12f3-4189-b9bb-adb31f906215\"},{\"company\":{\"average_response_time\":\"<24h\",\"country_code\":\"GB\",\"is_email_existing\":false,\"is_quick_responder\":true,\"is_top_partner\":false,\"is_top_responder\":true,\"is_verified\":false,\"logo_url\":\"https://media.visable-staging.com/?w=300&h=300\",\"name\":\"FLEXITRADE IMPORT-EXPORT LTD\",\"response_rate\":\"91%\",\"uuid\":\"6674cc39-62d3-472f-8410-69911a280541\"},\"id\":\"5255f8f2-0bfe-4056-b196-aa0a9b6a957b\",\"image\":{\"url\":\"https://media.visable-staging.com/https://supplier-offers-media-production.s3.eu-central-1.amazonaws.com/3c260cd3-34c3-11f1-a8de-0a58a9feac02.jpeg?w=300&h=300\"},\"...(truncated)","steps":[{"name":"GET https://api.staging.visable.io/mobile/public_api/products/recommendations","time":{"start":1784704567850,"stop":1784704567972,"duration":122},"status":"passed","steps":[],"attachments":[],"parameters":[{"name":"httpStatus","value":"200"},{"name":"responseTimeMs","value":"122"}],"shouldDisplayMessage":false,"stepsCount":0,"attachmentsCount":0,"hasContent":true},{"name":"assert: Status code is 200 or 201","time":{},"status":"passed","steps":[],"attachments":[],"parameters":[],"shouldDisplayMessage":false,"stepsCount":0,"attachmentsCount":0,"hasContent":false},{"name":"assert: Response time is less than 8000ms","time":{},"status":"passed","steps":[],"attachments":[],"parameters":[],"shouldDisplayMessage":false,"stepsCount":0,"attachmentsCount":0,"hasContent":false},{"name":"assert: Response body is JSON","time":{},"status":"passed","steps":[],"attachments":[],"parameters":[],"shouldDisplayMessage":false,"stepsCount":0,"attachmentsCount":0,"hasContent":false},{"name":"assert: Header Content-Type is application/json","time":{},"status":"passed","steps":[],"attachments":[],"parameters":[],"shouldDisplayMessage":false,"stepsCount":0,"attachmentsCount":0,"hasContent":false},{"name":"assert: Pagination","time":{},"status":"passed","steps":[],"attachments":[],"parameters":[],"shouldDisplayMessage":false,"stepsCount":0,"attachmentsCount":0,"hasContent":false},{"name":"assert: Company object","time":{},"status":"passed","steps":[],"attachments":[],"parameters":[],"shouldDisplayMessage":false,"stepsCount":0,"attachmentsCount":0,"hasContent":false},{"name":"assert: Product object","time":{},"status":"passed","steps":[],"attachments":[],"parameters":[],"shouldDisplayMessage":false,"stepsCount":0,"attachmentsCount":0,"hasContent":false},{"name":"assert: MOQ and price are string if the exist","time":{},"status":"failed","statusMessage":"expected { Object (currency, kind, ...) } to be a string","steps":[],"attachments":[],"parameters":[],"shouldDisplayMessage":true,"stepsCount":0,"attachmentsCount":0,"hasContent":true}],"attachments":[{"uid":"7bf15c169d8d68bd","name":"request","source":"7bf15c169d8d68bd.txt","type":"text/plain","size":760},{"uid":"36c4305867284bc8","name":"response","source":"36c4305867284bc8.txt","type":"text/plain","size":12572}],"parameters":[],"shouldDisplayMessage":true,"stepsCount":9,"attachmentsCount":2,"hasContent":true},"afterStages":[],"labels":[{"name":"epic","value":"Hummingbird"},{"name":"feature","value":"Technical"},{"name":"framework","value":"newman"},{"name":"language","value":"javascript"},{"name":"parentSuite","value":"1 Team Hummingbird - BFF | EP app"},{"name":"suite","value":"Endpoint tests"},{"name":"subSuite","value":"Homepage, products"},{"name":"testClass","value":"product recommendations EN"},{"name":"package","value":"1 Team Hummingbird - BFF | EP app / Endpoint tests / Homepage, products"},{"name":"resultFormat","value":"allure2"}],"parameters":[{"name":"env","value":"Hummingbird_Staging"},{"name":"envUid","value":"10155542-4ef9191e-ae13-46f4-bfc1-7b40219e3634"},{"name":"folder","value":"Endpoint tests / Homepage, products"},{"name":"httpStatus","value":"200"},{"name":"method","value":"GET"},{"name":"url","value":"https://api.staging.visable.io/mobile/public_api/products/recommendations"}],"links":[],"hidden":false,"retry":false,"extra":{"severity":"normal","retries":[],"categories":[{"name":"Product defects","matchedStatuses":[],"flaky":false}],"tags":[]},"source":"cefcadda0e4989f2.json","parameterValues":["Hummingbird_Staging","10155542-4ef9191e-ae13-46f4-bfc1-7b40219e3634","Endpoint tests / Homepage, products","200","GET","https://api.staging.visable.io/mobile/public_api/products/recommendations"]}