{"uid":"15ae50c880eccbc3","name":"product recommendations EN","historyId":"9c35648f-7c14-4f40-9c1c-250196bead41","time":{"start":1784860588132,"stop":1784860588295,"duration":163},"status":"failed","statusMessage":"MOQ and price are string if the exist: expected { Object (currency, kind, ...) } to be a string","statusTrace":"folder=Endpoint tests / Homepage, products\nenv=Hummingbird_Staging\nenvUid=10155542-4ef9191e-ae13-46f4-bfc1-7b40219e3634\nmethod=GET\nurl=https://api.staging.visable.io/mobile/public_api/products/recommendations\nhttpStatus=200\nresponseTimeMs=163\nresponseBody={\"display_products\":true,\"paging\":{\"current_page\":1,\"total\":51,\"total_pages\":2},\"products\":[{\"company\":{\"average_response_time\":\"<24h\",\"country_code\":\"BE\",\"is_email_existing\":false,\"is_quick_responder\":true,\"is_top_partner\":false,\"is_top_responder\":true,\"is_verified\":false,\"logo_url\":\"https://media.visable-staging.com/https://wlw-1-company-facts-media20191122174836234900000006.s3.eu-central-1.amazonaws.com/946e1350-8896-476c-a6c7-926cb5161995.jpeg?w=300&h=300\",\"name\":\"B.J.K Import Export B.V\",\"response_rate\":\"90%\",\"uuid\":\"e14b01f9-9498-4b36-a86f-0f866ff3306d\"},\"id\":\"e8c3ea72-2f92-4d94-90ec-969a5eaf7fc5\",\"image\":{\"url\":\"https://media.visable-staging.com/https://supplier-offers-media-production.s3.eu-central-1.amazonaws.com/93c813ae-53b7-11f1-8b83-0a58a9feac02.jpeg?w=300&h=300\"},\"images\":[{\"url\":\"https://media.visable-staging.com/https://supplier-offers-media-production.s3.eu-central-1.amazonaws.com/93c813ae-53b7-11f1-8b83-0a58a9feac02.jpeg?w=300&h=300\"}],\"language\":\"en\",\"minimum_order_quantity\":\"250000 kg\",\"name\":\"Used Branded Shoes Wholesale, Sneakers, Second-Hand Vans Brand Shoes for Export.\",\"price\":{\"currency\":\"EUR\",\"kind\":\"range\",\"max\":\"10\",\"min\":\"7\",\"original_currency\":\"EUR\",\"original_max\":\"10\",\"original_min\":\"7\",\"vat_included\":false},\"sell_points\":[],\"trace_info_id\":\"dffc997f54d84d1ba942362a94bda2aa\",\"uuid\":\"e8c3ea72-2f92-4d94-90ec-969a5eaf7fc5\"},{\"company\":{\"average_response_time\":\"<24h\",\"country_code\":\"SE\",\"is_email_existing\":false,\"is_quick_responder\":true,\"is_top_partner\":false,\"is_top_responder\":true,\"is_verified\":false,\"logo_url\":\"https://media.visable-staging.com/https://wlw-1-company-facts-media20191122174836234900000006.s3.eu-central-1.amazonaws.com/6555e1a7-0432-4a55-89e0-167631e51e9f.gif?w=300&h=300\",\"name\":\"SE MARIN AKTIEBOLAG\",\"response_rate\":\"66%\",\"uuid\":\"3faa9088-0bed-3899-adb5-57191291ef3f\"},\"id\":\"8496d50a-5f8b-4e8d-b847-1d76905522b7\",\"image\":{\"url\":\"https://media.visable-staging.com/https://supplier-offers-media-production.s3.eu-central-1.amazonaws.com/7c4cff19-fe60-11ef-a2cb-0a58a9feac02.jpeg?w=300&h=300\"},\"images\":[{\"url\":\"https://media.visable-staging.com/https://supplier-offers-media-production.s3.eu-central-1.amazonaws.com/7c4cff19-fe60-11ef-a2cb-0a58a9feac02.jpeg?w=300&h=300\"}],\"language\":\"en\",\"minimum_order_quantity\":\"10 pieces\",\"name\":\"Used iPhone series wholesale\",\"sell_points\":[],\"trace_info_id\":\"dffc997f54d84d1ba942362a94bda2aa\",\"uuid\":\"8496d50a-5f8b-4e8d-b847-1d76905522b7\"},{\"company\":{\"average_response_time\":\"<24h\",\"country_code\":\"DE\",\"is_email_existing\":false,\"is_quick_responder\":true,\"is_top_partner\":false,\"is_top_responder\":true,\"is_verified\":false,\"logo_url\":\"https://media.visable-staging.com/https://wlw-1-company-facts-media20191122174836234900000006.s3.eu-central-1.amazonaws.com/5cb6c998-4dc2-4e7e-aa79-910013874990.gif?w=300&h=300\",\"name\":\"BTV LOHSA\",\"response_rate\":\"100%\",\"uuid\":\"6a33f659-95d0-34da-819e-cb979a6232e0\"},\"id\":\"42fffcd1-ca0c-5178-b89e-422a310519e2\",\"image\":{\"url\":\"https://media.visable-stagi...(truncated)","flaky":false,"newFailed":false,"newBroken":false,"newPassed":false,"retriesCount":0,"retriesStatusChange":false,"beforeStages":[],"testStage":{"status":"failed","statusMessage":"MOQ and price are string if the exist: expected { Object (currency, kind, ...) } to be a string","statusTrace":"folder=Endpoint tests / Homepage, products\nenv=Hummingbird_Staging\nenvUid=10155542-4ef9191e-ae13-46f4-bfc1-7b40219e3634\nmethod=GET\nurl=https://api.staging.visable.io/mobile/public_api/products/recommendations\nhttpStatus=200\nresponseTimeMs=163\nresponseBody={\"display_products\":true,\"paging\":{\"current_page\":1,\"total\":51,\"total_pages\":2},\"products\":[{\"company\":{\"average_response_time\":\"<24h\",\"country_code\":\"BE\",\"is_email_existing\":false,\"is_quick_responder\":true,\"is_top_partner\":false,\"is_top_responder\":true,\"is_verified\":false,\"logo_url\":\"https://media.visable-staging.com/https://wlw-1-company-facts-media20191122174836234900000006.s3.eu-central-1.amazonaws.com/946e1350-8896-476c-a6c7-926cb5161995.jpeg?w=300&h=300\",\"name\":\"B.J.K Import Export B.V\",\"response_rate\":\"90%\",\"uuid\":\"e14b01f9-9498-4b36-a86f-0f866ff3306d\"},\"id\":\"e8c3ea72-2f92-4d94-90ec-969a5eaf7fc5\",\"image\":{\"url\":\"https://media.visable-staging.com/https://supplier-offers-media-production.s3.eu-central-1.amazonaws.com/93c813ae-53b7-11f1-8b83-0a58a9feac02.jpeg?w=300&h=300\"},\"images\":[{\"url\":\"https://media.visable-staging.com/https://supplier-offers-media-production.s3.eu-central-1.amazonaws.com/93c813ae-53b7-11f1-8b83-0a58a9feac02.jpeg?w=300&h=300\"}],\"language\":\"en\",\"minimum_order_quantity\":\"250000 kg\",\"name\":\"Used Branded Shoes Wholesale, Sneakers, Second-Hand Vans Brand Shoes for Export.\",\"price\":{\"currency\":\"EUR\",\"kind\":\"range\",\"max\":\"10\",\"min\":\"7\",\"original_currency\":\"EUR\",\"original_max\":\"10\",\"original_min\":\"7\",\"vat_included\":false},\"sell_points\":[],\"trace_info_id\":\"dffc997f54d84d1ba942362a94bda2aa\",\"uuid\":\"e8c3ea72-2f92-4d94-90ec-969a5eaf7fc5\"},{\"company\":{\"average_response_time\":\"<24h\",\"country_code\":\"SE\",\"is_email_existing\":false,\"is_quick_responder\":true,\"is_top_partner\":false,\"is_top_responder\":true,\"is_verified\":false,\"logo_url\":\"https://media.visable-staging.com/https://wlw-1-company-facts-media20191122174836234900000006.s3.eu-central-1.amazonaws.com/6555e1a7-0432-4a55-89e0-167631e51e9f.gif?w=300&h=300\",\"name\":\"SE MARIN AKTIEBOLAG\",\"response_rate\":\"66%\",\"uuid\":\"3faa9088-0bed-3899-adb5-57191291ef3f\"},\"id\":\"8496d50a-5f8b-4e8d-b847-1d76905522b7\",\"image\":{\"url\":\"https://media.visable-staging.com/https://supplier-offers-media-production.s3.eu-central-1.amazonaws.com/7c4cff19-fe60-11ef-a2cb-0a58a9feac02.jpeg?w=300&h=300\"},\"images\":[{\"url\":\"https://media.visable-staging.com/https://supplier-offers-media-production.s3.eu-central-1.amazonaws.com/7c4cff19-fe60-11ef-a2cb-0a58a9feac02.jpeg?w=300&h=300\"}],\"language\":\"en\",\"minimum_order_quantity\":\"10 pieces\",\"name\":\"Used iPhone series wholesale\",\"sell_points\":[],\"trace_info_id\":\"dffc997f54d84d1ba942362a94bda2aa\",\"uuid\":\"8496d50a-5f8b-4e8d-b847-1d76905522b7\"},{\"company\":{\"average_response_time\":\"<24h\",\"country_code\":\"DE\",\"is_email_existing\":false,\"is_quick_responder\":true,\"is_top_partner\":false,\"is_top_responder\":true,\"is_verified\":false,\"logo_url\":\"https://media.visable-staging.com/https://wlw-1-company-facts-media20191122174836234900000006.s3.eu-central-1.amazonaws.com/5cb6c998-4dc2-4e7e-aa79-910013874990.gif?w=300&h=300\",\"name\":\"BTV LOHSA\",\"response_rate\":\"100%\",\"uuid\":\"6a33f659-95d0-34da-819e-cb979a6232e0\"},\"id\":\"42fffcd1-ca0c-5178-b89e-422a310519e2\",\"image\":{\"url\":\"https://media.visable-stagi...(truncated)","steps":[{"name":"GET https://api.staging.visable.io/mobile/public_api/products/recommendations","time":{"start":1784860588132,"stop":1784860588295,"duration":163},"status":"passed","steps":[],"attachments":[],"parameters":[{"name":"httpStatus","value":"200"},{"name":"responseTimeMs","value":"163"}],"shouldDisplayMessage":false,"stepsCount":0,"attachmentsCount":0,"hasContent":true},{"name":"assert: Status code is 200 or 201","time":{},"status":"passed","steps":[],"attachments":[],"parameters":[],"shouldDisplayMessage":false,"stepsCount":0,"attachmentsCount":0,"hasContent":false},{"name":"assert: Response time is less than 8000ms","time":{},"status":"passed","steps":[],"attachments":[],"parameters":[],"shouldDisplayMessage":false,"stepsCount":0,"attachmentsCount":0,"hasContent":false},{"name":"assert: Response body is JSON","time":{},"status":"passed","steps":[],"attachments":[],"parameters":[],"shouldDisplayMessage":false,"stepsCount":0,"attachmentsCount":0,"hasContent":false},{"name":"assert: Header Content-Type is application/json","time":{},"status":"passed","steps":[],"attachments":[],"parameters":[],"shouldDisplayMessage":false,"stepsCount":0,"attachmentsCount":0,"hasContent":false},{"name":"assert: Pagination","time":{},"status":"passed","steps":[],"attachments":[],"parameters":[],"shouldDisplayMessage":false,"stepsCount":0,"attachmentsCount":0,"hasContent":false},{"name":"assert: Company object","time":{},"status":"passed","steps":[],"attachments":[],"parameters":[],"shouldDisplayMessage":false,"stepsCount":0,"attachmentsCount":0,"hasContent":false},{"name":"assert: Product object","time":{},"status":"passed","steps":[],"attachments":[],"parameters":[],"shouldDisplayMessage":false,"stepsCount":0,"attachmentsCount":0,"hasContent":false},{"name":"assert: MOQ and price are string if the exist","time":{},"status":"failed","statusMessage":"expected { Object (currency, kind, ...) } to be a string","steps":[],"attachments":[],"parameters":[],"shouldDisplayMessage":true,"stepsCount":0,"attachmentsCount":0,"hasContent":true}],"attachments":[{"uid":"188ea510af5ebeb3","name":"request","source":"188ea510af5ebeb3.txt","type":"text/plain","size":760},{"uid":"95e19fa6be93a50f","name":"response","source":"95e19fa6be93a50f.txt","type":"text/plain","size":56017}],"parameters":[],"shouldDisplayMessage":true,"stepsCount":9,"attachmentsCount":2,"hasContent":true},"afterStages":[],"labels":[{"name":"epic","value":"Hummingbird"},{"name":"feature","value":"Technical"},{"name":"framework","value":"newman"},{"name":"language","value":"javascript"},{"name":"parentSuite","value":"1 Team Hummingbird - BFF | EP app"},{"name":"suite","value":"Endpoint tests"},{"name":"subSuite","value":"Homepage, products"},{"name":"testClass","value":"product recommendations EN"},{"name":"package","value":"1 Team Hummingbird - BFF | EP app / Endpoint tests / Homepage, products"},{"name":"resultFormat","value":"allure2"}],"parameters":[{"name":"env","value":"Hummingbird_Staging"},{"name":"envUid","value":"10155542-4ef9191e-ae13-46f4-bfc1-7b40219e3634"},{"name":"folder","value":"Endpoint tests / Homepage, products"},{"name":"httpStatus","value":"200"},{"name":"method","value":"GET"},{"name":"url","value":"https://api.staging.visable.io/mobile/public_api/products/recommendations"}],"links":[],"hidden":false,"retry":false,"extra":{"severity":"normal","retries":[],"categories":[{"name":"Product defects","matchedStatuses":[],"flaky":false}],"tags":[]},"source":"15ae50c880eccbc3.json","parameterValues":["Hummingbird_Staging","10155542-4ef9191e-ae13-46f4-bfc1-7b40219e3634","Endpoint tests / Homepage, products","200","GET","https://api.staging.visable.io/mobile/public_api/products/recommendations"]}