httpStatus=200
responseTimeMs=126
responseSize=4574
headers=
Date: Wed, 22 Jul 2026 07:17:00 GMT
Content-Type: application/json
Transfer-Encoding: chunked
Connection: keep-alive
Vary: Origin
Vary: Access-Control-Request-Method
Vary: Access-Control-Request-Headers
X-Content-Type-Options: nosniff
X-XSS-Protection: 0
Cache-Control: no-cache, no-store, max-age=0, must-revalidate
Pragma: no-cache
Expires: 0
X-Frame-Options: DENY

body=
{"recommendations":[{"rfqId":"b949a817-e90b-4a31-a8c8-fc9931037976","senderId":"22f9f236-bd52-43d9-a765-7f573b7debb6","createdAt":"2026-07-22T04:04:56.616897Z","rfqOrigin":"APP","interestedCount":0,"title":"carplay","quantity":"10 - 50","deliveryLocation":"Juárez, Chih., México","conversationId":null,"isBlocked":false,"matchType":"sortByTime","status":"ACCEPTED","convertedFromQdr":false,"hasReachedLimit":false,"platform":"EP","isResponded":false},{"rfqId":"921544a3-7ebf-41db-bbad-0b483ec01ad0","senderId":"cf2eed57-48be-4052-a08d-c8fd98a07464","createdAt":"2026-07-22T03:30:58.397345Z","rfqOrigin":"ALI","interestedCount":0,"title":"CIP price for 200T ","quantity":"200 Metric Ton/Metric Tons","deliveryLocation":"DE","conversationId":null,"isBlocked":false,"matchType":"sortByTime","status":"PROCESSED","convertedFromQdr":false,"hasReachedLimit":false,"platform":"WLW","isResponded":false},{"rfqId":"317ae877-9eec-423a-85b0-07046c4f28fe","senderId":"e8454606-126a-4cc4-b714-54df02861405","createdAt":"2026-07-22T03:20:25.335524Z","rfqOrigin":"APP","interestedCount":0,"title":"packaging ","quantity":"more_than_50","deliveryLocation":"Haatso, Ghana","conversationId":null,"isBlocked":false,"matchType":"sortByTime","status":"PROCESSED","convertedFromQdr":false,"hasReachedLimit":false,"platform":"EP","isResponded":false},{"rfqId":"db76cdec-8467-4670-b339-0d4a4d5e4282","senderId":"67954ebf-3a2b-494d-9ec9-ac5c815d9f68","createdAt":"2026-07-22T02:33:31.741559Z","rfqOrigin":"ALI","interestedCount":0,"title":"thank you gifts","quantity":"500 stuk/stukken","deliveryLocation":"NL","conversationId":null,"isBlocked":false,"matchType":"sortByTime","status":"PROCESSED","convertedFromQdr":false,"hasReachedLimit":false,"platform":"EP","isResponded":false},{"rfqId":"66d41ad2-2b0a-464d-aec2-071c1c214f87","senderId":"9a343233-7541-4700-84db-672132db5e68","createdAt":"2026-07-22T02:32:16.483469Z","rfqOrigin":"APP","interestedCount":0,"title":"charcoal ","quantity":"0","deliveryLocation":"Nigeria","conversationId":null,"isBlocked":false,"matchType":"sortByTime","status":"PROCESSED","convertedFromQdr":false,"hasReachedLimit":false,"platform":"EP","isResponded":false},{"rfqId":"b6850cc7-c689-4929-9d0e-3486380ba5e2","senderId":"530ce1bf-a99f-4ebb-b799-f10068a2f47f","createdAt":"2026-07-22T00:55:39.702449Z","rfqOrigin":"ALI","interestedCount":0,"title":"3D printed reptile enclosure with acrylic panel","quantity":"150 Pièce/Pièces","deliveryLocation":"FR","conversationId":null,"isBlocked":false,"matchType":"sortByTime","status":"PROCESSED","convertedFromQdr":false,"hasReachedLimit":false,"platform":"EP","isResponded":false},{"rfqId":"85694f42-77ec-4f95-800d-5db45304ad94","senderId":"913cab39-c256-4488-980b-1be1923f75c9","createdAt":"2026-07-22T00:42:53.639239Z","rfqOrigin":"ALI","interestedCount":0,"title":"LiDa Extra Slim Natural Plant Extract Slimming Capsules","quantity":"10 Cartón/Cartones","deliveryLocation":"ES","conversationId":null,"isBlocked":false,"matchType":"sortByTime","status":"PROCESSED","convertedFromQdr":false,"hasReachedLimit":false,"platform":"EP","isResponded":false},{"rfqId":"e10dfd2f-c457-496b-9f40-f2956d249c2f","senderId":"1cab5787-89cf-4d6f-bf67-0b1180565e15","createdAt":"2026-07-22T00:03:48.510041Z","rfqOrigin":"CONNECT_ONE_FORM","interestedCount":0,"title":"Philips Sonicare Prestige 9900 HX9992/11 Duo Pack","quantity":"5000","deliveryLocation":"MK58BJ","conversationId":null,"isBlocked":false,"matchType":"sortByTime","status":"ACCEPTED","convertedFromQdr":true,"hasReachedLimit":false,"platform":"EP","isResponded":false},{"rfqId":"2be6b20a-ec48-4751-a519-12443fb2c01c","senderId":"98dd40af-3442-488d-862a-31c4a074170c","createdAt":"2026-07-22T00:03:48.151536Z","rfqOrigin":"APP","interestedCount":0,"title":"I would like to buy one set of your truck door lock as attached ","quantity":"1 set","deliveryLocation":"蚌埠市, 中国","conversationId":null,"isBlocked":false,"matchType":"sortByTime","status":"PROCESSED","convertedFromQdr":true,"hasReachedLimit":false,"platform":"EP","isResponded":false},{"rfqId":"f5774588-967c-4518-be35-4e23dee70a75","senderId":"98dd40af-3442-488d-862a-31c4a074170c","createdAt":"2026-07-22T00:03:47.858182Z","rfqOrigin":"APP","interestedCount":0,"title":"need to buy one set of refrigerated truck door lock","quantity":"1set","deliveryLocation":"蚌埠市, 中国","conversationId":null,"isBlocked":false,"matchType":"sortByTime","status":"PROCESSED","convertedFromQdr":true,"hasReachedLimit":false,"platform":"EP","isResponded":false}],"page":1,"pageSize":10,"total":5000,"next":2}