httpStatus=200
responseTimeMs=122
responseSize=56506
headers=
Date: Wed, 22 Jul 2026 07:15:51 GMT
Content-Type: application/json
Transfer-Encoding: chunked
Connection: keep-alive
Server: nginx
Vary: Accept-Encoding
Vary: Origin
Vary: Access-Control-Request-Method
Vary: Access-Control-Request-Headers
X-Content-Type-Options: nosniff
X-XSS-Protection: 0
Cache-Control: no-cache, no-store, max-age=0, must-revalidate
Pragma: no-cache
Expires: 0
X-Frame-Options: DENY
Strict-Transport-Security: max-age=31536000
Content-Encoding: gzip

body=
{"display_products":true,"paging":{"current_page":1,"total":51,"total_pages":2},"products":[{"company":{"average_response_time":"<24h","country_code":"BE","is_email_existing":false,"is_quick_responder":true,"is_top_partner":false,"is_top_responder":true,"is_verified":false,"logo_url":"https://media.visable-staging.com/https://wlw-1-company-facts-media20191122174836234900000006.s3.eu-central-1.amazonaws.com/946e1350-8896-476c-a6c7-926cb5161995.jpeg?w=300&h=300","name":"B.J.K Import Export B.V","response_rate":"90%","uuid":"e14b01f9-9498-4b36-a86f-0f866ff3306d"},"id":"e8c3ea72-2f92-4d94-90ec-969a5eaf7fc5","image":{"url":"https://media.visable-staging.com/https://supplier-offers-media-production.s3.eu-central-1.amazonaws.com/93c813ae-53b7-11f1-8b83-0a58a9feac02.jpeg?w=300&h=300"},"images":[{"url":"https://media.visable-staging.com/https://supplier-offers-media-production.s3.eu-central-1.amazonaws.com/93c813ae-53b7-11f1-8b83-0a58a9feac02.jpeg?w=300&h=300"}],"language":"en","minimum_order_quantity":"250000 kg","name":"Used Branded Shoes Wholesale, Sneakers, Second-Hand Vans Brand Shoes for Export.","price":{"currency":"EUR","kind":"range","max":"10","min":"7","original_currency":"EUR","original_max":"10","original_min":"7","vat_included":false},"sell_points":[],"trace_info_id":"41945cc2ecce4473a41d4cb0fd2a046d","uuid":"e8c3ea72-2f92-4d94-90ec-969a5eaf7fc5"},{"company":{"average_response_time":"<24h","country_code":"DE","is_email_existing":false,"is_quick_responder":false,"is_top_partner":false,"is_top_responder":false,"is_verified":false,"logo_url":"https://media.visable-staging.com/https://wlw-1-company-facts-media20191122174836234900000006.s3.eu-central-1.amazonaws.com/23e26ae5-e6a7-4896-a872-cdffa2f5b019.png?w=300&h=300","name":"SKC Textilrecycling KG","response_rate":"0%","uuid":"43ff91f2-26a1-4d2a-9b88-e5cea234fb6a"},"id":"28c88680-12f3-4189-b9bb-adb31f906215","image":{"url":"https://media.visable-staging.com/https://supplier-offers-media-production.s3.eu-central-1.amazonaws.com/a6d98f81-52b3-11f1-996b-0a58a9feac02.jpeg?w=300&h=300"},"images":[{"url":"https://media.visable-staging.com/https://supplier-offers-media-production.s3.eu-central-1.amazonaws.com/a6d98f81-52b3-11f1-996b-0a58a9feac02.jpeg?w=300&h=300"}],"language":"en","name":"Used Clothing Frankfurt am Main Circle","sell_points":[],"trace_info_id":"41945cc2ecce4473a41d4cb0fd2a046d","uuid":"28c88680-12f3-4189-b9bb-adb31f906215"},{"company":{"average_response_time":"<24h","country_code":"GB","is_email_existing":false,"is_quick_responder":true,"is_top_partner":false,"is_top_responder":true,"is_verified":false,"logo_url":"https://media.visable-staging.com/?w=300&h=300","name":"FLEXITRADE IMPORT-EXPORT LTD","response_rate":"91%","uuid":"6674cc39-62d3-472f-8410-69911a280541"},"id":"5255f8f2-0bfe-4056-b196-aa0a9b6a957b","image":{"url":"https://media.visable-staging.com/https://supplier-offers-media-production.s3.eu-central-1.amazonaws.com/3c260cd3-34c3-11f1-a8de-0a58a9feac02.jpeg?w=300&h=300"},"images":[{"url":"https://media.visable-staging.com/https://supplier-offers-media-production.s3.eu-central-1.amazonaws.com/3c260cd3-34c3-11f1-a8de-0a58a9feac02.jpeg?w=300&h=300"}],"language":"en","minimum_order_quantity":"2 units","name":"PlayStation 5 Digital Edition - Slim Console","price":{"currency":"EUR","kind":"from","min":"280","original_currency":"EUR","original_min":"280","vat_included":false},"sell_points":[],"trace_info_id":"41945cc2ecce4473a41d4cb0fd2a046d","uuid":"5255f8f2-0bfe-4056-b196-aa0a9b6a957b"},{"company":{"average_response_time":"24h-48h","country_code":"DE","is_email_existing":false,"is_quick_responder":false,"is_top_partner":false,"is_top_responder":false,"is_verified":true,"logo_url":"https://media.visable-staging.com/https://wlw-1-company-facts-media20191122174836234900000006.s3.eu-central-1.amazonaws.com/f0c6e536-8d7c-4f18-b0c2-1c8e6214a2d2.gif?w=300&h=300","name":"René Schwab Flexible Verpackungen","response_rate":"10%","uuid":"00505682-f25b-1ee9-bd91-d293ef2db7fb"},"id":"49303eb0-8111-4507-8cf4-fc79a25bd389","image":{"url":"https://media.visable-staging.com/https://supplier-offers-media-production.s3.eu-central-1.amazonaws.com/d2198a40-533e-11f1-8b83-0a58a9feac02.jpeg?w=300&h=300"},"images":[{"url":"https://media.visable-staging.com/https://supplier-offers-media-production.s3.eu-central-1.amazonaws.com/d2198a40-533e-11f1-8b83-0a58a9feac02.jpeg?w=300&h=300"}],"language":"en","name":"2-ply corrugated cardboard – robust & economical packaging","sell_points":[],"trace_info_id":"41945cc2ecce4473a41d4cb0fd2a046d","uuid":"49303eb0-8111-4507-8cf4-fc79a25bd389"},{"company":{"average_response_time":"<24h","country_code":"NL","is_email_existing":false,"is_quick_responder":false,"is_top_partner":false,"is_top_responder":false,"is_verified":false,"logo_url":"https://media.visable-staging.com/https://wlw-1-company-facts-media20191122174836234900000006.s3.eu-central-1.amazonaws.com/54ef0113-2197-4aab-b45b-a92573f0b67f.png?w=300&h=300","name":"Tupak Packaging B.V.","response_rate":"0%","uuid":"2eb5867f-5e6c-4e86-88db-c1a10ce7b373"},"id":"2cc076b8-fbb7-4548-85fa-dddf6daad865","image":{"url":"https://media.visable-staging.com/https://supplier-offers-media-production.s3.eu-central-1.amazonaws.com/bdaafb7e-b5ad-4310-b93f-0fd689774e9f.webp?w=300&h=300"},"images":[{"url":"https://media.visable-staging.com/https://supplier-offers-media-production.s3.eu-central-1.amazonaws.com/bdaafb7e-b5ad-4310-b93f-0fd689774e9f.webp?w=300&h=300"}],"language":"en","minimum_order_quantity":"20 pieces","name":"Book packaging middle filling heavy quality with strip","price":{"currency":"EUR","kind":"range","max":"2,43","min":"0,79","original_currency":"EUR","original_max":"2,43","original_min":"0,79","vat_included":false},"sell_points":[],"trace_info_id":"41945cc2ecce4473a41d4cb0fd2a046d","uuid":"2cc076b8-fbb7-4548-85fa-dddf6daad865"},{"company":{"average_response_time":"<24h","country_code":"DE","is_email_existing":false,"is_quick_responder":false,"is_top_partner":false,"is_top_responder":false,"is_verified":false,"logo_url":"https://media.visable-staging.com/?w=300&h=300","name":"DWS DRUCK- UND WERBEZENTRUM SELB INH. ANDREA KÖHLER-ZÖRNTLEIN UND ANDREA PATTLOCH GDBR","response_rate":"0%","uuid":"ec84da44-142d-3671-817d-9b51ffb2cb0d"},"id":"8bd67baf-5f85-5f8b-8194-666579ef95bb","image":{"url":"https://media.visable-staging.com/https://supplier-offers-media-production.s3.eu-central-1.amazonaws.com/f741d09f-6c67-11ef-a5d3-0a58a9feac02.jpeg?w=300&h=300"},"images":[{"url":"https://media.visable-staging.com/https://supplier-offers-media-production.s3.eu-central-1.amazonaws.com/f741d09f-6c67-11ef-a5d3-0a58a9feac02.jpeg?w=300&h=300"}],"language":"en","name":"Arofol Air Cushion Bags with Trifix Closure","sell_points":[],"trace_info_id":"41945cc2ecce4473a41d4cb0fd2a046d","uuid":"8bd67baf-5f85-5f8b-8194-666579ef95bb"},{"company":{"average_response_time":"24h-48h","country_code":"DE","is_email_existing":false,"is_quick_responder":true,"is_top_partner":false,"is_top_responder":true,"is_verified":true,"logo_url":"https://media.visable-staging.com/https://wlw-1-company-facts-media20191122174836234900000006.s3.eu-central-1.amazonaws.com/46ea5877-5e00-4a70-85d0-73c4f20a4633.png?w=300&h=300","name":"MK Verpackungsagentur GmbH","response_rate":"52%","uuid":"c41b4a55-8815-4e71-a9d4-34352236937b"},"id":"ea7b856a-8d52-45c4-98a7-1d4cc7aed02e","image":{"url":"https://media.visable-staging.com/https://supplier-offers-media-production.s3.eu-central-1.amazonaws.com/3c8c7a23-da82-11f0-8401-0a58a9feac02.jpeg?w=300&h=300"},"images":[{"url":"https://media.visable-staging.com/https://supplier-offers-media-production.s3.eu-central-1.amazonaws.com/3c8c7a23-da82-11f0-8401-0a58a9feac02.jpeg?w=300&h=300"}],"language":"en","name":"Shipping tube 112 x 112 x 1,050 mm with adhesive strip (can serve as an extension)","price":{"currency":"EUR","kind":"range","max":"2.350","min":"900","original_currency":"EUR","original_max":"2.350","original_min":"900","vat_included":false},"sell_points":[],"trace_info_id":"41945cc2ecce4473a41d4cb0fd2a046d","uuid":"ea7b856a-8d52-45c4-98a7-1d4cc7aed02e"},{"company":{"average_response_time":"<24h","country_code":"FR","is_email_existing":false,"is_quick_responder":false,"is_top_partner":false,"is_top_responder":false,"is_verified":false,"logo_url":"https://media.visable-staging.com/https://wlw-1-company-facts-media20191122174836234900000006.s3.eu-central-1.amazonaws.com/68390dbf-a1d1-47e3-bbc4-414bc378d31e.png?w=300&h=300","name":"IODE","response_rate":"0%","uuid":"11a51558-d6db-40b1-89f7-08bb2e6686c2"},"id":"681c0aca-2444-477d-aa81-d1d961a6ca4c","image":{"url":"https://media.visable-staging.com/https://supplier-offers-media-production.s3.eu-central-1.amazonaws.com/59c8b074-8071-4ff8-9753-8288cbcdd6fe.png?w=300&h=300"},"images":[{"url":"https://media.visable-staging.com/https://supplier-offers-media-production.s3.eu-central-1.amazonaws.com/59c8b074-8071-4ff8-9753-8288cbcdd6fe.png?w=300&h=300"}],"language":"en","minimum_order_quantity":"5 units","name":"Google Pixel 8 iodé / Google Pixel 8 × 1","price":{"currency":"EUR","kind":"fixed","min":"423","original_currency":"EUR","original_min":"423","vat_included":false},"sell_points":[],"trace_info_id":"41945cc2ecce4473a41d4cb0fd2a046d","uuid":"681c0aca-2444-477d-aa81-d1d961a6ca4c"},{"company":{"average_response_time":"<24h","country_code":"DE","is_email_existing":false,"is_quick_responder":false,"is_top_partner":false,"is_top_responder":false,"is_verified":true,"logo_url":"https://media.visable-staging.com/https://wlw-1-company-facts-media20191122174836234900000006.s3.eu-central-1.amazonaws.com/c01f9352-980d-4abd-8fea-5b51c6a54fbe.png?w=300&h=300","name":"Plotline - Bernd Witte & Michael Karpinski oHG","response_rate":"10%","uuid":"00505682-f25b-1ee9-bd91-d299984bf7fb"},"id":"bd4a8610-6daf-4f54-b29b-f42227712acf","image":{"url":"https://media.visable-staging.com/https://supplier-offers-media-production.s3.eu-central-1.amazonaws.com/cfe8aad5-c3b4-11f0-beda-0a58a9feac02.jpeg?w=300&h=300"},"images":[{"url":"https://media.visable-staging.com/https://supplier-offers-media-production.s3.eu-central-1.amazonaws.com/cfe8aad5-c3b4-11f0-beda-0a58a9feac02.jpeg?w=300&h=300"}],"language":"en","name":"Apple iPhone 16 Pro – 5G Smartphone – Dual-SIM / Internal Storage 128 GB – OLED Display – 6.3″ – 26","price":{"currency":"EUR","kind":"from","min":"1.029,47","original_currency":"EUR","original_min":"1.029,47","vat_included":false},"sell_points":[],"trace_info_id":"41945cc2ecce4473a41d4cb0fd2a046d","uuid":"bd4a8610-6daf-4f54-b29b-f42227712acf"},{"company":{"average_response_time":"<24h","country_code":"DE","is_email_existing":false,"is_quick_responder":false,"is_top_partner":false,"is_top_responder":false,"is_verified":false,"logo_url":"https://media.visable-staging.com/https://wlw-1-company-facts-media20191122174836234900000006.s3.eu-central-1.amazonaws.com/6ecb955b-dda5-472a-80ff-128453e617d8.gif?w=300&h=300","name":"MAKANT EUROPE GMBH & CO. KG","response_rate":"0%","uuid":"3c40907c-793e-3d2c-8528-e8ec8b40b5ab"},"id":"a8c49e0c-6c7b-5460-a0a3-59ea89b7f51c","image":{"url":"https://media.visable-staging.com/https://supplier-offers-media-production.s3.eu-central-1.amazonaws.com/dba9f4d9-5388-11f1-996b-0a58a9feac02.jpeg?w=300&h=300"},"images":[{"url":"https://media.visable-staging.com/https://supplier-offers-media-production.s3.eu-central-1.amazonaws.com/dba9f4d9-5388-11f1-996b-0a58a9feac02.jpeg?w=300&h=300"}],"language":"en","name":"Apple iPhone SE 64GB 2. Generation White 4.7\" MX9T2ZD/A","sell_points":[],"trace_info_id":"41945cc2ecce4473a41d4cb0fd2a046d","uuid":"a8c49e0c-6c7b-5460-a0a3-59ea89b7f51c"},{"company":{"average_response_time":"<24h","country_code":"DE","is_email_existing":false,"is_quick_responder":true,"is_top_partner":false,"is_top_responder":true,"is_verified":true,"logo_url":"https://media.visable-staging.com/https://wlw-1-company-facts-media20191122174836234900000006.s3.eu-central-1.amazonaws.com/1eab212d-a023-4a...(truncated)