httpStatus=200
responseTimeMs=520
responseSize=170447
headers=
Date: Wed, 22 Jul 2026 07:15:47 GMT
Content-Type: application/json
Transfer-Encoding: chunked
Connection: keep-alive
Server: nginx
Vary: Accept-Encoding
Vary: Origin
Vary: Access-Control-Request-Method
Vary: Access-Control-Request-Headers
X-Content-Type-Options: nosniff
X-XSS-Protection: 0
Cache-Control: no-cache, no-store, max-age=0, must-revalidate
Pragma: no-cache
Expires: 0
X-Frame-Options: DENY
Strict-Transport-Security: max-age=31536000
Content-Encoding: gzip

body=
{"display_products":true,"filters":[{"display_name":"Sort by","key":"sort","type":"SINGLE_SELECTION","values":[{"display_name":"Relevance","enabled":true,"key":"relevance","selected":false,"values":[]},{"display_name":"Distance","enabled":true,"key":"distance","selected":false,"values":[]}]},{"display_name":"Location","key":"location","type":"SINGLE_SELECTION","values":[{"display_name":"10km","enabled":true,"key":"10km","selected":false,"values":[]},{"display_name":"25km","enabled":true,"key":"25km","selected":false,"values":[]},{"display_name":"50km","enabled":true,"key":"50km","selected":false,"values":[]},{"display_name":"75km","enabled":true,"key":"75km","selected":false,"values":[]},{"display_name":"100km","enabled":true,"key":"100km","selected":false,"values":[]},{"display_name":"125km","enabled":true,"key":"125km","selected":false,"values":[]},{"display_name":"250km","enabled":true,"key":"250km","selected":false,"values":[]}]},{"display_name":"Number of employees","key":"employee_counts","type":"MULTI_SELECTION","values":[{"count":466,"display_name":"1-4 (466)","enabled":true,"key":"From1To4","values":[]},{"count":2203,"display_name":"5-9 (2203)","enabled":true,"key":"From5To9","values":[]},{"count":773,"display_name":"10-19 (773)","enabled":true,"key":"From10To19","values":[]},{"count":3187,"display_name":"20-49 (3187)","enabled":true,"key":"From20To49","values":[]},{"count":978,"display_name":"50-99 (978)","enabled":true,"key":"From50To99","values":[]},{"count":465,"display_name":"100-199 (465)","enabled":true,"key":"From100To199","values":[]},{"count":304,"display_name":"200-499 (304)","enabled":true,"key":"From200To499","values":[]},{"count":38,"display_name":"500-999 (38)","enabled":true,"key":"From500To999","values":[]},{"count":178,"display_name":"1000+ (178)","enabled":true,"key":"MoreThan1000","values":[]}]},{"display_name":"Company profile","key":"audits","type":"BOOLEAN","values":[{"count":2270,"display_name":"Verified (2270)","enabled":true,"key":"verified","selected":false,"values":[]}]},{"display_name":"Ships from","key":"ships_from","type":"MULTI_SELECTION","values":[{"count":5534,"display_name":"Germany (5534)","enabled":true,"key":"DE","values":[]},{"count":1313,"display_name":"Turkey (1313)","enabled":true,"key":"TR","values":[]},{"count":995,"display_name":"Italy (995)","enabled":true,"key":"IT","values":[]},{"count":615,"display_name":"France (615)","enabled":true,"key":"FR","values":[]},{"count":426,"display_name":"Switzerland (426)","enabled":true,"key":"CH","values":[]},{"count":397,"display_name":"Austria (397)","enabled":true,"key":"AT","values":[]},{"count":364,"display_name":"Poland (364)","enabled":true,"key":"PL","values":[]},{"count":317,"display_name":"United Kingdom (317)","enabled":true,"key":"GB","values":[]},{"count":291,"display_name":"Spain (291)","enabled":true,"key":"ES","values":[]},{"count":184,"display_name":"Belgium (184)","enabled":true,"key":"BE","values":[]},{"count":140,"display_name":"Czech Republic (140)","enabled":true,"key":"CZ","values":[]},{"count":138,"display_name":"Portugal (138)","enabled":true,"key":"PT","values":[]},{"count":109,"display_name":"Romania (109)","enabled":true,"key":"RO","values":[]},{"count":90,"display_name":"Slovenia (90)","enabled":true,"key":"SI","values":[]},{"count":83,"display_name":"Hungary (83)","enabled":true,"key":"HU","values":[]},{"count":80,"display_name":"Netherlands (80)","enabled":true,"key":"NL","values":[]},{"count":68,"display_name":"Bulgaria (68)","enabled":true,"key":"BG","values":[]},{"count":53,"display_name":"Serbia (53)","enabled":true,"key":"RS","values":[]},{"count":50,"display_name":"Slovakia (50)","enabled":true,"key":"SK","values":[]},{"count":45,"display_name":"Lithuania (45)","enabled":true,"key":"LT","values":[]},{"count":42,"display_name":"Ukraine (42)","enabled":true,"key":"UA","values":[]},{"count":39,"display_name":"Greece (39)","enabled":true,"key":"GR","values":[]},{"count":37,"display_name":"Croatia (37)","enabled":true,"key":"HR","values":[]},{"count":24,"display_name":"Estonia (24)","enabled":true,"key":"EE","values":[]},{"count":22,"display_name":"Bosnia & Herzegovina (22)","enabled":true,"key":"BA","values":[]},{"count":21,"display_name":"Denmark (21)","enabled":true,"key":"DK","values":[]},{"count":18,"display_name":"Latvia (18)","enabled":true,"key":"LV","values":[]},{"count":15,"display_name":"Sweden (15)","enabled":true,"key":"SE","values":[]},{"count":13,"display_name":"Ireland (13)","enabled":true,"key":"IE","values":[]},{"count":11,"display_name":"Luxembourg (11)","enabled":true,"key":"LU","values":[]},{"count":10,"display_name":"Norway (10)","enabled":true,"key":"NO","values":[]},{"count":10,"display_name":"Finland (10)","enabled":true,"key":"FI","values":[]},{"count":9,"display_name":"Macedonia (9)","enabled":true,"key":"MK","values":[]},{"count":5,"display_name":"Albania (5)","enabled":true,"key":"AL","values":[]},{"count":4,"display_name":"Malta (4)","enabled":true,"key":"MT","values":[]},{"count":3,"display_name":"Liechtenstein (3)","enabled":true,"key":"LI","values":[]},{"count":2,"display_name":"San Marino (2)","enabled":true,"key":"SM","values":[]},{"count":2,"display_name":"Andorra (2)","enabled":true,"key":"AD","values":[]},{"count":2,"display_name":"Åland Islands (2)","enabled":true,"key":"AX","values":[]},{"count":1,"display_name":"Monaco (1)","enabled":true,"key":"MC","values":[]},{"count":1,"display_name":"Moldova (1)","enabled":true,"key":"MD","values":[]},{"count":1,"display_name":"Montenegro (1)","enabled":true,"key":"ME","values":[]},{"count":1,"display_name":"Vatican City (1)","enabled":true,"key":"VA","values":[]}]},{"display_name":"Supplier type","key":"supplier_types","type":"MULTI_SELECTION","values":[{"count":8414,"display_name":"Manufacturer/Producer (8414)","enabled":true,"key":"production","values":[]},{"count":1292,"display_name":"Customer-specific manufacturer (1292)","enabled":true,"key":"customer_specific_manufacturing","values":[]},{"count":1383,"display_name":"Distribution (1383)","enabled":true,"key":"distribution","values":[]},{"count":3747,"display_name":"Service (3747)","enabled":true,"key":"service","values":[]},{"count":816,"display_name":"Wholesaler (816)","enabled":true,"key":"wholesaler","values":[]}]}],"paging":{"current_page":1,"total":11616,"total_pages":388},"results":[{"company":{"average_response_time":"less_than_24h","city":"Finnentrop","country_code":"DE","distribution_area":"international","email":"","employee_count":"5-9","founding_year":1992,"highlightings":{"description":"CNC coordinate grinding, CNC cylindrical grinding, coordinate grinding, CNC grinding work, cylindrical grinding, internal cylindrical grinding, external..."},"homepage":"http://www.adcos-cnc-technik.de/","is_customer":true,"is_email_existing":true,"is_top_partner":false,"is_top_responder":true,"is_verified":true,"location":{"latitude":51.150974,"longitude":7.961999},"logo_url":"https://media.visable-staging.com/https://wlw-1-company-facts-media20191122174836234900000006.s3.eu-central-1.amazonaws.com/97b5fb07-0cfd-4842-b58c-a0aad51ea43e.gif?w=300&h=300","name":"ADCOS CNC Technik GmbH","package_name":"","pictures":[{"caption":"Zertifikat","description":"","title":{"de":"Zertifikat"},"url":"https://media.visable-staging.com/https://wlw-1-company-facts-media20191122174836234900000006.s3.eu-central-1.amazonaws.com/2e6f06e1-3058-457d-be6e-5650e6a218f1.jpeg?w=300&h=300"},{"caption":"Fahrzeug","description":"","title":{"de":"Fahrzeug"},"url":"https://media.visable-staging.com/https://wlw-1-company-facts-media20191122174836234900000006.s3.eu-central-1.amazonaws.com/c7b679d1-fa07-4e76-97db-43691b0c7791.jpeg?w=300&h=300"},{"caption":"Bild","description":"","title":{"de":"Bild"},"url":"https://media.visable-staging.com/https://wlw-1-company-facts-media20191122174836234900000006.s3.eu-central-1.amazonaws.com/5822cb65-98e1-4db7-9f3a-9274b1c4dcb4.jpeg?w=300&h=300"},{"caption":"Rundschleifmaschine","description":"","title":{"de":"Rundschleifmaschine"},"url":"https://media.visable-staging.com/https://wlw-1-company-facts-media20191122174836234900000006.s3.eu-central-1.amazonaws.com/12248033-18d2-478d-9334-6226277df4f4.png?w=300&h=300"},{"caption":"Hauser S50","description":"","title":{"de":"Hauser S50"},"url":"https://media.visable-staging.com/https://wlw-1-company-facts-media20191122174836234900000006.s3.eu-central-1.amazonaws.com/f60d82f8-c844-4a20-bff5-eca3da379d82.jpeg?w=300&h=300"},{"caption":"Hauser S35 HiCut","description":"","title":{"de":"Hauser S35 HiCut"},"url":"https://media.visable-staging.com/https://wlw-1-company-facts-media20191122174836234900000006.s3.eu-central-1.amazonaws.com/8ff1c549-1909-4345-8b80-2bec2047201d.jpeg?w=300&h=300"},{"caption":"Koordinatenschleifen","description":"","title":{"de":"Koordinatenschleifen"},"url":"https://media.visable-staging.com/https://wlw-1-company-facts-media20191122174836234900000006.s3.eu-central-1.amazonaws.com/df038b50-9595-4756-9796-96c18abcb160.jpeg?w=300&h=300"},{"caption":"Präzisionsschleifarbeit","description":"","title":{"de":"Präzisionsschleifarbeit"},"url":"https://media.visable-staging.com/https://wlw-1-company-facts-media20191122174836234900000006.s3.eu-central-1.amazonaws.com/c1c5d633-6ed0-416c-8bf7-cde705b54875.jpeg?w=300&h=300"},{"caption":"Service Überholung","description":"","title":{"de":"Service Überholung"},"url":"https://media.visable-staging.com/https://wlw-1-company-facts-media20191122174836234900000006.s3.eu-central-1.amazonaws.com/121ff398-7261-4433-8c06-4c963f6e68f1.jpeg?w=300&h=300"}],"product_count":"13","response_rate":1.0,"show_tags":[],"space_type":"relevance","street":"Biggestrasse 2","uuid":"00505682-f25b-1ee9-bd91-d298b3ed57fb","zipcode":"57413"},"products":[{"highlightings":{"description":""},"images":[{"url":"https://media.visable-staging.com/https://supplier-offers-media-production.s3.eu-central-1.amazonaws.com/b45aead8-5cfd-11f0-8e33-0a58a9feac02.png?w=300&h=300"}],"is_matching":false,"is_showcased":false,"name":"Coordinate loops","slug":"koordinatenschleifen-36036686"},{"highlightings":{"description":""},"images":[{"url":"https://media.visable-staging.com/https://supplier-offers-media-production.s3.eu-central-1.amazonaws.com/9253a0c4-de99-11ed-8b66-0a58a9feac02.jpeg?w=300&h=300"}],"is_matching":false,"is_showcased":false,"name":"Hauser S50 Coordinate Grinding Machine with Adcos CNC 800 Control","slug":"koordinatenschleifmaschine-hauser-s50-mit-steuerung-adcos-cnc-800-8264368"},{"highlightings":{"description":""},"images":[{"url":"https://media.visable-staging.com/https://supplier-offers-media-production.s3.eu-central-1.amazonaws.com/7ac68650-5cfb-11f0-b2de-0a58a9feac02.png?w=300&h=300"}],"is_matching":false,"is_showcased":false,"name":"Cylindrical Grinding","slug":"rundschleifen-36036696"},{"highlightings":{"description":""},"images":[{"url":"https://media.visable-staging.com/https://supplier-offers-media-production.s3.eu-central-1.amazonaws.com/053339d6-5cff-11f0-91dd-0a58a9feac02.png?w=300&h=300"}],"is_matching":false,"is_showcased":false,"name":"External cylindrical grinding","slug":"aussenrundschleifen-36038054"},{"highlightings":{"description":""},"images":[{"url":"https://media.visable-staging.com/https://supplier-offers-media-production.s3.eu-central-1.amazonaws.com/98be8b16-5cfb-11f0-abd2-0a58a9feac02.png?w=300&h=300"}],"is_matching":false,"is_showcased":false,"name":"CNC cylindrical grinding","slug":"cnc-rundschleifen-36036702"}]},{"company":{"average_response_time":"less_than_24h","city":"Izmir","country_code":"TR","distribution_area":"international","email":"","employee_count":"10-19","highlightings":{"description":"CNC MACHINING TR is a specialized manufacturing partner providing high-precision CNC solutions and integrated assembly services for the European and North..."},"homepage":"https://www.cncmachiningtr.com/","is_customer":true,"is_email_existing":true,"is_top_partner":false,"is_top_responder":true,"is_verified":true,"location...(truncated)