httpStatus=200
responseTimeMs=384
responseSize=146666
headers=
Date: Wed, 22 Jul 2026 07:16:33 GMT
Content-Type: application/json
Transfer-Encoding: chunked
Connection: keep-alive
Server: nginx
Vary: Accept-Encoding
Vary: Origin
Vary: Access-Control-Request-Method
Vary: Access-Control-Request-Headers
X-Content-Type-Options: nosniff
X-XSS-Protection: 0
Cache-Control: no-cache, no-store, max-age=0, must-revalidate
Pragma: no-cache
Expires: 0
X-Frame-Options: DENY
Strict-Transport-Security: max-age=31536000
Content-Encoding: gzip

body=
{"display_products":true,"filters":[{"display_name":"Trier par","key":"sort","type":"SINGLE_SELECTION","values":[{"display_name":"Pertinence","enabled":true,"key":"relevance","selected":false,"values":[]},{"display_name":"Distance","enabled":true,"key":"distance","selected":false,"values":[]}]},{"display_name":"Localisation","key":"location","type":"SINGLE_SELECTION","values":[{"display_name":"10km","enabled":true,"key":"10km","selected":false,"values":[]},{"display_name":"25km","enabled":true,"key":"25km","selected":false,"values":[]},{"display_name":"50km","enabled":true,"key":"50km","selected":false,"values":[]},{"display_name":"75km","enabled":true,"key":"75km","selected":false,"values":[]},{"display_name":"100km","enabled":true,"key":"100km","selected":false,"values":[]},{"display_name":"125km","enabled":true,"key":"125km","selected":false,"values":[]},{"display_name":"250km","enabled":true,"key":"250km","selected":false,"values":[]}]},{"display_name":"Nombre d'employés","key":"employee_counts","type":"MULTI_SELECTION","values":[{"count":40,"display_name":"1-4 (40)","enabled":true,"key":"From1To4","values":[]},{"count":42,"display_name":"5-9 (42)","enabled":true,"key":"From5To9","values":[]},{"count":54,"display_name":"10-19 (54)","enabled":true,"key":"From10To19","values":[]},{"count":52,"display_name":"20-49 (52)","enabled":true,"key":"From20To49","values":[]},{"count":22,"display_name":"50-99 (22)","enabled":true,"key":"From50To99","values":[]},{"count":26,"display_name":"100-199 (26)","enabled":true,"key":"From100To199","values":[]},{"count":24,"display_name":"200-499 (24)","enabled":true,"key":"From200To499","values":[]},{"count":8,"display_name":"500-999 (8)","enabled":true,"key":"From500To999","values":[]},{"count":4,"display_name":"1000+ (4)","enabled":true,"key":"MoreThan1000","values":[]}]},{"display_name":"Profil de l'entreprise","key":"audits","type":"BOOLEAN","values":[{"count":22,"display_name":"Vérifié (22)","enabled":true,"key":"verified","selected":false,"values":[]}]},{"display_name":"Expédié depuis","key":"ships_from","type":"MULTI_SELECTION","values":[{"count":269,"display_name":"Allemagne (269)","enabled":true,"key":"DE","values":[]},{"count":29,"display_name":"Autriche (29)","enabled":true,"key":"AT","values":[]},{"count":9,"display_name":"Suisse (9)","enabled":true,"key":"CH","values":[]},{"count":2,"display_name":"France (2)","enabled":true,"key":"FR","values":[]},{"count":1,"display_name":"Italie (1)","enabled":true,"key":"IT","values":[]},{"count":1,"display_name":"Roumanie (1)","enabled":true,"key":"RO","values":[]}]},{"display_name":"Type de fournisseurs","key":"supplier_types","type":"MULTI_SELECTION","values":[{"count":227,"display_name":"Fabricant/Producteur (227)","enabled":true,"key":"production","values":[]},{"count":9,"display_name":"Fabricant spécifique au client (9)","enabled":true,"key":"customer_specific_manufacturing","values":[]},{"count":99,"display_name":"Distribution (99)","enabled":true,"key":"distribution","values":[]},{"count":99,"display_name":"Service (99)","enabled":true,"key":"service","values":[]},{"count":97,"display_name":"Grossiste (97)","enabled":true,"key":"wholesaler","values":[]}]}],"paging":{"current_page":1,"total":311,"total_pages":11},"results":[{"company":{"average_response_time":"more_than_72h","city":"Eschweiler","country_code":"DE","distribution_area":"international","email":"","employee_count":"50-99","highlightings":{"description":"Production de plaques perforées de haute qualité, de plaques à pâtisserie, de plaques à baguettes, de moules à pâtisserie, de moules à pain, de chariots de..."},"homepage":"http://www.anneliese.de/","is_customer":true,"is_email_existing":true,"is_top_partner":false,"is_top_responder":false,"is_verified":true,"location":{"latitude":50.82949,"longitude":6.30441},"logo_url":"https://media.visable-staging.com/https://wlw-1-company-facts-media20191122174836234900000006.s3.eu-central-1.amazonaws.com/2152ab59-aefb-4557-98bb-deda428ec2f4.jpeg?w=300&h=300","name":"Anneliese Backtechnik GmbH","package_name":"","pictures":[{"caption":"Bäckereitransportgeräte","description":"","title":{"de":"Bäckereitransportgeräte"},"url":"https://media.visable-staging.com/https://wlw-1-company-facts-media20191122174836234900000006.s3.eu-central-1.amazonaws.com/6bbcef0f-e429-4e17-85e1-24af9b3c4977.png?w=300&h=300"},{"caption":"Bäckereiarbeitstische","description":"","title":{"de":"Bäckereiarbeitstische"},"url":"https://media.visable-staging.com/https://wlw-1-company-facts-media20191122174836234900000006.s3.eu-central-1.amazonaws.com/f86a1710-ab80-4938-8b11-89d435f59166.png?w=300&h=300"},{"caption":"Anneliese Stikkenwagen","description":"","title":{"de":"Anneliese Stikkenwagen"},"url":"https://media.visable-staging.com/https://wlw-1-company-facts-media20191122174836234900000006.s3.eu-central-1.amazonaws.com/6b2a878d-85d3-4c6a-812d-6fbf3f631fe7.png?w=300&h=300"},{"caption":"Anneliese Kastenverbände","description":"","title":{"de":"Anneliese Kastenverbände"},"url":"https://media.visable-staging.com/https://wlw-1-company-facts-media20191122174836234900000006.s3.eu-central-1.amazonaws.com/07e3123d-b0fb-4da1-af85-fe22a5d10f58.png?w=300&h=300"},{"caption":"Anneliese Baguettebleche","description":"","title":{"de":"Anneliese Baguettebleche"},"url":"https://media.visable-staging.com/https://wlw-1-company-facts-media20191122174836234900000006.s3.eu-central-1.amazonaws.com/140583f9-ea5c-4d6a-b957-359093b9236b.png?w=300&h=300"},{"caption":"Anneliese Backbleche","description":"","title":{"de":"Anneliese Backbleche"},"url":"https://media.visable-staging.com/https://wlw-1-company-facts-media20191122174836234900000006.s3.eu-central-1.amazonaws.com/08d101bc-ee33-4ccc-8ab2-8559ae4381ae.png?w=300&h=300"},{"caption":"Produktion","description":"","title":{"de":"Produktion"},"url":"https://media.visable-staging.com/https://wlw-1-company-facts-media20191122174836234900000006.s3.eu-central-1.amazonaws.com/6cb8e165-8c69-44da-9037-1425ff5f9bab.jpeg?w=300&h=300"},{"caption":"Produktion","description":"","title":{"de":"Produktion"},"url":"https://media.visable-staging.com/https://wlw-1-company-facts-media20191122174836234900000006.s3.eu-central-1.amazonaws.com/dfb28e9f-b902-4da0-84c9-8438daa63cdf.jpeg?w=300&h=300"}],"product_count":"45","response_rate":0.06,"show_tags":[],"space_type":"relevance","street":"In der Krause 67","uuid":"00505682-f25b-1ee9-bd91-d260ac3957fb","zipcode":"52249"},"products":[{"highlightings":{"description":"Une stabilité et une durabilité énormes grâce à l'angle de 45° du côté ouvert\n\nMatériau de tôle : alliage d'aluminium de 1,5 mm ou 2,0 mm\nConfiguratio..."},"id":"8063705","images":[{"url":"https://media.visable-staging.com/https://supplier-offers-media-production.s3.eu-central-1.amazonaws.com/780a2503-de99-11ed-a2b8-0a58a9feac02.png?w=300&h=300"}],"is_matching":true,"is_showcased":true,"name":"Plaques de Cuisson à 3 Bords - Version Renforcée","slug":"3-rand-backbleche-verstaerkte-ausfuehrung-8063705"},{"highlightings":{"description":"Avec poignée soudée en construction robuste AES (en une seule pièce) ou version modulaire d'exportation\n\nType de four : Roi\n\nHauteur du chariot : 1740..."},"id":"8063877","images":[{"url":"https://media.visable-staging.com/https://supplier-offers-media-production.s3.eu-central-1.amazonaws.com/4c317e99-de99-11ed-b0bb-0a58a9feac02.jpeg?w=300&h=300"}],"is_matching":true,"is_showcased":false,"name":"Chariot de Collage ROI","slug":"stikkenwagen-koenig-8063877"},{"highlightings":{"description":"Universellement applicable, stable et empilable pour gagner de la place\n\nMatériau de tôle : alliage d'aluminium de 1,5 mm ou 2,0 mm\n\nConfiguration des..."},"id":"8063712","images":[{"url":"https://media.visable-staging.com/https://supplier-offers-media-production.s3.eu-central-1.amazonaws.com/4c821064-de99-11ed-bb58-0a58a9feac02.png?w=300&h=300"}],"is_matching":true,"is_showcased":false,"name":"Plaques de Cuisson à 4 Bords","slug":"4-rand-backbleche-8063712"},{"highlightings":{"description":"Exécution solide à un prix avantageux\n\nMatériau de tôle : alliage d'aluminium de 1,0 mm\n\nForme de l'arbre : arbres ronds\n\nCôté de l'arbre : fermé\n\nCoi..."},"id":"8063632","images":[{"url":"https://media.visable-staging.com/https://supplier-offers-media-production.s3.eu-central-1.amazonaws.com/4d1300c1-de99-11ed-b031-0a58a9feac02.jpeg?w=300&h=300"}],"is_matching":true,"is_showcased":false,"name":"Plaque à baguettes TYPE STANDARD","slug":"baguetteblech-standard-type-8063632"},{"highlightings":{"description":"Exécution particulièrement robuste\n\nMatériau de tôle : alliage d'aluminium de 1,0 mm\n\nForme des vagues : vagues rondes\n\nCôté des vagues : ouvert\n\nCoin..."},"id":"8063641","images":[{"url":"https://media.visable-staging.com/https://supplier-offers-media-production.s3.eu-central-1.amazonaws.com/566bfd18-de99-11ed-8649-0a58a9feac02.jpeg?w=300&h=300"}],"is_matching":true,"is_showcased":false,"name":"Plaque à Baguettes TYPE PROFI","slug":"baguetteblech-profi-type-8063641"}]},{"company":{"average_response_time":"less_than_24h","city":"Jever","country_code":"DE","distribution_area":"national","email":"","employee_count":"20-49","highlightings":{"description":"...Sacs à baguette / Sacs à baguette avec fenêtre de visibilité\nCes sacs pliés sont spécialement conçus pour les baguettes. Ils possèdent une fenêtre de ..."},"homepage":"http://www.packpack.de/","is_customer":true,"is_email_existing":true,"is_top_partner":false,"is_top_responder":true,"is_verified":true,"location":{"latitude":53.58571,"longitude":7.90482},"logo_url":"https://media.visable-staging.com/https://wlw-1-company-facts-media20191122174836234900000006.s3.eu-central-1.amazonaws.com/a3a64e1d-6254-4443-99d8-43d4f322c64f.png?w=300&h=300","name":"packpack.de GmbH","package_name":"","pictures":[{"caption":" Aluschalen ","description":"","title":{"de":" Aluschalen "},"url":"https://media.visable-staging.com/https://wlw-1-company-facts-media20191122174836234900000006.s3.eu-central-1.amazonaws.com/27c098df-fcd1-4a69-864d-9293cb878872.jpeg?w=300&h=300"},{"caption":" Alu- & Frischhaltefolien ","description":"","title":{"de":" Alu- & Frischhaltefolien "},"url":"https://media.visable-staging.com/https://wlw-1-company-facts-media20191122174836234900000006.s3.eu-central-1.amazonaws.com/8853fca8-1d65-4a70-ac2a-e8d0aa6633a6.jpeg?w=300&h=300"},{"caption":" Feinkostbecher ","description":"","title":{"de":" Feinkostbecher "},"url":"https://media.visable-staging.com/https://wlw-1-company-facts-media20191122174836234900000006.s3.eu-central-1.amazonaws.com/5a8b8ba8-d33d-43ba-9e4b-fc4e96896716.jpeg?w=300&h=300"},{"caption":" Außerhausverpackung ","description":"","title":{"de":" Außerhausverpackung "},"url":"https://media.visable-staging.com/https://wlw-1-company-facts-media20191122174836234900000006.s3.eu-central-1.amazonaws.com/adddf378-649f-4343-b00a-c110f6b197d6.jpeg?w=300&h=300"},{"caption":" Versandverpackung ","description":"","title":{"de":" Versandverpackung "},"url":"https://media.visable-staging.com/https://wlw-1-company-facts-media20191122174836234900000006.s3.eu-central-1.amazonaws.com/63fe0899-1a0f-4511-8767-16537f2e4a67.jpeg?w=300&h=300"},{"caption":" Salatschalen ","description":"","title":{"de":" Salatschalen "},"url":"https://media.visable-staging.com/https://wlw-1-company-facts-media20191122174836234900000006.s3.eu-central-1.amazonaws.com/c0e24712-2a0a-4f10-909b-ff387155e3d1.jpeg?w=300&h=300"},{"caption":" Bürobedarf","description":"","title":{"de":" Bürobedarf"},"url":"https://media.visable-staging.com/https://wlw-1-company-facts-media20191122174836234900000006.s3.eu-central-1.amazonaws.com/5423ca15-14c3-42c7-a253-6ad58c0bb46c.jpeg?w=300&h=300"},{"caption":" Backformen ","description":"","title":{"de":" Backformen "},"url":"https://media.visable-staging.com/https://wlw-1-company-facts-media20191122174836234900000006.s3.eu-central-1.amazonaws.com/7ade15e2-2274-481b-9c1e-6065acde55a6.jpeg?w=300&h=300"}],"product_coun...(truncated)