httpStatus=200
responseTimeMs=560
responseSize=34870
headers=
Date: Wed, 22 Jul 2026 07:16:34 GMT
Content-Type: application/json
Transfer-Encoding: chunked
Connection: keep-alive
Server: nginx
Vary: Accept-Encoding
Vary: Origin
Vary: Access-Control-Request-Method
Vary: Access-Control-Request-Headers
X-Content-Type-Options: nosniff
X-XSS-Protection: 0
Cache-Control: no-cache, no-store, max-age=0, must-revalidate
Pragma: no-cache
Expires: 0
X-Frame-Options: DENY
Strict-Transport-Security: max-age=31536000
Content-Encoding: gzip

body=
{"display_products":true,"filters":[{"display_name":"Sort by","key":"sort","type":"SINGLE_SELECTION","values":[{"display_name":"Relevance","enabled":true,"key":"relevance","selected":false,"values":[]},{"display_name":"Distance","enabled":true,"key":"distance","selected":true,"values":[]}]},{"display_name":"Categories","key":"categories","type":"MULTI_SELECTION","values":[{"count":102,"display_name":"Machining (102)","enabled":true,"key":"200136","selected":false,"values":[]}]},{"display_name":"Material","key":"400000000","type":"MULTI_SELECTION","values":[{"count":79,"display_name":"Metal (79)","enabled":true,"key":"400000000-30000000000","values":[]},{"count":57,"display_name":"Stainless Steel (57)","enabled":true,"key":"400000000-30000000002","values":[]},{"count":54,"display_name":"Aluminum (54)","enabled":true,"key":"400000000-30000000003","values":[]},{"count":49,"display_name":"Steel (49)","enabled":true,"key":"400000000-30000000001","values":[]},{"count":35,"display_name":"Plastic (35)","enabled":true,"key":"400000000-30000000012","values":[]}]},{"display_name":"Batch Size","key":"400000002","type":"MULTI_SELECTION","values":[{"count":69,"display_name":"Individual Parts (69)","enabled":true,"key":"400000002-30000000024","values":[]},{"count":67,"display_name":"Small Batches (67)","enabled":true,"key":"400000002-30000000025","values":[]},{"count":57,"display_name":"Medium Batches (57)","enabled":true,"key":"400000002-30000000026","values":[]},{"count":49,"display_name":"Prototypes (49)","enabled":true,"key":"400000002-30000000023","values":[]},{"count":48,"display_name":"Large Batches (48)","enabled":true,"key":"400000002-30000000027","values":[]}]},{"display_name":"Further Treatment","key":"400000003","type":"MULTI_SELECTION","values":[{"count":44,"display_name":"Grinding (44)","enabled":true,"key":"400000003-30000000053","values":[]},{"count":33,"display_name":"Deburring (33)","enabled":true,"key":"400000003-30000000051","values":[]},{"count":28,"display_name":"Hardening (28)","enabled":true,"key":"400000003-30000000040","values":[]},{"count":26,"display_name":"Blasting (26)","enabled":true,"key":"400000003-30000000050","values":[]},{"count":25,"display_name":"Engraving (25)","enabled":true,"key":"400000003-30000000048","values":[]}]},{"display_name":"Workpiece Dimensions","key":"400000001","type":"MULTI_SELECTION","values":[{"count":58,"display_name":"Medium (58)","enabled":true,"key":"400000001-30000000021","values":[]},{"count":52,"display_name":"Small (52)","enabled":true,"key":"400000001-30000000020","values":[]},{"count":43,"display_name":"Large (43)","enabled":true,"key":"400000001-30000000022","values":[]},{"count":14,"display_name":"Micro (14)","enabled":true,"key":"400000001-30000000019","values":[]}]},{"display_name":"Ships from","key":"ships_from","type":"MULTI_SELECTION","values":[{"count":242,"display_name":"Germany (242)","enabled":true,"key":"DE","selected":false,"values":[]},{"count":1,"display_name":"Poland (1)","enabled":true,"key":"PL","selected":false,"values":[]}]},{"display_name":"Location","key":"location","type":"SINGLE_SELECTION","values":[{"enabled":true,"key":"10","selected":false,"values":[]},{"enabled":true,"key":"25","selected":false,"values":[]},{"enabled":true,"key":"50","selected":false,"values":[]},{"enabled":true,"key":"75","selected":false,"values":[]},{"enabled":true,"key":"100","selected":false,"values":[]},{"enabled":true,"key":"125","selected":false,"values":[]},{"enabled":true,"key":"250","selected":true,"values":[]}]},{"display_name":"Company profile","key":"company_profile","type":"MULTI_SELECTION","values":[{"count":75,"display_name":"Verified (75)","enabled":true,"key":"verified","selected":false,"values":[]},{"count":33,"display_name":"Responds reliably (33)","enabled":true,"key":"top_responder","selected":false,"values":[]}]},{"display_name":"Supplier type","key":"supplier_type","type":"MULTI_SELECTION","values":[{"count":190,"display_name":"Manufacturer/Producer (190)","enabled":true,"key":"production","selected":false,"values":[]},{"count":51,"display_name":"Customer-specific manufacturer (51)","enabled":true,"key":"customerSpecificManufacturing","selected":false,"values":[]},{"count":54,"display_name":"Distributor (54)","enabled":true,"key":"distribution","selected":false,"values":[]},{"count":164,"display_name":"Service provider (164)","enabled":true,"key":"service","selected":false,"values":[]},{"count":29,"display_name":"Wholesaler (29)","enabled":true,"key":"wholesaler","selected":false,"values":[]}]},{"display_name":"Number of employees","key":"employees_count","type":"MULTI_SELECTION","values":[{"count":19,"display_name":"1-4 (19)","enabled":true,"key":"From1To4","selected":false,"values":[]},{"count":24,"display_name":"5-9 (24)","enabled":true,"key":"From5To9","selected":false,"values":[]},{"count":38,"display_name":"10-19 (38)","enabled":true,"key":"From10To19","selected":false,"values":[]},{"count":76,"display_name":"20-49 (76)","enabled":true,"key":"From20To49","selected":false,"values":[]},{"count":39,"display_name":"50-99 (39)","enabled":true,"key":"From50To99","selected":false,"values":[]},{"count":18,"display_name":"100-199 (18)","enabled":true,"key":"From100To199","selected":false,"values":[]},{"count":6,"display_name":"200-499 (6)","enabled":true,"key":"From200To499","selected":false,"values":[]},{"count":12,"display_name":"500-999 (12)","enabled":true,"key":"From500To999","selected":false,"values":[]},{"count":0,"display_name":"1000+ (0)","enabled":true,"key":"MoreThan1000","selected":false,"values":[]}]}],"paging":{"current_page":1,"total":243,"total_pages":12},"products":[{"company":{"average_response_time":"from_24h_to_48h","country_code":"DE","is_email_existing":true,"is_quick_responder":false,"is_top_partner":false,"is_top_responder":true,"is_verified":true,"logo_url":"https://media.visable-staging.com/https://wlw-1-company-facts-media20191122174836234900000006.s3.eu-central-1.amazonaws.com/19ef1895-17c1-4e54-b1e3-bb28f1a41cea.png?w=300&h=300","name":"CNC24 GmbH","response_rate":"83%","uuid":"00505682-f25b-1eea-bbab-856dcf0597ff"},"description":"Machining is a central process in modern metalworking and forms the basis for the precise manufacturing of components in industry and mechanical engin...","id":"60043238-211c-5af5-bd30-0e95fc7065ac","image":{"url":"https://media.visable-staging.com/https://supplier-offers-media-production.s3.eu-central-1.amazonaws.com/733833f6-f1f4-11ee-99e1-0a58a9feac02.jpeg?w=300&h=300"},"images":[{"url":"https://media.visable-staging.com/https://supplier-offers-media-production.s3.eu-central-1.amazonaws.com/733833f6-f1f4-11ee-99e1-0a58a9feac02.jpeg?w=300&h=300"},{"url":"https://media.visable-staging.com/https://supplier-offers-media-production.s3.eu-central-1.amazonaws.com/f109a95f-4230-11f1-9490-0a58a9feac02.png?w=300&h=300"}],"language":"en","minimum_order_quantity":"1 Flat rate","name":"Machining Functionality Precise Metal Processing","sell_points":[],"slug":"35115186","trace_info_id":"6b51fae92ff143aea097d5de2d1f239b","uuid":"60043238-211c-5af5-bd30-0e95fc7065ac"},{"company":{"country_code":"DE","is_email_existing":true,"is_quick_responder":false,"is_top_partner":false,"is_top_responder":false,"is_verified":false,"logo_url":"https://media.visable-staging.com/https://wlw-1-company-facts-media20191122174836234900000006.s3.eu-central-1.amazonaws.com/f5fcbb52-8a23-4f5b-8c30-74d887402b29.gif?w=300&h=300","name":"CNC-Bearbeitung mechanische Werkstatt Horst Schäler","response_rate":"0%","uuid":"00505682-f25b-1ee9-bd91-d2ad915bd7fb"},"description":"The company was founded in 1966 by Horst Schäler, who produced mechanical and precision engineering products for renowned clients in garages on his ow...","id":"6930f28e-61dc-5624-b991-8f3f9c08df1f","image":{"url":"https://media.visable-staging.com/https://supplier-offers-media-production.s3.eu-central-1.amazonaws.com/65c8d35e-1e90-11ef-9329-0a58a9feac02.jpeg?w=300&h=300"},"images":[{"url":"https://media.visable-staging.com/https://supplier-offers-media-production.s3.eu-central-1.amazonaws.com/65c8d35e-1e90-11ef-9329-0a58a9feac02.jpeg?w=300&h=300"}],"language":"en","name":"Machining with the highest precision","sell_points":[],"slug":"35161724","trace_info_id":"6b51fae92ff143aea097d5de2d1f239b","uuid":"6930f28e-61dc-5624-b991-8f3f9c08df1f"},{"company":{"country_code":"DE","is_email_existing":true,"is_quick_responder":false,"is_top_partner":false,"is_top_responder":false,"is_verified":false,"logo_url":"https://media.visable-staging.com/?w=300&h=300","name":"Bardenhagen Feinwerk Technik GmbH","response_rate":"0%","uuid":"00505682-f25b-1ee9-bd91-d2aae414b7fb"},"description":"Our machine inventory includes not only various small machines and devices but also our CNC machines. CNC Lathe Okuma Soarer 270 CNC Universal Milli...","id":"ffbc6f03-4e00-40e3-b76c-9bb276c23570","image":{"url":"https://media.visable-staging.com/https://supplier-offers-media-production.s3.eu-central-1.amazonaws.com/da59b8e0-06e7-11ef-b604-0a58a9feac02.jpeg?w=300&h=300"},"images":[{"url":"https://media.visable-staging.com/https://supplier-offers-media-production.s3.eu-central-1.amazonaws.com/da59b8e0-06e7-11ef-b604-0a58a9feac02.jpeg?w=300&h=300"}],"language":"en","name":"Precision Parts","sell_points":[],"slug":"35135456","trace_info_id":"6b51fae92ff143aea097d5de2d1f239b","uuid":"ffbc6f03-4e00-40e3-b76c-9bb276c23570"},{"company":{"country_code":"DE","is_email_existing":true,"is_quick_responder":false,"is_top_partner":false,"is_top_responder":false,"is_verified":false,"logo_url":"https://media.visable-staging.com/https://wlw-1-company-facts-media20191122174836234900000006.s3.eu-central-1.amazonaws.com/d683b9eb-2902-47d6-bb57-44e8dc0975ee.png?w=300&h=300","name":"Mechanische Werkstatt ADAM GmbH","response_rate":"0%","uuid":"00505682-f25b-1ee9-bd91-d2aae1c3d7fb"},"description":"MILLING\n\nCNC Milling (3D and 5D axes)\nUniversal milling machines\nMaximum machining size: 1150 x 490 mm...","id":"b66d2761-a4ac-4594-bdd5-f30246305608","image":{"url":"https://media.visable-staging.com/https://supplier-offers-media-production.s3.eu-central-1.amazonaws.com/752c3bef-fe38-11ee-b7d2-0a58a9feac02.jpeg?w=300&h=300"},"images":[{"url":"https://media.visable-staging.com/https://supplier-offers-media-production.s3.eu-central-1.amazonaws.com/752c3bef-fe38-11ee-b7d2-0a58a9feac02.jpeg?w=300&h=300"}],"language":"en","name":"CNC Milling - 1150 x 490 mm","sell_points":[],"slug":"35128765","trace_info_id":"6b51fae92ff143aea097d5de2d1f239b","uuid":"b66d2761-a4ac-4594-bdd5-f30246305608"},{"company":{"average_response_time":"less_than_24h","country_code":"DE","is_email_existing":false,"is_quick_responder":false,"is_top_partner":false,"is_top_responder":false,"is_verified":false,"logo_url":"https://media.visable-staging.com/https://wlw-1-company-facts-media20191122174836234900000006.s3.eu-central-1.amazonaws.com/8af401fa-eb09-46da-8617-b8af9ab08759.png?w=300&h=300","name":"Heinz Jahn Modell-  und Formenbau GmbH","response_rate":"0%","uuid":"594bbbc9-de38-463d-beb4-7425a6960ee8"},"description":"CNC machining is a high-precision manufacturing method that is indispensable in many industries. Our CNC machining services provide you with the oppor...","id":"cf51943a-8e2a-449f-ae66-b065fb326119","image":{"url":"https://media.visable-staging.com/https://supplier-offers-media-production.s3.eu-central-1.amazonaws.com/abf27939-b4bb-11f0-ae87-0a58a9feac02.png?w=300&h=300"},"images":[{"url":"https://media.visable-staging.com/https://supplier-offers-media-production.s3.eu-central-1.amazonaws.com/abf27939-b4bb-11f0-ae87-0a58a9feac02.png?w=300&h=300"},{"url":"https://media.visable-staging.com/https://supplier-offers-media-production.s3.eu-central-1.amazonaws.com/ac0b8aba-b4bb-11f0-b72a-0a58a9feac02.png?w=300&h=300"},{"url":"https://media.visable-staging.com/https://supplier-offers-media-production.s3.eu-central-1.amazonaws.com/ac2867e5-b4bb-11f0-9a6f-0a58a9feac02.png?w=300&h=300"},{"url":"https://me...(truncated)