httpStatus=200
responseTimeMs=368
responseSize=157556
headers=
Date: Wed, 22 Jul 2026 07:15:48 GMT
Content-Type: application/json
Transfer-Encoding: chunked
Connection: keep-alive
Server: nginx
Vary: Accept-Encoding
Vary: Origin
Vary: Access-Control-Request-Method
Vary: Access-Control-Request-Headers
X-Content-Type-Options: nosniff
X-XSS-Protection: 0
Cache-Control: no-cache, no-store, max-age=0, must-revalidate
Pragma: no-cache
Expires: 0
X-Frame-Options: DENY
Strict-Transport-Security: max-age=31536000
Content-Encoding: gzip

body=
{"display_products":true,"filters":[{"display_name":"Trier par","key":"sort","type":"SINGLE_SELECTION","values":[{"display_name":"Pertinence","enabled":true,"key":"relevance","selected":false,"values":[]},{"display_name":"Distance","enabled":true,"key":"distance","selected":false,"values":[]}]},{"display_name":"Localisation","key":"location","type":"SINGLE_SELECTION","values":[{"display_name":"10km","enabled":true,"key":"10km","selected":false,"values":[]},{"display_name":"25km","enabled":true,"key":"25km","selected":false,"values":[]},{"display_name":"50km","enabled":true,"key":"50km","selected":false,"values":[]},{"display_name":"75km","enabled":true,"key":"75km","selected":false,"values":[]},{"display_name":"100km","enabled":true,"key":"100km","selected":false,"values":[]},{"display_name":"125km","enabled":true,"key":"125km","selected":false,"values":[]},{"display_name":"250km","enabled":true,"key":"250km","selected":false,"values":[]}]},{"display_name":"Nombre d'employés","key":"employee_counts","type":"MULTI_SELECTION","values":[{"count":15,"display_name":"1-4 (15)","enabled":true,"key":"From1To4","values":[]},{"count":145,"display_name":"5-9 (145)","enabled":true,"key":"From5To9","values":[]},{"count":17,"display_name":"10-19 (17)","enabled":true,"key":"From10To19","values":[]},{"count":178,"display_name":"20-49 (178)","enabled":true,"key":"From20To49","values":[]},{"count":44,"display_name":"50-99 (44)","enabled":true,"key":"From50To99","values":[]},{"count":18,"display_name":"100-199 (18)","enabled":true,"key":"From100To199","values":[]},{"count":15,"display_name":"200-499 (15)","enabled":true,"key":"From200To499","values":[]},{"count":1,"display_name":"500-999 (1)","enabled":true,"key":"From500To999","values":[]},{"count":11,"display_name":"1000+ (11)","enabled":true,"key":"MoreThan1000","values":[]}]},{"display_name":"Profil de l'entreprise","key":"audits","type":"BOOLEAN","values":[{"count":46,"display_name":"Vérifié (46)","enabled":true,"key":"verified","selected":false,"values":[]}]},{"display_name":"Expédié depuis","key":"ships_from","type":"MULTI_SELECTION","values":[{"count":202,"display_name":"Italie (202)","enabled":true,"key":"IT","values":[]},{"count":125,"display_name":"Allemagne (125)","enabled":true,"key":"DE","values":[]},{"count":98,"display_name":"France (98)","enabled":true,"key":"FR","values":[]},{"count":37,"display_name":"Espagne (37)","enabled":true,"key":"ES","values":[]},{"count":36,"display_name":"Belgique (36)","enabled":true,"key":"BE","values":[]},{"count":36,"display_name":"Turquie (36)","enabled":true,"key":"TR","values":[]},{"count":29,"display_name":"Royaume-Uni (29)","enabled":true,"key":"GB","values":[]},{"count":18,"display_name":"Ukraine (18)","enabled":true,"key":"UA","values":[]},{"count":18,"display_name":"Pologne (18)","enabled":true,"key":"PL","values":[]},{"count":12,"display_name":"Autriche (12)","enabled":true,"key":"AT","values":[]},{"count":11,"display_name":"Portugal (11)","enabled":true,"key":"PT","values":[]},{"count":11,"display_name":"Suisse (11)","enabled":true,"key":"CH","values":[]},{"count":9,"display_name":"République tchèque (9)","enabled":true,"key":"CZ","values":[]},{"count":5,"display_name":"Grèce (5)","enabled":true,"key":"GR","values":[]},{"count":4,"display_name":"Norvège (4)","enabled":true,"key":"NO","values":[]},{"count":4,"display_name":"Danemark (4)","enabled":true,"key":"DK","values":[]},{"count":4,"display_name":"Lituanie (4)","enabled":true,"key":"LT","values":[]},{"count":4,"display_name":"Hongrie (4)","enabled":true,"key":"HU","values":[]},{"count":4,"display_name":"Irlande (4)","enabled":true,"key":"IE","values":[]},{"count":4,"display_name":"Roumanie (4)","enabled":true,"key":"RO","values":[]},{"count":4,"display_name":"Pays-Bas (4)","enabled":true,"key":"NL","values":[]},{"count":3,"display_name":"Bulgarie (3)","enabled":true,"key":"BG","values":[]},{"count":3,"display_name":"Slovénie (3)","enabled":true,"key":"SI","values":[]},{"count":1,"display_name":"Serbie (1)","enabled":true,"key":"RS","values":[]},{"count":1,"display_name":"Finlande (1)","enabled":true,"key":"FI","values":[]},{"count":1,"display_name":"Luxembourg (1)","enabled":true,"key":"LU","values":[]},{"count":1,"display_name":"Monaco (1)","enabled":true,"key":"MC","values":[]},{"count":1,"display_name":"Slovaquie (1)","enabled":true,"key":"SK","values":[]},{"count":1,"display_name":"Macédoine (1)","enabled":true,"key":"MK","values":[]},{"count":1,"display_name":"Estonie (1)","enabled":true,"key":"EE","values":[]},{"count":1,"display_name":"Islande (1)","enabled":true,"key":"IS","values":[]}]},{"display_name":"Type de fournisseurs","key":"supplier_types","type":"MULTI_SELECTION","values":[{"count":429,"display_name":"Fabricant/Producteur (429)","enabled":true,"key":"production","values":[]},{"count":23,"display_name":"Fabricant spécifique au client (23)","enabled":true,"key":"customer_specific_manufacturing","values":[]},{"count":89,"display_name":"Distribution (89)","enabled":true,"key":"distribution","values":[]},{"count":50,"display_name":"Service (50)","enabled":true,"key":"service","values":[]},{"count":125,"display_name":"Grossiste (125)","enabled":true,"key":"wholesaler","values":[]}]}],"paging":{"current_page":1,"total":689,"total_pages":23},"results":[{"company":{"average_response_time":"more_than_72h","city":"Eschweiler","country_code":"DE","distribution_area":"international","email":"","employee_count":"50-99","highlightings":{"description":"Production de plaques perforées de haute qualité, de plaques à pâtisserie, de plaques à baguettes, de moules à pâtisserie, de moules à pain, de chariots de..."},"homepage":"http://www.anneliese.de/","is_customer":true,"is_email_existing":true,"is_top_partner":false,"is_top_responder":false,"is_verified":true,"location":{"latitude":50.82949,"longitude":6.30441},"logo_url":"https://media.visable-staging.com/https://wlw-1-company-facts-media20191122174836234900000006.s3.eu-central-1.amazonaws.com/2152ab59-aefb-4557-98bb-deda428ec2f4.jpeg?w=300&h=300","name":"Anneliese Backtechnik GmbH","package_name":"","pictures":[{"caption":"Bäckereitransportgeräte","description":"","title":{"de":"Bäckereitransportgeräte"},"url":"https://media.visable-staging.com/https://wlw-1-company-facts-media20191122174836234900000006.s3.eu-central-1.amazonaws.com/6bbcef0f-e429-4e17-85e1-24af9b3c4977.png?w=300&h=300"},{"caption":"Bäckereiarbeitstische","description":"","title":{"de":"Bäckereiarbeitstische"},"url":"https://media.visable-staging.com/https://wlw-1-company-facts-media20191122174836234900000006.s3.eu-central-1.amazonaws.com/f86a1710-ab80-4938-8b11-89d435f59166.png?w=300&h=300"},{"caption":"Anneliese Stikkenwagen","description":"","title":{"de":"Anneliese Stikkenwagen"},"url":"https://media.visable-staging.com/https://wlw-1-company-facts-media20191122174836234900000006.s3.eu-central-1.amazonaws.com/6b2a878d-85d3-4c6a-812d-6fbf3f631fe7.png?w=300&h=300"},{"caption":"Anneliese Kastenverbände","description":"","title":{"de":"Anneliese Kastenverbände"},"url":"https://media.visable-staging.com/https://wlw-1-company-facts-media20191122174836234900000006.s3.eu-central-1.amazonaws.com/07e3123d-b0fb-4da1-af85-fe22a5d10f58.png?w=300&h=300"},{"caption":"Anneliese Baguettebleche","description":"","title":{"de":"Anneliese Baguettebleche"},"url":"https://media.visable-staging.com/https://wlw-1-company-facts-media20191122174836234900000006.s3.eu-central-1.amazonaws.com/140583f9-ea5c-4d6a-b957-359093b9236b.png?w=300&h=300"},{"caption":"Anneliese Backbleche","description":"","title":{"de":"Anneliese Backbleche"},"url":"https://media.visable-staging.com/https://wlw-1-company-facts-media20191122174836234900000006.s3.eu-central-1.amazonaws.com/08d101bc-ee33-4ccc-8ab2-8559ae4381ae.png?w=300&h=300"},{"caption":"Produktion","description":"","title":{"de":"Produktion"},"url":"https://media.visable-staging.com/https://wlw-1-company-facts-media20191122174836234900000006.s3.eu-central-1.amazonaws.com/6cb8e165-8c69-44da-9037-1425ff5f9bab.jpeg?w=300&h=300"},{"caption":"Produktion","description":"","title":{"de":"Produktion"},"url":"https://media.visable-staging.com/https://wlw-1-company-facts-media20191122174836234900000006.s3.eu-central-1.amazonaws.com/dfb28e9f-b902-4da0-84c9-8438daa63cdf.jpeg?w=300&h=300"}],"product_count":"45","response_rate":0.06,"show_tags":[],"space_type":"relevance","street":"In der Krause 67","uuid":"00505682-f25b-1ee9-bd91-d260ac3957fb","zipcode":"52249"},"products":[{"highlightings":{"description":""},"images":[{"url":"https://media.visable-staging.com/https://supplier-offers-media-production.s3.eu-central-1.amazonaws.com/4c54819b-de99-11ed-b96f-0a58a9feac02.jpeg?w=300&h=300"}],"is_matching":false,"is_showcased":false,"name":"Chariot de Collage MIWE SHOP-IN","slug":"stikkenwagen-miwe-shop-in-8063857"},{"highlightings":{"description":""},"images":[{"url":"https://media.visable-staging.com/https://supplier-offers-media-production.s3.eu-central-1.amazonaws.com/78136fd9-de99-11ed-a2b8-0a58a9feac02.jpeg?w=300&h=300"}],"is_matching":false,"is_showcased":false,"name":"Plaque à Baguettes TYPE ÉCO","slug":"baguetteblech-eco-type-8063635"},{"highlightings":{"description":""},"images":[{"url":"https://media.visable-staging.com/https://supplier-offers-media-production.s3.eu-central-1.amazonaws.com/fc327b04-de98-11ed-b3f2-0a58a9feac02.jpeg?w=300&h=300"}],"is_matching":false,"is_showcased":false,"name":"Joint de Boîte pour Installations Industrielles","slug":"kastenverband-fuer-industrieanlagen-8063663"},{"highlightings":{"description":""},"images":[{"url":"https://media.visable-staging.com/https://supplier-offers-media-production.s3.eu-central-1.amazonaws.com/4b4d7d8c-de99-11ed-8b66-0a58a9feac02.jpeg?w=300&h=300"}],"is_matching":false,"is_showcased":false,"name":"Chariot de Collage WP ROTOTHERM","slug":"stikkenwagen-wp-rototherm-8063828"},{"highlightings":{"description":""},"images":[{"url":"https://media.visable-staging.com/https://supplier-offers-media-production.s3.eu-central-1.amazonaws.com/4bb432e9-de99-11ed-961b-0a58a9feac02.png?w=300&h=300"}],"is_matching":false,"is_showcased":false,"name":"Plaques de cuisson TYPE PROFI plates","slug":"backbleche-profi-type-flach-8063743"}]},{"company":{"average_response_time":"less_than_24h","city":"Pluneret","country_code":"FR","distribution_area":"international","email":"","employee_count":"1-4","founding_year":2012,"highlightings":{"description":"La société CCAG est située à Pluneret dans le département du Morbihan (56). Elle est spécialisée dans les impressions sur objets ou produits publicitaires..."},"homepage":"http://www.cagnon-cag.fr/","is_customer":true,"is_email_existing":true,"is_top_partner":false,"is_top_responder":true,"is_verified":true,"location":{"latitude":47.6774527,"longitude":-2.9570678},"logo_url":"https://media.visable-staging.com/https://wlw-1-company-facts-media20191122174836234900000006.s3.eu-central-1.amazonaws.com/40633a6e-4843-4654-ad2f-8766aeeff50a.gif?w=300&h=300","name":"CCAG - CAGNON COMMUNICATION ARTS GRAPHIQUES ","package_name":"","pictures":[{"caption":"Annonceurs n'hésitez pas à publier vos messages . . .","description":"{\"fr\":\"le Sac à Pain Publicitaire, idéal pour faire  passer vos messages. Il sera vu et vous fera connaitre en publiant votre Logo, vos messages, vos annonces. Moins cher qu'un flyer pour être vu et reconnu.\"}","title":{"fr":"Annonceurs n'hésitez pas à publier vos messages . . ."},"url":"https://media.visable-staging.com/https://wlw-1-company-facts-media20191122174836234900000006.s3.eu-central-1.amazonaws.com/65da574b-1ac5-4c6f-a9b4-b73aeac32ec1.jpeg?w=300&h=300"},{"caption":"Sacs à Sandwich \"Don du Sang\" OFFERTS","description":"{\"fr\":\"O F F E R T S - Annonceur \\\"SUPER U - U Express\\\" Dépt 44 Pays de Loire           Copyright C C A G N°7247 - Modèle déposé - Reproduction même partielle interdite. Contactez nous.\"}","title":{"fr":"Sacs à Sandwich \"Don du Sang\" OFFERTS"},"url":"https://media.visable-sta...(truncated)