httpStatus=200
responseTimeMs=137
responseSize=55553
headers=
Date: Wed, 22 Jul 2026 07:16:35 GMT
Content-Type: application/json
Transfer-Encoding: chunked
Connection: keep-alive
Server: nginx
Vary: Accept-Encoding
Vary: Origin
Vary: Access-Control-Request-Method
Vary: Access-Control-Request-Headers
X-Content-Type-Options: nosniff
X-XSS-Protection: 0
Cache-Control: no-cache, no-store, max-age=0, must-revalidate
Pragma: no-cache
Expires: 0
X-Frame-Options: DENY
Strict-Transport-Security: max-age=31536000
Content-Encoding: gzip

body=
{"display_products":true,"paging":{"current_page":1,"total":51,"total_pages":2},"products":[{"company":{"average_response_time":"24h-48h","country_code":"DE","is_email_existing":false,"is_quick_responder":false,"is_top_partner":false,"is_top_responder":false,"is_verified":true,"logo_url":"https://media.visable-staging.com/https://wlw-1-company-facts-media20191122174836234900000006.s3.eu-central-1.amazonaws.com/f0c6e536-8d7c-4f18-b0c2-1c8e6214a2d2.gif?w=300&h=300","name":"René Schwab Flexible Verpackungen","response_rate":"10%","uuid":"00505682-f25b-1ee9-bd91-d293ef2db7fb"},"id":"49303eb0-8111-4507-8cf4-fc79a25bd389","image":{"url":"https://media.visable-staging.com/https://supplier-offers-media-production.s3.eu-central-1.amazonaws.com/d2198a40-533e-11f1-8b83-0a58a9feac02.jpeg?w=300&h=300"},"images":[{"url":"https://media.visable-staging.com/https://supplier-offers-media-production.s3.eu-central-1.amazonaws.com/d2198a40-533e-11f1-8b83-0a58a9feac02.jpeg?w=300&h=300"}],"language":"en","name":"2-ply corrugated cardboard – robust & economical packaging","sell_points":[],"trace_info_id":"6d9faed0382645d68e74fcaa9b991fe5","uuid":"49303eb0-8111-4507-8cf4-fc79a25bd389"},{"company":{"average_response_time":"24h-48h","country_code":"DE","is_email_existing":false,"is_quick_responder":true,"is_top_partner":false,"is_top_responder":true,"is_verified":true,"logo_url":"https://media.visable-staging.com/https://wlw-1-company-facts-media20191122174836234900000006.s3.eu-central-1.amazonaws.com/46ea5877-5e00-4a70-85d0-73c4f20a4633.png?w=300&h=300","name":"MK Verpackungsagentur GmbH","response_rate":"52%","uuid":"c41b4a55-8815-4e71-a9d4-34352236937b"},"id":"ea7b856a-8d52-45c4-98a7-1d4cc7aed02e","image":{"url":"https://media.visable-staging.com/https://supplier-offers-media-production.s3.eu-central-1.amazonaws.com/3c8c7a23-da82-11f0-8401-0a58a9feac02.jpeg?w=300&h=300"},"images":[{"url":"https://media.visable-staging.com/https://supplier-offers-media-production.s3.eu-central-1.amazonaws.com/3c8c7a23-da82-11f0-8401-0a58a9feac02.jpeg?w=300&h=300"}],"language":"en","name":"Shipping tube 112 x 112 x 1,050 mm with adhesive strip (can serve as an extension)","price":{"currency":"EUR","kind":"range","max":"2.350","min":"900","original_currency":"EUR","original_max":"2.350","original_min":"900","vat_included":false},"sell_points":[],"trace_info_id":"6d9faed0382645d68e74fcaa9b991fe5","uuid":"ea7b856a-8d52-45c4-98a7-1d4cc7aed02e"},{"company":{"average_response_time":"<24h","country_code":"DE","is_email_existing":false,"is_quick_responder":true,"is_top_partner":false,"is_top_responder":true,"is_verified":false,"logo_url":"https://media.visable-staging.com/https://wlw-1-company-facts-media20191122174836234900000006.s3.eu-central-1.amazonaws.com/73100b66-3810-4fc6-aee5-29a088c4de12.jpeg?w=300&h=300","name":"SPRINTIS Schenk GmbH & Co KG","response_rate":"100%","uuid":"00505682-f25b-1ee9-bd91-d2aa4cd657fb"},"id":"8e95941e-0587-481a-b51d-f8b1a7a6cabe","image":{"url":"https://media.visable-staging.com/https://supplier-offers-media-production.s3.eu-central-1.amazonaws.com/6a61d03d-17da-11f1-a0a6-0a58a9feac02.jpeg?w=300&h=300"},"images":[{"url":"https://media.visable-staging.com/https://supplier-offers-media-production.s3.eu-central-1.amazonaws.com/6a61d03d-17da-11f1-a0a6-0a58a9feac02.jpeg?w=300&h=300"}],"language":"en","name":"100 Wire Clip Bags, A4, gray with cut-out Type A, Hard-PVC|Soft-PVC, gray|transparent","sell_points":[],"trace_info_id":"6d9faed0382645d68e74fcaa9b991fe5","uuid":"8e95941e-0587-481a-b51d-f8b1a7a6cabe"},{"company":{"average_response_time":"<24h","country_code":"DE","is_email_existing":false,"is_quick_responder":false,"is_top_partner":false,"is_top_responder":false,"is_verified":false,"logo_url":"https://media.visable-staging.com/https://wlw-1-company-facts-media20191122174836234900000006.s3.eu-central-1.amazonaws.com/c5a6985e-6632-4ea3-add5-bc986dc81e9c.png?w=300&h=300","name":"Litei Verlag GmbH & Co. KG","response_rate":"0%","uuid":"00505682-f25b-1ee9-bd91-d2a1a53597fb"},"id":"36f39c96-26f2-4b60-b683-fa13e7fc9c3f","image":{"url":"https://media.visable-staging.com/https://supplier-offers-media-production.s3.eu-central-1.amazonaws.com/65d29f08-8a9d-4354-937f-1fe5052f1f22.jpeg?w=300&h=300"},"images":[{"url":"https://media.visable-staging.com/https://supplier-offers-media-production.s3.eu-central-1.amazonaws.com/65d29f08-8a9d-4354-937f-1fe5052f1f22.jpeg?w=300&h=300"}],"language":"en","minimum_order_quantity":"1 piece","name":"Condolence Envelope 937","price":{"currency":"EUR","kind":"from","min":"0,24","original_currency":"EUR","original_min":"0,24","vat_included":false},"sell_points":[],"trace_info_id":"6d9faed0382645d68e74fcaa9b991fe5","uuid":"36f39c96-26f2-4b60-b683-fa13e7fc9c3f"},{"company":{"average_response_time":"<24h","country_code":"DE","is_email_existing":false,"is_quick_responder":false,"is_top_partner":false,"is_top_responder":false,"is_verified":false,"logo_url":"https://media.visable-staging.com/https://wlw-1-company-facts-media20191122174836234900000006.s3.eu-central-1.amazonaws.com/8f5a29d9-0d45-4e60-ad3d-e64806efabaf.png?w=300&h=300","name":"Relax Live GmbH","response_rate":"-1%","uuid":"00505682-f25b-1ee9-bd91-d25f300757fb"},"id":"3e4cedf5-ff11-56b2-b62f-499a120cfd5e","image":{"url":"https://media.visable-staging.com/https://supplier-offers-media-production.s3.eu-central-1.amazonaws.com/866b711b-9de5-11ef-ac47-0a58a9feac02.jpeg?w=300&h=300"},"images":[{"url":"https://media.visable-staging.com/https://supplier-offers-media-production.s3.eu-central-1.amazonaws.com/866b711b-9de5-11ef-ac47-0a58a9feac02.jpeg?w=300&h=300"}],"language":"en","name":"CONTROL OUR FURNITURE WITH YOUR SMARTPHONE","sell_points":[],"trace_info_id":"6d9faed0382645d68e74fcaa9b991fe5","uuid":"3e4cedf5-ff11-56b2-b62f-499a120cfd5e"},{"company":{"average_response_time":"<24h","country_code":"DE","is_email_existing":false,"is_quick_responder":false,"is_top_partner":false,"is_top_responder":false,"is_verified":false,"logo_url":"https://media.visable-staging.com/https://wlw-1-company-facts-media20191122174836234900000006.s3.eu-central-1.amazonaws.com/32329256-f7aa-483a-9f5c-3044b68459cf.jpeg?w=300&h=300","name":"Mediaheld GmbH","response_rate":"-1%","uuid":"00505682-f25b-1ee9-bd91-d25fc92877fb"},"id":"a2fbaa66-7d06-5cbe-b443-c3316bead25f","image":{"url":"https://media.visable-staging.com/https://supplier-offers-media-production.s3.eu-central-1.amazonaws.com/bc1dd43a-dea1-11ed-be58-0a58a9feac02.jpeg?w=300&h=300"},"images":[{"url":"https://media.visable-staging.com/https://supplier-offers-media-production.s3.eu-central-1.amazonaws.com/bc1dd43a-dea1-11ed-be58-0a58a9feac02.jpeg?w=300&h=300"}],"language":"en","name":"Rent iPhone 7 32GB","sell_points":[],"trace_info_id":"6d9faed0382645d68e74fcaa9b991fe5","uuid":"a2fbaa66-7d06-5cbe-b443-c3316bead25f"},{"company":{"average_response_time":"<24h","country_code":"DE","is_email_existing":false,"is_quick_responder":false,"is_top_partner":false,"is_top_responder":false,"is_verified":true,"logo_url":"https://media.visable-staging.com/https://wlw-1-company-facts-media20191122174836234900000006.s3.eu-central-1.amazonaws.com/c01f9352-980d-4abd-8fea-5b51c6a54fbe.png?w=300&h=300","name":"Plotline - Bernd Witte & Michael Karpinski oHG","response_rate":"10%","uuid":"00505682-f25b-1ee9-bd91-d299984bf7fb"},"id":"bd4a8610-6daf-4f54-b29b-f42227712acf","image":{"url":"https://media.visable-staging.com/https://supplier-offers-media-production.s3.eu-central-1.amazonaws.com/cfe8aad5-c3b4-11f0-beda-0a58a9feac02.jpeg?w=300&h=300"},"images":[{"url":"https://media.visable-staging.com/https://supplier-offers-media-production.s3.eu-central-1.amazonaws.com/cfe8aad5-c3b4-11f0-beda-0a58a9feac02.jpeg?w=300&h=300"}],"language":"en","name":"Apple iPhone 16 Pro – 5G Smartphone – Dual-SIM / Internal Storage 128 GB – OLED Display – 6.3″ – 26","price":{"currency":"EUR","kind":"from","min":"1.029,47","original_currency":"EUR","original_min":"1.029,47","vat_included":false},"sell_points":[],"trace_info_id":"6d9faed0382645d68e74fcaa9b991fe5","uuid":"bd4a8610-6daf-4f54-b29b-f42227712acf"},{"company":{"average_response_time":"<24h","country_code":"DE","is_email_existing":false,"is_quick_responder":true,"is_top_partner":false,"is_top_responder":true,"is_verified":true,"logo_url":"https://media.visable-staging.com/https://wlw-1-company-facts-media20191122174836234900000006.s3.eu-central-1.amazonaws.com/1eab212d-a023-4a57-9b19-f37c6f92cc0c.jpeg?w=300&h=300","name":"ENES Gewürze GmbH","response_rate":"97%","uuid":"00505682-f25b-1ee9-bd91-d29eaa3b97fb"},"id":"b507273e-4e11-5241-8a6c-2662acfe257b","image":{"url":"https://media.visable-staging.com/https://supplier-offers-media-production.s3.eu-central-1.amazonaws.com/962b1f87-de91-11ed-8de7-0a58a9feac02.jpeg?w=300&h=300"},"images":[{"url":"https://media.visable-staging.com/https://supplier-offers-media-production.s3.eu-central-1.amazonaws.com/962b1f87-de91-11ed-8de7-0a58a9feac02.jpeg?w=300&h=300"}],"language":"en","name":"Whole Cumin, 1kg Bag","sell_points":[],"trace_info_id":"6d9faed0382645d68e74fcaa9b991fe5","uuid":"b507273e-4e11-5241-8a6c-2662acfe257b"},{"company":{"average_response_time":"<24h","country_code":"DE","is_email_existing":false,"is_quick_responder":false,"is_top_partner":false,"is_top_responder":false,"is_verified":false,"logo_url":"https://media.visable-staging.com/https://wlw-1-company-facts-media20191122174836234900000006.s3.eu-central-1.amazonaws.com/8bea0b07-d88f-4ac3-89f2-e5e8f9b8b588.png?w=300&h=300","name":"NATURKRÄUTERGARTEN – words & herbs","response_rate":"-1%","uuid":"00505682-f25b-1ee9-bd91-d293f081f7fb"},"id":"85d950fd-1db4-5267-8d95-4a03aad118e1","image":{"url":"https://media.visable-staging.com/https://supplier-offers-media-production.s3.eu-central-1.amazonaws.com/be119ef4-f1f2-11ee-8b04-0a58a9feac02.jpeg?w=300&h=300"},"images":[{"url":"https://media.visable-staging.com/https://supplier-offers-media-production.s3.eu-central-1.amazonaws.com/be119ef4-f1f2-11ee-8b04-0a58a9feac02.jpeg?w=300&h=300"}],"language":"en","name":"Caraway","sell_points":[],"trace_info_id":"6d9faed0382645d68e74fcaa9b991fe5","uuid":"85d950fd-1db4-5267-8d95-4a03aad118e1"},{"company":{"average_response_time":"<24h","country_code":"DE","is_email_existing":false,"is_quick_responder":false,"is_top_partner":false,"is_top_responder":false,"is_verified":false,"logo_url":"https://media.visable-staging.com/https://wlw-1-company-facts-media20191122174836234900000006.s3.eu-central-1.amazonaws.com/8c5ccd30-fa4e-4328-9941-9f9b0fa424d4.jpeg?w=300&h=300","name":"NIF Natural Industrial Food GmbH","response_rate":"-1%","uuid":"00505682-f25b-1eea-95f8-aa07e1b557fb"},"id":"47556a85-1b44-5fa6-8cc4-1b3f3f0fe0b1","image":{"url":"https://media.visable-staging.com/https://supplier-offers-media-production.s3.eu-central-1.amazonaws.com/6df42cc3-dea9-11ed-b594-0a58a9feac02.jpeg?w=300&h=300"},"images":[{"url":"https://media.visable-staging.com/https://supplier-offers-media-production.s3.eu-central-1.amazonaws.com/6df42cc3-dea9-11ed-b594-0a58a9feac02.jpeg?w=300&h=300"}],"language":"en","name":"Cumin","sell_points":[],"trace_info_id":"6d9faed0382645d68e74fcaa9b991fe5","uuid":"47556a85-1b44-5fa6-8cc4-1b3f3f0fe0b1"},{"company":{"average_response_time":"24h-48h","country_code":"DE","is_email_existing":false,"is_quick_responder":true,"is_top_partner":false,"is_top_responder":true,"is_verified":true,"logo_url":"https://media.visable-staging.com/https://wlw-1-company-facts-media20191122174836234900000006.s3.eu-central-1.amazonaws.com/30aabae9-d276-4d15-9036-5511fb37ef34.jpeg?w=300&h=300","name":"AMAZONAS Naturprodukte Handels GmbH","response_rate":"79%","uuid":"00505682-f25b-1ee9-bd91-d2ab7b7877fb"},"id":"63a8cfb0-7991-562e-815e-87172eeba19d","image":{"url":"https://media.visable-staging.com/https://supplier-offers-media-production.s3.eu-central-1.amazonaws.com/d92d343f-9b82-11ef-893d-0a58a9feac02.jpeg?w=300&h=300"},"images":[{"url":"https://media.visable-staging.com/https://supplier-offers-media-producti...(truncated)