httpStatus=200
responseTimeMs=157
responseSize=4816
headers=
Date: Wed, 22 Jul 2026 07:17:01 GMT
Content-Type: application/json
Transfer-Encoding: chunked
Connection: keep-alive
Vary: Origin
Vary: Access-Control-Request-Method
Vary: Access-Control-Request-Headers
X-Content-Type-Options: nosniff
X-XSS-Protection: 0
Cache-Control: no-cache, no-store, max-age=0, must-revalidate
Pragma: no-cache
Expires: 0
X-Frame-Options: DENY

body=
{"recommendations":[{"rfqId":"f2b58b0e-dea7-4644-b0de-82fb45f0d7aa","senderId":"853a7e56-993c-40f4-8887-d163b912f31f","createdAt":"2026-07-09T19:46:27.110044Z","rfqOrigin":"ALI","interestedCount":0,"title":"S304 steam jacketed kettle 200l with agitator scraper","quantity":"2 Piece/Pieces","deliveryLocation":"FR","conversationId":null,"isBlocked":false,"matchType":"sortByTime","status":"PROCESSED","convertedFromQdr":false,"hasReachedLimit":false,"platform":"WLW","isResponded":false},{"rfqId":"1c84270b-d9c7-484f-bb02-927d527aa999","senderId":"9ef73c47-150a-4590-b9cb-ffd8db918559","createdAt":"2026-07-10T16:02:12.706354Z","rfqOrigin":"APP","interestedCount":2,"title":"Rational Kombi Steamer / Convection Oven / Steamer Icombi Pro 10 X 1/1 Electric New","quantity":"1","deliveryLocation":"Carei, Romania","conversationId":null,"isBlocked":false,"matchType":"sortByTime","status":"PROCESSED","convertedFromQdr":true,"hasReachedLimit":false,"platform":"WLW","isResponded":false},{"rfqId":"566510f7-e76a-4acd-ac89-11ffaadf0570","senderId":"c1d694c0-4835-40f9-9d82-2d64c8c46353","createdAt":"2026-07-10T16:02:31.098707Z","rfqOrigin":"CONNECT_ONE_FORM","interestedCount":0,"title":"Inquiry about raw materials","quantity":"5kg","deliveryLocation":"österreich","conversationId":null,"isBlocked":false,"matchType":"sortByTime","status":"PROCESSED","convertedFromQdr":true,"hasReachedLimit":false,"platform":"WLW","isResponded":false},{"rfqId":"e05c8dfd-c162-4162-acdd-91ecbc2d5c67","senderId":"7b49eb7d-f00b-42c3-a490-4aab2379b140","createdAt":"2026-07-22T07:04:05.848630Z","rfqOrigin":"ALI","interestedCount":0,"title":"2026 LUBA 3 AWD 1500 3000X 5000H 10000HX DIY Industrial Perimeter Robot Lawn Mower Voice Control Alexa 360 LiDAR Lithium-","quantity":"1 Piece/Pieces","deliveryLocation":"DE","conversationId":null,"isBlocked":false,"matchType":"sortByTime","status":"PROCESSED","convertedFromQdr":false,"hasReachedLimit":false,"platform":"WLW","isResponded":false},{"rfqId":"c40024df-06c6-4edd-a3a6-74fe1bb0f104","senderId":"578830d3-8c71-48f8-b3de-98970c336411","createdAt":"2026-07-22T06:46:42.911658Z","rfqOrigin":"CONNECT_ONE_FORM","interestedCount":0,"title":"female cap 28x1.5","quantity":"200","deliveryLocation":"Plovdiv, България","conversationId":null,"isBlocked":false,"matchType":"sortByTime","status":"PROCESSED","convertedFromQdr":false,"hasReachedLimit":false,"platform":"EP","isResponded":false},{"rfqId":"ab8753b4-dc58-4303-827d-33817ec7494c","senderId":"bca3ef46-6f4f-40d2-bea9-f41a7c6388e1","createdAt":"2026-07-22T06:43:21.156781Z","rfqOrigin":"CONNECT_ONE_FORM","interestedCount":0,"title":"ceiling convectors [fan coil units]","quantity":"100","deliveryLocation":"Ljubljana, Slovenia","conversationId":null,"isBlocked":false,"matchType":"sortByTime","status":"PROCESSED","convertedFromQdr":false,"hasReachedLimit":false,"platform":"EP","isResponded":false},{"rfqId":"d1e5f33f-33a5-4b0a-9442-0684a2ea3149","senderId":"f9da1944-ae06-4549-920d-b36dd08f14ee","createdAt":"2026-07-22T06:27:33.837841Z","rfqOrigin":"ALI","interestedCount":0,"title":"products programmable PLC controller - original","quantity":"1 Piece/Pieces","deliveryLocation":"RO","conversationId":null,"isBlocked":false,"matchType":"sortByTime","status":"PROCESSED","convertedFromQdr":false,"hasReachedLimit":false,"platform":"EP","isResponded":false},{"rfqId":"1411d7c0-6dfc-4cec-9a2f-b2a9a8ffba3a","senderId":"ba5241f7-5c91-4a1f-a3be-11cf964062db","createdAt":"2026-07-22T06:23:42.532782Z","rfqOrigin":"ALI","interestedCount":0,"title":"Hydrafacial Syndeo device & products branded with own Brand","quantity":"100 Units","deliveryLocation":"DE","conversationId":null,"isBlocked":false,"matchType":"sortByTime","status":"ACCEPTED","convertedFromQdr":false,"hasReachedLimit":false,"platform":"WLW","isResponded":false},{"rfqId":"31584d86-c2fc-4869-8a40-a45f19546df3","senderId":"f1495962-c8d6-4da3-8b05-6b806c85a620","createdAt":"2026-07-22T05:54:25.417019Z","rfqOrigin":"ALI","interestedCount":0,"title":"Deye SUN-20K-SG05LP3-EU-SM2 (48V hybrid, 3-phase)","quantity":"1 Piece/Pieces","deliveryLocation":"HR","conversationId":null,"isBlocked":false,"matchType":"sortByTime","status":"PROCESSED","convertedFromQdr":false,"hasReachedLimit":false,"platform":"WLW","isResponded":false},{"rfqId":"45c109eb-2496-4a12-97ab-1580fccb8a4c","senderId":"dc9fcfe5-8b05-4e71-b063-a5128c01cb68","createdAt":"2026-07-22T05:45:24.708169Z","rfqOrigin":"ALI","interestedCount":0,"title":"side mounted boat lever PWM e.g. Golden Motor TRC-012 for inboat PMSM motor","quantity":"300 Piece/Pieces","deliveryLocation":"DE","conversationId":null,"isBlocked":false,"matchType":"sortByTime","status":"ACCEPTED","convertedFromQdr":false,"hasReachedLimit":false,"platform":"WLW","isResponded":false}],"page":0,"pageSize":10,"total":5000,"next":1}