httpStatus=200
responseTimeMs=121
responseSize=56971
headers=
Date: Wed, 22 Jul 2026 07:15:51 GMT
Content-Type: application/json
Transfer-Encoding: chunked
Connection: keep-alive
Server: nginx
Vary: Accept-Encoding
Vary: Origin
Vary: Access-Control-Request-Method
Vary: Access-Control-Request-Headers
X-Content-Type-Options: nosniff
X-XSS-Protection: 0
Cache-Control: no-cache, no-store, max-age=0, must-revalidate
Pragma: no-cache
Expires: 0
X-Frame-Options: DENY
Strict-Transport-Security: max-age=31536000
Content-Encoding: gzip

body=
{"display_products":true,"paging":{"current_page":1,"total":51,"total_pages":2},"products":[{"company":{"average_response_time":"<24h","country_code":"PL","is_email_existing":false,"is_quick_responder":true,"is_top_partner":false,"is_top_responder":false,"is_verified":true,"logo_url":"https://media.visable-staging.com/https://wlw-1-company-facts-media20191122174836234900000006.s3.eu-central-1.amazonaws.com/ef391a84-5177-4e16-8215-28995ef799d1.gif?w=300&h=300","name":"MIXT SP ZOO","response_rate":"41%","uuid":"506d0dd6-aacc-3cdd-8c89-2643c271bc4e"},"id":"4a393a12-ff0e-5cdb-9721-b56b515d03b3","image":{"url":"https://media.visable-staging.com/https://supplier-offers-media-production.s3.eu-central-1.amazonaws.com/1a086c01-8c9c-11ef-8d93-0a58a9feac02.jpeg?w=300&h=300"},"images":[{"url":"https://media.visable-staging.com/https://supplier-offers-media-production.s3.eu-central-1.amazonaws.com/1a086c01-8c9c-11ef-8d93-0a58a9feac02.jpeg?w=300&h=300"}],"language":"fr","name":"Viande de Mouton - Bétail et Animaux de Ferme","sell_points":[],"trace_info_id":"d99fb00e99284a4f98aa3fbbe8200ed2","uuid":"4a393a12-ff0e-5cdb-9721-b56b515d03b3"},{"company":{"average_response_time":"<24h","country_code":"GB","is_email_existing":false,"is_quick_responder":true,"is_top_partner":false,"is_top_responder":true,"is_verified":false,"logo_url":"https://media.visable-staging.com/https://wlw-1-company-facts-media20191122174836234900000006.s3.eu-central-1.amazonaws.com/85632d6a-2baf-4e6d-b5e9-b6c6cad44771.png?w=300&h=300","name":"PRH WHOLESALE LIMITED","response_rate":"69%","uuid":"ddf4a599-7da0-4869-afee-6f88d733e97f"},"id":"a50c9862-5d5b-490f-a9f5-d96daa376113","image":{"url":"https://media.visable-staging.com/https://supplier-offers-media-production.s3.eu-central-1.amazonaws.com/1f600ba2-fc2c-11f0-8b7e-0a58a9feac02.png?w=300&h=300"},"images":[{"url":"https://media.visable-staging.com/https://supplier-offers-media-production.s3.eu-central-1.amazonaws.com/1f600ba2-fc2c-11f0-8b7e-0a58a9feac02.png?w=300&h=300"}],"language":"fr","minimum_order_quantity":"600 boîtiers","name":"Chocolats Ferrero Rocher avec approvisionnement en vrac, fournisseur en gros de l'UE","price":{"currency":"EUR","kind":"range","max":"2,80","min":"2","original_currency":"EUR","original_max":"2,80","original_min":"2","vat_included":false},"sell_points":[],"trace_info_id":"d99fb00e99284a4f98aa3fbbe8200ed2","uuid":"a50c9862-5d5b-490f-a9f5-d96daa376113"},{"company":{"average_response_time":"<24h","country_code":"FR","is_email_existing":false,"is_quick_responder":false,"is_top_partner":false,"is_top_responder":false,"is_verified":true,"logo_url":"https://media.visable-staging.com/https://wlw-1-company-facts-media20191122174836234900000006.s3.eu-central-1.amazonaws.com/b235e232-9281-4d3f-b532-abbc9c817fdd.jpeg?w=300&h=300","name":"YOURPRICE X","response_rate":"0%","uuid":"ffc34b07-aa4f-4030-b31a-aa291e5ee5b3"},"id":"3b2f9fbb-99cf-435d-b8a4-234e553ab22f","image":{"url":"https://media.visable-staging.com/https://supplier-offers-media-production.s3.eu-central-1.amazonaws.com/e16c7567-d7e9-11ef-910c-0a58a9feac02.png?w=300&h=300"},"images":[{"url":"https://media.visable-staging.com/https://supplier-offers-media-production.s3.eu-central-1.amazonaws.com/e16c7567-d7e9-11ef-910c-0a58a9feac02.png?w=300&h=300"}],"language":"fr","name":"Boisson énergisante / RedBull Energy Drink Canette 250ml","sell_points":[],"trace_info_id":"d99fb00e99284a4f98aa3fbbe8200ed2","uuid":"3b2f9fbb-99cf-435d-b8a4-234e553ab22f"},{"company":{"average_response_time":"<24h","country_code":"FR","is_email_existing":false,"is_quick_responder":true,"is_top_partner":false,"is_top_responder":true,"is_verified":true,"logo_url":"https://media.visable-staging.com/https://wlw-1-company-facts-media20191122174836234900000006.s3.eu-central-1.amazonaws.com/a1d65812-0e7c-49bf-9fb3-5bbeb06172c3.jpeg?w=300&h=300","name":"ATHENA TRADING","response_rate":"84%","uuid":"74485ddd-aa43-4385-9997-552f0311440b"},"id":"52d71a35-ec84-44e5-a448-03c1b387c6cc","image":{"url":"https://media.visable-staging.com/https://supplier-offers-media-production.s3.eu-central-1.amazonaws.com/143e39cd-d6e4-11f0-9463-0a58a9feac02.jpeg?w=300&h=300"},"images":[{"url":"https://media.visable-staging.com/https://supplier-offers-media-production.s3.eu-central-1.amazonaws.com/143e39cd-d6e4-11f0-9463-0a58a9feac02.jpeg?w=300&h=300"}],"language":"fr","minimum_order_quantity":"50 unités","name":"Protéines de lactosérum 100 % pures, complément alimentaire de qualité pour la prise de poids, pour hommes et femmes.","price":{"currency":"EUR","kind":"range","max":"37","min":"3","original_currency":"EUR","original_max":"37","original_min":"3","vat_included":false},"sell_points":[],"trace_info_id":"d99fb00e99284a4f98aa3fbbe8200ed2","uuid":"52d71a35-ec84-44e5-a448-03c1b387c6cc"},{"company":{"average_response_time":"<24h","country_code":"DE","is_email_existing":false,"is_quick_responder":true,"is_top_partner":false,"is_top_responder":true,"is_verified":false,"logo_url":"https://media.visable-staging.com/https://wlw-1-company-facts-media20191122174836234900000006.s3.eu-central-1.amazonaws.com/9db3d95e-e5ec-4dd7-87f1-7c7e2cc20127.png?w=300&h=300","name":"LC PROJEKTBAU GMBH","response_rate":"100%","uuid":"e8fb5e97-5b41-3012-b855-3374b7aff487"},"id":"e12cfcce-e864-4a8c-9d69-c72c05344fd2","image":{"url":"https://media.visable-staging.com/https://supplier-offers-media-production.s3.eu-central-1.amazonaws.com/68765afa-55e4-11f0-91a0-0a58a9feac02.png?w=300&h=300"},"images":[{"url":"https://media.visable-staging.com/https://supplier-offers-media-production.s3.eu-central-1.amazonaws.com/68765afa-55e4-11f0-91a0-0a58a9feac02.png?w=300&h=300"}],"language":"fr","minimum_order_quantity":"250 boîtiers","name":"Red Bull Energy Drinks à vendre - Boissons énergétiques premium","price":{"currency":"EUR","kind":"fixed","min":"5","original_currency":"EUR","original_min":"5","vat_included":false},"sell_points":[],"trace_info_id":"d99fb00e99284a4f98aa3fbbe8200ed2","uuid":"e12cfcce-e864-4a8c-9d69-c72c05344fd2"},{"company":{"average_response_time":"<24h","country_code":"IT","is_email_existing":false,"is_quick_responder":false,"is_top_partner":false,"is_top_responder":false,"is_verified":false,"logo_url":"https://media.visable-staging.com/https://wlw-1-company-facts-media20191122174836234900000006.s3.eu-central-1.amazonaws.com/d90259d3-f95b-4357-938c-84782ed6e981.png?w=300&h=300","name":"ITALIA CASH & CARRY S.R.L.","response_rate":"0%","uuid":"26784d66-aa4b-4cf2-b937-d77270c63147"},"id":"b028e27e-abe1-448a-ba42-06de65034fec","image":{"url":"https://media.visable-staging.com/https://supplier-offers-media-production.s3.eu-central-1.amazonaws.com/f407e660-613e-11f0-8b7c-0a58a9feac02.jpeg?w=300&h=300"},"images":[{"url":"https://media.visable-staging.com/https://supplier-offers-media-production.s3.eu-central-1.amazonaws.com/f407e660-613e-11f0-8b7c-0a58a9feac02.jpeg?w=300&h=300"}],"language":"fr","minimum_order_quantity":"30 palettes","name":"Coca cola sleek Italia / coca cola zero cl 33 : Produits en gros","price":{"currency":"EUR","kind":"fixed","min":"0,33","original_currency":"EUR","original_min":"0,33","vat_included":false},"sell_points":[],"trace_info_id":"d99fb00e99284a4f98aa3fbbe8200ed2","uuid":"b028e27e-abe1-448a-ba42-06de65034fec"},{"company":{"average_response_time":"<24h","country_code":"ES","is_email_existing":false,"is_quick_responder":false,"is_top_partner":false,"is_top_responder":false,"is_verified":false,"logo_url":"https://media.visable-staging.com/https://wlw-1-company-facts-media20191122174836234900000006.s3.eu-central-1.amazonaws.com/877d4c3d-fe77-444b-8533-61f998a9a0f8.gif?w=300&h=300","name":"RADICAL MARKETS SL","response_rate":"0%","uuid":"40047b93-783b-30ca-8ab8-f7132e2b74ee"},"id":"f824bc4f-c46d-5f8c-a7fe-ffdf801f5aa1","image":{"url":"https://media.visable-staging.com/https://supplier-offers-media-production.s3.eu-central-1.amazonaws.com/072cc837-6caa-11ef-8e7b-0a58a9feac02.jpeg?w=300&h=300"},"images":[{"url":"https://media.visable-staging.com/https://supplier-offers-media-production.s3.eu-central-1.amazonaws.com/072cc837-6caa-11ef-8e7b-0a58a9feac02.jpeg?w=300&h=300"}],"language":"fr","name":"NUTELLA","sell_points":[],"trace_info_id":"d99fb00e99284a4f98aa3fbbe8200ed2","uuid":"f824bc4f-c46d-5f8c-a7fe-ffdf801f5aa1"},{"company":{"average_response_time":"<24h","country_code":"FR","is_email_existing":false,"is_quick_responder":false,"is_top_partner":false,"is_top_responder":false,"is_verified":false,"logo_url":"https://media.visable-staging.com/?w=300&h=300","name":"HERENCIA","response_rate":"0%","uuid":"99cd7fe7-1831-3555-8e78-a5cf6c109450"},"id":"361414cb-4389-57fc-a3fa-3e064595a785","image":{"url":"https://media.visable-staging.com/https://supplier-offers-media-production.s3.eu-central-1.amazonaws.com/ba4e532b-6cbf-11ef-88d3-0a58a9feac02.jpeg?w=300&h=300"},"images":[{"url":"https://media.visable-staging.com/https://supplier-offers-media-production.s3.eu-central-1.amazonaws.com/ba4e532b-6cbf-11ef-88d3-0a58a9feac02.jpeg?w=300&h=300"}],"language":"fr","name":"Épices  - Epices de qualité","sell_points":[],"trace_info_id":"d99fb00e99284a4f98aa3fbbe8200ed2","uuid":"361414cb-4389-57fc-a3fa-3e064595a785"},{"company":{"average_response_time":"24h-48h","country_code":"FR","is_email_existing":false,"is_quick_responder":true,"is_top_partner":false,"is_top_responder":true,"is_verified":false,"logo_url":"https://media.visable-staging.com/https://wlw-1-company-facts-media20191122174836234900000006.s3.eu-central-1.amazonaws.com/c99a8145-7ea0-4ca7-818f-705befcdd6bc.jpeg?w=300&h=300","name":"DESTOCK DU MOULIN NEUF","response_rate":"66%","uuid":"4d561ed5-8881-3511-86ab-a211f6eb47ab"},"id":"e877f07b-6dc6-59d9-a7bf-d75fea3f74a4","image":{"url":"https://media.visable-staging.com/https://supplier-offers-media-production.s3.eu-central-1.amazonaws.com/a50aa48c-6cc5-11ef-9ce3-0a58a9feac02.jpeg?w=300&h=300"},"images":[{"url":"https://media.visable-staging.com/https://supplier-offers-media-production.s3.eu-central-1.amazonaws.com/a50aa48c-6cc5-11ef-9ce3-0a58a9feac02.jpeg?w=300&h=300"}],"language":"fr","minimum_order_quantity":"2592 palettes","name":"Redbull Energy Drink","price":{"currency":"EUR","kind":"fixed","min":"0,56","original_currency":"EUR","original_min":"0,56","vat_included":false},"sell_points":[],"trace_info_id":"d99fb00e99284a4f98aa3fbbe8200ed2","uuid":"e877f07b-6dc6-59d9-a7bf-d75fea3f74a4"},{"company":{"country_code":"IT","is_email_existing":false,"is_quick_responder":false,"is_top_partner":false,"is_top_responder":false,"is_verified":true,"logo_url":"https://media.visable-staging.com/https://wlw-1-company-facts-media20191122174836234900000006.s3.eu-central-1.amazonaws.com/57fd0add-2a6c-41d6-aebe-7fda2994b037.png?w=300&h=300","name":"GIACOMINI S.R.L.","response_rate":"58%","uuid":"0222fc75-83bc-4579-a374-3c69e77f23f1"},"id":"2aa0017b-12b7-4ad7-b1b5-3cd90172a04f","image":{"url":"https://media.visable-staging.com/https://supplier-offers-media-production.s3.eu-central-1.amazonaws.com/15126af0-0f0e-11f0-afde-0a58a9feac02.jpeg?w=300&h=300"},"images":[{"url":"https://media.visable-staging.com/https://supplier-offers-media-production.s3.eu-central-1.amazonaws.com/15126af0-0f0e-11f0-afde-0a58a9feac02.jpeg?w=300&h=300"}],"language":"fr","minimum_order_quantity":"500 kg","name":"FRUTTA SURGELATA - FRAGOLE","price":{"currency":"EUR","kind":"range","max":"5","min":"1","original_currency":"EUR","original_max":"5","original_min":"1","vat_included":false},"sell_points":[],"trace_info_id":"d99fb00e99284a4f98aa3fbbe8200ed2","uuid":"2aa0017b-12b7-4ad7-b1b5-3cd90172a04f"},{"company":{"average_response_time":"<24h","country_code":"TR","is_email_existing":false,"is_quick_responder":false,"is_top_partner":false,"is_top_responder":false,"is_verified":false,"logo_url":"https://media.visable-staging.com/https://wlw-1-company-facts-media20191122174836234900000006.s3.eu-central-1.amazonaws.com/0c35abcb-2261-4ddf-a009-6d2d4a2bb324.gif?w=300&h=300","name":"PRIME GROUP LLC","response_rate":...(truncated)