httpStatus=200
responseTimeMs=622
responseSize=166813
headers=
Date: Wed, 22 Jul 2026 07:16:32 GMT
Content-Type: application/json
Transfer-Encoding: chunked
Connection: keep-alive
Server: nginx
Vary: Accept-Encoding
Vary: Origin
Vary: Access-Control-Request-Method
Vary: Access-Control-Request-Headers
X-Content-Type-Options: nosniff
X-XSS-Protection: 0
Cache-Control: no-cache, no-store, max-age=0, must-revalidate
Pragma: no-cache
Expires: 0
X-Frame-Options: DENY
Strict-Transport-Security: max-age=31536000
Content-Encoding: gzip

body=
{"display_products":true,"filters":[{"display_name":"Sort by","key":"sort","type":"SINGLE_SELECTION","values":[{"display_name":"Relevance","enabled":true,"key":"relevance","selected":false,"values":[]},{"display_name":"Distance","enabled":true,"key":"distance","selected":false,"values":[]}]},{"display_name":"Location","key":"location","type":"SINGLE_SELECTION","values":[{"display_name":"10km","enabled":true,"key":"10km","selected":false,"values":[]},{"display_name":"25km","enabled":true,"key":"25km","selected":false,"values":[]},{"display_name":"50km","enabled":true,"key":"50km","selected":false,"values":[]},{"display_name":"75km","enabled":true,"key":"75km","selected":false,"values":[]},{"display_name":"100km","enabled":true,"key":"100km","selected":false,"values":[]},{"display_name":"125km","enabled":true,"key":"125km","selected":false,"values":[]},{"display_name":"250km","enabled":true,"key":"250km","selected":false,"values":[]}]},{"display_name":"Number of employees","key":"employee_counts","type":"MULTI_SELECTION","values":[{"count":1505,"display_name":"1-4 (1505)","enabled":true,"key":"From1To4","values":[]},{"count":1739,"display_name":"5-9 (1739)","enabled":true,"key":"From5To9","values":[]},{"count":2242,"display_name":"10-19 (2242)","enabled":true,"key":"From10To19","values":[]},{"count":3440,"display_name":"20-49 (3440)","enabled":true,"key":"From20To49","values":[]},{"count":1098,"display_name":"50-99 (1098)","enabled":true,"key":"From50To99","values":[]},{"count":567,"display_name":"100-199 (567)","enabled":true,"key":"From100To199","values":[]},{"count":374,"display_name":"200-499 (374)","enabled":true,"key":"From200To499","values":[]},{"count":157,"display_name":"500-999 (157)","enabled":true,"key":"From500To999","values":[]},{"count":80,"display_name":"1000+ (80)","enabled":true,"key":"MoreThan1000","values":[]}]},{"display_name":"Company profile","key":"audits","type":"BOOLEAN","values":[{"count":2059,"display_name":"Verified (2059)","enabled":true,"key":"verified","selected":false,"values":[]}]},{"display_name":"Ships from","key":"ships_from","type":"MULTI_SELECTION","values":[{"count":10358,"display_name":"Germany (10358)","enabled":true,"key":"DE","values":[]},{"count":888,"display_name":"Switzerland (888)","enabled":true,"key":"CH","values":[]},{"count":791,"display_name":"Austria (791)","enabled":true,"key":"AT","values":[]},{"count":45,"display_name":"Italy (45)","enabled":true,"key":"IT","values":[]},{"count":12,"display_name":"Poland (12)","enabled":true,"key":"PL","values":[]},{"count":8,"display_name":"France (8)","enabled":true,"key":"FR","values":[]},{"count":5,"display_name":"China (5)","enabled":true,"key":"CN","values":[]},{"count":5,"display_name":"Spain (5)","enabled":true,"key":"ES","values":[]},{"count":5,"display_name":"Slovenia (5)","enabled":true,"key":"SI","values":[]},{"count":3,"display_name":"Slovakia (3)","enabled":true,"key":"SK","values":[]},{"count":3,"display_name":"Netherlands (3)","enabled":true,"key":"NL","values":[]},{"count":3,"display_name":"Turkey (3)","enabled":true,"key":"TR","values":[]},{"count":2,"display_name":"Belgium (2)","enabled":true,"key":"BE","values":[]},{"count":2,"display_name":"Bulgaria (2)","enabled":true,"key":"BG","values":[]},{"count":2,"display_name":"Czech Republic (2)","enabled":true,"key":"CZ","values":[]},{"count":1,"display_name":"Hungary (1)","enabled":true,"key":"HU","values":[]},{"count":1,"display_name":"United Kingdom (1)","enabled":true,"key":"GB","values":[]}]},{"display_name":"Supplier type","key":"supplier_types","type":"MULTI_SELECTION","values":[{"count":9194,"display_name":"Manufacturer/Producer (9194)","enabled":true,"key":"production","values":[]},{"count":948,"display_name":"Customer-specific manufacturer (948)","enabled":true,"key":"customer_specific_manufacturing","values":[]},{"count":2325,"display_name":"Distribution (2325)","enabled":true,"key":"distribution","values":[]},{"count":7431,"display_name":"Service (7431)","enabled":true,"key":"service","values":[]},{"count":1410,"display_name":"Wholesaler (1410)","enabled":true,"key":"wholesaler","values":[]}]}],"paging":{"current_page":1,"total":12134,"total_pages":405},"results":[{"company":{"city":"Neuwied","country_code":"DE","distribution_area":"europe","email":"","employee_count":"50-99","founding_year":2009,"highlightings":{"description":"Parts manufacturing, CNC machining, mechanical engineering, welding technology, assemblies, 24-hour express service.\n\nParts manufacturing and special..."},"homepage":"http://www.sondermaschinenbau.info/","is_customer":true,"is_email_existing":true,"is_top_partner":true,"is_top_responder":false,"is_verified":true,"location":{"latitude":50.435521,"longitude":7.497086},"logo_url":"https://media.visable-staging.com/https://wlw-1-company-facts-media20191122174836234900000006.s3.eu-central-1.amazonaws.com/c1704678-0482-4707-9010-88bdff1a1f5c.jpeg?w=300&h=300","name":"D + E GmbH","package_name":"","pictures":[{"caption":"Fertigung","description":"","title":{"de":"Fertigung"},"url":"https://media.visable-staging.com/https://wlw-1-company-facts-media20191122174836234900000006.s3.eu-central-1.amazonaws.com/2774cbf4-ec40-4cd3-b891-040286837aaa.jpeg?w=300&h=300"},{"caption":"Sondermaschinenbau","description":"","title":{"de":"Sondermaschinenbau"},"url":"https://media.visable-staging.com/https://wlw-1-company-facts-media20191122174836234900000006.s3.eu-central-1.amazonaws.com/7c6f2c89-5af8-4917-adec-a0731092bd73.jpeg?w=300&h=300"},{"caption":"Fördertechnik","description":"","title":{"de":"Fördertechnik"},"url":"https://media.visable-staging.com/https://wlw-1-company-facts-media20191122174836234900000006.s3.eu-central-1.amazonaws.com/e43995bf-c733-436a-9394-0057374a27f4.jpeg?w=300&h=300"},{"caption":"Schweißtechnik","description":"","title":{"de":"Schweißtechnik"},"url":"https://media.visable-staging.com/https://wlw-1-company-facts-media20191122174836234900000006.s3.eu-central-1.amazonaws.com/0682edd5-46a9-41da-b924-68dbae374a35.jpeg?w=300&h=300"},{"caption":"Bild","description":"","title":{"de":"Bild"},"url":"https://media.visable-staging.com/https://wlw-1-company-facts-media20191122174836234900000006.s3.eu-central-1.amazonaws.com/9ebb5dc9-8332-4c4e-b4a9-363b8acd005f.jpeg?w=300&h=300"},{"caption":"Fördertechnik","description":"","title":{"de":"Fördertechnik"},"url":"https://media.visable-staging.com/https://wlw-1-company-facts-media20191122174836234900000006.s3.eu-central-1.amazonaws.com/1a8693f5-60f6-4930-a0b0-427d79cfe5ed.png?w=300&h=300"},{"caption":"Bild","description":"","title":{"de":"Bild"},"url":"https://media.visable-staging.com/https://wlw-1-company-facts-media20191122174836234900000006.s3.eu-central-1.amazonaws.com/dbd7be54-6944-4e55-8322-c922119ae3ae.jpeg?w=300&h=300"},{"caption":"Bild","description":"","title":{"de":"Bild"},"url":"https://media.visable-staging.com/https://wlw-1-company-facts-media20191122174836234900000006.s3.eu-central-1.amazonaws.com/dc0b3776-45d0-485f-a43e-e7b74e974a72.jpeg?w=300&h=300"}],"product_count":"13","response_rate":0.0,"show_tags":[],"space_type":"top_ranking","street":"Gumbinnenstrasse 4","uuid":"00505682-f25b-1ee9-bd91-d26a381177fb","zipcode":"56566"},"products":[{"highlightings":{"description":"We are specialists in contract manufacturing of small to medium batch sizes. With our CNC milling machines, we excel at complex tasks and challenging ..."},"id":"33409785","images":[{"url":"https://media.visable-staging.com/https://supplier-offers-media-production.s3.eu-central-1.amazonaws.com/d34d9c49-1bf5-11ee-9e06-0a58a9feac02.jpeg?w=300&h=300"}],"is_matching":true,"is_showcased":true,"name":"CNC Manufacturing / Milling","slug":"cnc-fertigung-fraesen-33409785"},{"highlightings":{"description":"We are specialists in contract manufacturing of small to medium batch sizes. We excel at CNC turning complex tasks and challenging materials."},"id":"30378","images":[{"url":"https://media.visable-staging.com/https://supplier-offers-media-production.s3.eu-central-1.amazonaws.com/95993899-1bf5-11ee-91f2-0a58a9feac02.jpeg?w=300&h=300"}],"is_matching":true,"is_showcased":true,"name":"CNC Manufacturing / Turning","slug":"cnc-fertigung-drehen-30378"},{"highlightings":{"description":""},"images":[{"url":"https://media.visable-staging.com/https://supplier-offers-media-production.s3.eu-central-1.amazonaws.com/32435a63-1ef9-11ee-9e06-0a58a9feac02.jpeg?w=300&h=300"}],"is_matching":false,"is_showcased":false,"name":"Surface Treatment","slug":"oberflaechenbehandlung-33410131"},{"highlightings":{"description":""},"images":[{"url":"https://media.visable-staging.com/https://supplier-offers-media-production.s3.eu-central-1.amazonaws.com/79cb9d72-1efb-11ee-9e06-0a58a9feac02.jpeg?w=300&h=300"}],"is_matching":false,"is_showcased":false,"name":"Assembly of Modules","slug":"baugruppenmontage-33410135"},{"highlightings":{"description":""},"images":[{"url":"https://media.visable-staging.com/https://supplier-offers-media-production.s3.eu-central-1.amazonaws.com/dd29b760-1efa-11ee-91f2-0a58a9feac02.jpeg?w=300&h=300"}],"is_matching":false,"is_showcased":false,"name":"Welding Technology / Welding Electrodes","slug":"schweisstechnik-schweisselektroden-30390"}]},{"company":{"city":"Sundern (Sauerland)","country_code":"DE","distribution_area":"international","email":"","employee_count":"20-49","highlightings":{"description":"...The precise presetting and measurement of all tools for use on modern CNC machining machines ensure consistent quality of our products.\n\nCNC-controlle..."},"homepage":"http://sameko.de/","is_customer":true,"is_email_existing":true,"is_top_partner":true,"is_top_responder":false,"is_verified":true,"location":{"latitude":51.32403,"longitude":8.03767},"logo_url":"https://media.visable-staging.com/https://wlw-1-company-facts-media20191122174836234900000006.s3.eu-central-1.amazonaws.com/f0550876-d62a-4018-9567-3f2e20507b6a.png?w=300&h=300","name":"SAMEKO Präzisionsteile GmbH","package_name":"","pictures":[{"caption":"Messing","description":"","title":{"de":"Messing"},"url":"https://media.visable-staging.com/https://wlw-1-company-facts-media20191122174836234900000006.s3.eu-central-1.amazonaws.com/8eb848b1-4227-42be-8806-8c2d24685cea.jpeg?w=300&h=300"},{"caption":"Aluminium ","description":"","title":{"de":"Aluminium "},"url":"https://media.visable-staging.com/https://wlw-1-company-facts-media20191122174836234900000006.s3.eu-central-1.amazonaws.com/a515cf47-427f-4fe9-a332-96bb877c5fd2.jpeg?w=300&h=300"},{"caption":"Edelstahl","description":"","title":{"de":"Edelstahl"},"url":"https://media.visable-staging.com/https://wlw-1-company-facts-media20191122174836234900000006.s3.eu-central-1.amazonaws.com/27ffdd74-3fbb-474d-91a6-6a6839dff9ba.jpeg?w=300&h=300"},{"caption":"Stahl","description":"","title":{"de":"Stahl"},"url":"https://media.visable-staging.com/https://wlw-1-company-facts-media20191122174836234900000006.s3.eu-central-1.amazonaws.com/1f05d982-2919-4906-be26-b3d13175319a.jpeg?w=300&h=300"},{"caption":"CNC-Drehteile ","description":"","title":{"de":"CNC-Drehteile "},"url":"https://media.visable-staging.com/https://wlw-1-company-facts-media20191122174836234900000006.s3.eu-central-1.amazonaws.com/23a0c4d9-e975-45cd-84c6-c2bff5ce0116.png?w=300&h=300"},{"caption":"Kunststoff","description":"","title":{"de":"Kunststoff"},"url":"https://media.visable-staging.com/https://wlw-1-company-facts-media20191122174836234900000006.s3.eu-central-1.amazonaws.com/35447d69-5a7c-42c8-9c1d-b9250ef50075.jpeg?w=300&h=300"},{"caption":"Technik","description":"","title":{"de":"Technik"},"url":"https://media.visable-staging.com/https://wlw-1-company-facts-media20191122174836234900000006.s3.eu-central-1.amazonaws.com/f8a42d72-5004-4c89-8585-06ab7e95a3d6.png?w=300&h=300"},{"caption":"CNC-Frästeile ","description":"","title":{"de":"CNC-Frästeile "},"url":"https://media.visable-staging.com/https://wlw-1-company-facts-media20191122174836234900000006.s3.eu-central-1.amazonaws.com/4e69dd83-5aa1-4fdd-8879-fb9a...(truncated)