httpStatus=200
responseTimeMs=437
responseSize=34637
headers=
Date: Wed, 22 Jul 2026 07:15:49 GMT
Content-Type: application/json
Transfer-Encoding: chunked
Connection: keep-alive
Server: nginx
Vary: Accept-Encoding
Vary: Origin
Vary: Access-Control-Request-Method
Vary: Access-Control-Request-Headers
X-Content-Type-Options: nosniff
X-XSS-Protection: 0
Cache-Control: no-cache, no-store, max-age=0, must-revalidate
Pragma: no-cache
Expires: 0
X-Frame-Options: DENY
Strict-Transport-Security: max-age=31536000
Content-Encoding: gzip

body=
{"display_products":true,"filters":[{"display_name":"Sort by","key":"sort","type":"SINGLE_SELECTION","values":[{"display_name":"Relevance","enabled":true,"key":"relevance","selected":false,"values":[]},{"display_name":"Distance","enabled":true,"key":"distance","selected":true,"values":[]}]},{"display_name":"Categories","key":"categories","type":"MULTI_SELECTION","values":[{"count":45,"display_name":"Machining (45)","enabled":true,"key":"200136","selected":false,"values":[]}]},{"display_name":"Material","key":"400000000","type":"MULTI_SELECTION","values":[{"count":45,"display_name":"Metal (45)","enabled":true,"key":"400000000-30000000000","values":[]},{"count":38,"display_name":"Steel (38)","enabled":true,"key":"400000000-30000000001","values":[]},{"count":37,"display_name":"Aluminum (37)","enabled":true,"key":"400000000-30000000003","values":[]},{"count":36,"display_name":"Stainless Steel (36)","enabled":true,"key":"400000000-30000000002","values":[]},{"count":19,"display_name":"Brass (19)","enabled":true,"key":"400000000-30000000008","values":[]}]},{"display_name":"Batch Size","key":"400000002","type":"MULTI_SELECTION","values":[{"count":43,"display_name":"Small Batches (43)","enabled":true,"key":"400000002-30000000025","values":[]},{"count":43,"display_name":"Individual Parts (43)","enabled":true,"key":"400000002-30000000024","values":[]},{"count":35,"display_name":"Medium Batches (35)","enabled":true,"key":"400000002-30000000026","values":[]},{"count":35,"display_name":"Prototypes (35)","enabled":true,"key":"400000002-30000000023","values":[]},{"count":28,"display_name":"Large Batches (28)","enabled":true,"key":"400000002-30000000027","values":[]}]},{"display_name":"Workpiece Dimensions","key":"400000001","type":"MULTI_SELECTION","values":[{"count":43,"display_name":"Medium (43)","enabled":true,"key":"400000001-30000000021","values":[]},{"count":38,"display_name":"Small (38)","enabled":true,"key":"400000001-30000000020","values":[]},{"count":30,"display_name":"Large (30)","enabled":true,"key":"400000001-30000000022","values":[]},{"count":7,"display_name":"Micro (7)","enabled":true,"key":"400000001-30000000019","values":[]}]},{"display_name":"Further Treatment","key":"400000003","type":"MULTI_SELECTION","values":[{"count":25,"display_name":"Grinding (25)","enabled":true,"key":"400000003-30000000053","values":[]},{"count":24,"display_name":"Deburring (24)","enabled":true,"key":"400000003-30000000051","values":[]},{"count":19,"display_name":"Hardening (19)","enabled":true,"key":"400000003-30000000040","values":[]},{"count":15,"display_name":"Vibratory Finishing (15)","enabled":true,"key":"400000003-30000000052","values":[]},{"count":14,"display_name":"Galvanization (14)","enabled":true,"key":"400000003-30000000028","values":[]}]},{"display_name":"Ships from","key":"ships_from","type":"MULTI_SELECTION","values":[{"count":114,"display_name":"Germany (114)","enabled":true,"key":"DE","selected":false,"values":[]},{"count":6,"display_name":"Poland (6)","enabled":true,"key":"PL","selected":false,"values":[]},{"count":1,"display_name":"Czechia (1)","enabled":true,"key":"CZ","selected":false,"values":[]}]},{"display_name":"Location","key":"location","type":"SINGLE_SELECTION","values":[{"enabled":true,"key":"10","selected":false,"values":[]},{"enabled":true,"key":"25","selected":false,"values":[]},{"enabled":true,"key":"50","selected":false,"values":[]},{"enabled":true,"key":"75","selected":false,"values":[]},{"enabled":true,"key":"100","selected":false,"values":[]},{"enabled":true,"key":"125","selected":false,"values":[]},{"enabled":true,"key":"250","selected":true,"values":[]}]},{"display_name":"Company profile","key":"company_profile","type":"MULTI_SELECTION","values":[{"count":78,"display_name":"Verified (78)","enabled":true,"key":"verified","selected":false,"values":[]},{"count":26,"display_name":"Responds reliably (26)","enabled":true,"key":"top_responder","selected":false,"values":[]}]},{"display_name":"Supplier type","key":"supplier_type","type":"MULTI_SELECTION","values":[{"count":104,"display_name":"Manufacturer/Producer (104)","enabled":true,"key":"production","selected":false,"values":[]},{"count":30,"display_name":"Customer-specific manufacturer (30)","enabled":true,"key":"customerSpecificManufacturing","selected":false,"values":[]},{"count":24,"display_name":"Distributor (24)","enabled":true,"key":"distribution","selected":false,"values":[]},{"count":63,"display_name":"Service provider (63)","enabled":true,"key":"service","selected":false,"values":[]},{"count":13,"display_name":"Wholesaler (13)","enabled":true,"key":"wholesaler","selected":false,"values":[]}]},{"display_name":"Number of employees","key":"employees_count","type":"MULTI_SELECTION","values":[{"count":8,"display_name":"1-4 (8)","enabled":true,"key":"From1To4","selected":false,"values":[]},{"count":14,"display_name":"5-9 (14)","enabled":true,"key":"From5To9","selected":false,"values":[]},{"count":9,"display_name":"10-19 (9)","enabled":true,"key":"From10To19","selected":false,"values":[]},{"count":45,"display_name":"20-49 (45)","enabled":true,"key":"From20To49","selected":false,"values":[]},{"count":28,"display_name":"50-99 (28)","enabled":true,"key":"From50To99","selected":false,"values":[]},{"count":6,"display_name":"100-199 (6)","enabled":true,"key":"From100To199","selected":false,"values":[]},{"count":2,"display_name":"200-499 (2)","enabled":true,"key":"From200To499","selected":false,"values":[]},{"count":0,"display_name":"500-999 (0)","enabled":true,"key":"From500To999","selected":false,"values":[]},{"count":0,"display_name":"1000+ (0)","enabled":true,"key":"MoreThan1000","selected":false,"values":[]}]}],"paging":{"current_page":1,"total":121,"total_pages":6},"products":[{"company":{"average_response_time":"less_than_24h","country_code":"DE","is_email_existing":true,"is_quick_responder":false,"is_top_partner":false,"is_top_responder":false,"is_verified":true,"logo_url":"https://media.visable-staging.com/https://wlw-1-company-facts-media20191122174836234900000006.s3.eu-central-1.amazonaws.com/ef78b1c9-dae5-453f-9c33-0e37b4aa937a.gif?w=300&h=300","name":"GSL Metallhandelsgesellschaft mbH","response_rate":"30%","uuid":"00505682-f25b-1ee9-bd91-d2585588d7fb"},"description":"The gray cast iron, hand-formed \"Verholrolle\" is a specially developed product known for its high precision and reliability. Manufactured according to...","id":"5c883e64-190c-4f2f-ae0d-5a488b77d7c8","image":{"url":"https://media.visable-staging.com/https://supplier-offers-media-production.s3.eu-central-1.amazonaws.com/d25b17de-5354-11f1-8b83-0a58a9feac02.jpeg?w=300&h=300"},"images":[{"url":"https://media.visable-staging.com/https://supplier-offers-media-production.s3.eu-central-1.amazonaws.com/d25b17de-5354-11f1-8b83-0a58a9feac02.jpeg?w=300&h=300"},{"url":"https://media.visable-staging.com/https://supplier-offers-media-production.s3.eu-central-1.amazonaws.com/d338da04-5354-11f1-996b-0a58a9feac02.jpeg?w=300&h=300"},{"url":"https://media.visable-staging.com/https://supplier-offers-media-production.s3.eu-central-1.amazonaws.com/d4326021-5354-11f1-8b83-0a58a9feac02.jpeg?w=300&h=300"},{"url":"https://media.visable-staging.com/https://supplier-offers-media-production.s3.eu-central-1.amazonaws.com/d69dcd6d-5354-11f1-b4ac-0a58a9feac02.jpeg?w=300&h=300"},{"url":"https://media.visable-staging.com/https://supplier-offers-media-production.s3.eu-central-1.amazonaws.com/d7cabdad-5354-11f1-b4ac-0a58a9feac02.jpeg?w=300&h=300"}],"language":"en","name":"Gray cast iron, hand-formed Verholrolle","sell_points":[],"slug":"36272112","trace_info_id":"1729c3bbded047c289feeefa4d567a7b","uuid":"5c883e64-190c-4f2f-ae0d-5a488b77d7c8"},{"company":{"average_response_time":"from_24h_to_48h","country_code":"DE","is_email_existing":true,"is_quick_responder":false,"is_top_partner":false,"is_top_responder":true,"is_verified":true,"logo_url":"https://media.visable-staging.com/https://wlw-1-company-facts-media20191122174836234900000006.s3.eu-central-1.amazonaws.com/19ef1895-17c1-4e54-b1e3-bb28f1a41cea.png?w=300&h=300","name":"CNC24 GmbH","response_rate":"83%","uuid":"00505682-f25b-1eea-bbab-856dcf0597ff"},"description":"Machining is a central process in modern metalworking and forms the basis for the precise manufacturing of components in industry and mechanical engin...","id":"60043238-211c-5af5-bd30-0e95fc7065ac","image":{"url":"https://media.visable-staging.com/https://supplier-offers-media-production.s3.eu-central-1.amazonaws.com/733833f6-f1f4-11ee-99e1-0a58a9feac02.jpeg?w=300&h=300"},"images":[{"url":"https://media.visable-staging.com/https://supplier-offers-media-production.s3.eu-central-1.amazonaws.com/733833f6-f1f4-11ee-99e1-0a58a9feac02.jpeg?w=300&h=300"},{"url":"https://media.visable-staging.com/https://supplier-offers-media-production.s3.eu-central-1.amazonaws.com/f109a95f-4230-11f1-9490-0a58a9feac02.png?w=300&h=300"}],"language":"en","minimum_order_quantity":"1 Flat rate","name":"Machining Functionality Precise Metal Processing","sell_points":[],"slug":"35115186","trace_info_id":"1729c3bbded047c289feeefa4d567a7b","uuid":"60043238-211c-5af5-bd30-0e95fc7065ac"},{"company":{"country_code":"DE","is_email_existing":true,"is_quick_responder":false,"is_top_partner":false,"is_top_responder":false,"is_verified":false,"logo_url":"https://media.visable-staging.com/https://wlw-1-company-facts-media20191122174836234900000006.s3.eu-central-1.amazonaws.com/ad86da07-7a29-4ea3-8c7b-7f89cc8ec821.gif?w=300&h=300","name":"LECHMANN ENGINEERING GMBH","response_rate":"0%","uuid":"b65d5d16-cca5-345e-9245-11a7ef3b1bd8"},"description":"CNC 5 axis milling of aluminium, brass, steel, plastics etc. at our Datron ML1500-4 (workspace XYZ 1500 x 2000 x 240 mm), Datron ML1600 (workspace XYZ...","id":"d09ca5ef-711f-559c-8bd6-de0f78baeb84","image":{"url":"https://media.visable-staging.com/https://supplier-offers-media-production.s3.eu-central-1.amazonaws.com/d5dc18f6-6cbb-11ef-9c0b-0a58a9feac02.jpeg?w=300&h=300"},"images":[{"url":"https://media.visable-staging.com/https://supplier-offers-media-production.s3.eu-central-1.amazonaws.com/d5dc18f6-6cbb-11ef-9c0b-0a58a9feac02.jpeg?w=300&h=300"},{"url":"https://media.visable-staging.com/https://supplier-offers-media-production.s3.eu-central-1.amazonaws.com/d5f6f7cf-6cbb-11ef-95aa-0a58a9feac02.jpeg?w=300&h=300"}],"language":"en","name":"CNC 3 axis milling - CNC 3 axis milling of aluminium, brass, steel, plastics etc.","sell_points":[],"slug":"35462058","trace_info_id":"1729c3bbded047c289feeefa4d567a7b","uuid":"d09ca5ef-711f-559c-8bd6-de0f78baeb84"},{"company":{"country_code":"DE","is_email_existing":true,"is_quick_responder":false,"is_top_partner":false,"is_top_responder":false,"is_verified":true,"logo_url":"https://media.visable-staging.com/https://wlw-1-company-facts-media20191122174836234900000006.s3.eu-central-1.amazonaws.com/1c0df001-0791-4aaa-9ae7-a85c7543dd0d.jpeg?w=300&h=300","name":"Frank Zallmann CNC Drehen & Fräsen","response_rate":"0%","uuid":"00505682-f25b-1ee9-bd91-d254743557fb"},"description":"Experience the quality and precision of our custom-turned parts for the valve industry at Frank Zallmann CNC Turning & Milling.\n\nAs experienced specia...","id":"3cd6c96a-e1da-592c-9e4b-c9a45ed0f06a","image":{"url":"https://media.visable-staging.com/https://supplier-offers-media-production.s3.eu-central-1.amazonaws.com/49f126ba-5331-11f1-8b83-0a58a9feac02.jpeg?w=300&h=300"},"images":[{"url":"https://media.visable-staging.com/https://supplier-offers-media-production.s3.eu-central-1.amazonaws.com/49f126ba-5331-11f1-8b83-0a58a9feac02.jpeg?w=300&h=300"}],"language":"en","name":"Precision Turned Parts for the Highest Demands in the Valve Industry – Frank Zallmann CNC Turning & Milling","sell_points":[],"slug":"33462564","trace_info_id":"1729c3bbded047c289feeefa4d567a7b","uuid":"3cd6c96a-e1da-592c-9e4b-c9a45ed0f06a"},{"company":{"country_code":"DE","is_email_existing":true,"is_quick_responder":false,"is_top_partner":false,"is_top_responder":false,"is_...(truncated)