httpStatus=200
responseTimeMs=127
responseSize=55207
headers=
Date: Wed, 22 Jul 2026 07:16:36 GMT
Content-Type: application/json
Transfer-Encoding: chunked
Connection: keep-alive
Server: nginx
Vary: Accept-Encoding
Vary: Origin
Vary: Access-Control-Request-Method
Vary: Access-Control-Request-Headers
X-Content-Type-Options: nosniff
X-XSS-Protection: 0
Cache-Control: no-cache, no-store, max-age=0, must-revalidate
Pragma: no-cache
Expires: 0
X-Frame-Options: DENY
Strict-Transport-Security: max-age=31536000
Content-Encoding: gzip

body=
{"display_products":true,"paging":{"current_page":1,"total":51,"total_pages":2},"products":[{"company":{"average_response_time":"<24h","country_code":"PL","is_email_existing":false,"is_quick_responder":true,"is_top_partner":false,"is_top_responder":true,"is_verified":true,"logo_url":"https://media.visable-staging.com/https://wlw-1-company-facts-media20191122174836234900000006.s3.eu-central-1.amazonaws.com/edffc1b0-bfb2-435f-a003-44568b1874f7.gif?w=300&h=300","name":"SPRINGOS SP","response_rate":"97%","uuid":"61d4efe3-d34b-3816-9b10-05429527b7a5"},"id":"9f700bfd-8f74-4ca5-baf2-8352d4b398b5","image":{"url":"https://media.visable-staging.com/https://supplier-offers-media-production.s3.eu-central-1.amazonaws.com/6231dff4-02cd-11f1-888b-0a58a9feac02.jpeg?w=300&h=300"},"images":[{"url":"https://media.visable-staging.com/https://supplier-offers-media-production.s3.eu-central-1.amazonaws.com/6231dff4-02cd-11f1-888b-0a58a9feac02.jpeg?w=300&h=300"}],"language":"de","minimum_order_quantity":"350 kg","name":"Erschwinglicher Keramik-CPU-Schrott zur Goldgewinnung, versandbereit, auf Lager, schnelle Lieferung zum Großhandelspreis","price":{"currency":"EUR","kind":"fixed","min":"9","original_currency":"EUR","original_min":"9","vat_included":false},"sell_points":[],"trace_info_id":"c9bc3468b76741068dd7c1ada3b06f79","uuid":"9f700bfd-8f74-4ca5-baf2-8352d4b398b5"},{"company":{"average_response_time":"24h-48h","country_code":"DE","is_email_existing":false,"is_quick_responder":false,"is_top_partner":false,"is_top_responder":false,"is_verified":true,"logo_url":"https://media.visable-staging.com/https://wlw-1-company-facts-media20191122174836234900000006.s3.eu-central-1.amazonaws.com/6f614fd1-83ea-44dc-9704-91fe763a94fe.jpeg?w=300&h=300","name":"tk accelis Materials GmbH, Zweigniederlassung Eisenmetall","response_rate":"3%","uuid":"00505682-f25b-1ee9-bd91-d265bd28f7fb"},"id":"35bce858-fc4b-5fb0-809f-bedfe73ba9a9","image":{"url":"https://media.visable-staging.com/https://supplier-offers-media-production.s3.eu-central-1.amazonaws.com/a0c1047d-2155-11ee-95e4-0a58a9feac02.jpeg?w=300&h=300"},"images":[{"url":"https://media.visable-staging.com/https://supplier-offers-media-production.s3.eu-central-1.amazonaws.com/a0c1047d-2155-11ee-95e4-0a58a9feac02.jpeg?w=300&h=300"}],"language":"de","name":"Aluminiumplatten / Plattenzuschnitte","sell_points":[],"trace_info_id":"c9bc3468b76741068dd7c1ada3b06f79","uuid":"35bce858-fc4b-5fb0-809f-bedfe73ba9a9"},{"company":{"average_response_time":"24h-48h","country_code":"DE","is_email_existing":false,"is_quick_responder":false,"is_top_partner":false,"is_top_responder":false,"is_verified":true,"logo_url":"https://media.visable-staging.com/https://wlw-1-company-facts-media20191122174836234900000006.s3.eu-central-1.amazonaws.com/20635dc7-b1c2-43c0-a4b9-e12564a2dc96.png?w=300&h=300","name":"ID Metall GmbH","response_rate":"9%","uuid":"f360ed5d-11bf-459b-8742-6bc031b3b96b"},"id":"75f809ec-a6a1-4dcf-9ab5-ff64b994212f","image":{"url":"https://media.visable-staging.com/https://supplier-offers-media-production.s3.eu-central-1.amazonaws.com/d512fe77-536d-11f1-b4ac-0a58a9feac02.jpeg?w=300&h=300"},"images":[{"url":"https://media.visable-staging.com/https://supplier-offers-media-production.s3.eu-central-1.amazonaws.com/d512fe77-536d-11f1-b4ac-0a58a9feac02.jpeg?w=300&h=300"}],"language":"de","minimum_order_quantity":"100 Stück","name":"CNC-Drehteile für Industrielle Zwecke","price":{"currency":"EUR","kind":"range","max":"2","min":"0,10","original_currency":"EUR","original_max":"2","original_min":"0,10","vat_included":false},"sell_points":[],"trace_info_id":"c9bc3468b76741068dd7c1ada3b06f79","uuid":"75f809ec-a6a1-4dcf-9ab5-ff64b994212f"},{"company":{"average_response_time":"<24h","country_code":"DE","is_email_existing":false,"is_quick_responder":false,"is_top_partner":false,"is_top_responder":false,"is_verified":true,"logo_url":"https://media.visable-staging.com/https://wlw-1-company-facts-media20191122174836234900000006.s3.eu-central-1.amazonaws.com/c1704678-0482-4707-9010-88bdff1a1f5c.jpeg?w=300&h=300","name":"D + E GmbH","response_rate":"0%","uuid":"00505682-f25b-1ee9-bd91-d26a381177fb"},"id":"76c51736-d196-51c7-afa5-c5241cbbf74a","image":{"url":"https://media.visable-staging.com/https://supplier-offers-media-production.s3.eu-central-1.amazonaws.com/d34d9c49-1bf5-11ee-9e06-0a58a9feac02.jpeg?w=300&h=300"},"images":[{"url":"https://media.visable-staging.com/https://supplier-offers-media-production.s3.eu-central-1.amazonaws.com/d34d9c49-1bf5-11ee-9e06-0a58a9feac02.jpeg?w=300&h=300"}],"language":"de","name":"CNC-Fertigung / Fräsen","sell_points":[],"trace_info_id":"c9bc3468b76741068dd7c1ada3b06f79","uuid":"76c51736-d196-51c7-afa5-c5241cbbf74a"},{"company":{"average_response_time":"48h-72h","country_code":"DE","is_email_existing":false,"is_quick_responder":true,"is_top_partner":false,"is_top_responder":false,"is_verified":true,"logo_url":"https://media.visable-staging.com/https://wlw-1-company-facts-media20191122174836234900000006.s3.eu-central-1.amazonaws.com/262b5bd8-e27b-4f8d-9317-f574a6e8a65a.jpeg?w=300&h=300","name":"Schäfer Drehteile GmbH","response_rate":"28%","uuid":"47effc27-00f9-4017-bca8-2d73b23ecc17"},"id":"37074004-2b90-4733-923c-1d26d3988f42","image":{"url":"https://media.visable-staging.com/https://supplier-offers-media-production.s3.eu-central-1.amazonaws.com/ececcd13-83cb-11f0-8dd1-0a58a9feac02.jpeg?w=300&h=300"},"images":[{"url":"https://media.visable-staging.com/https://supplier-offers-media-production.s3.eu-central-1.amazonaws.com/ececcd13-83cb-11f0-8dd1-0a58a9feac02.jpeg?w=300&h=300"}],"language":"de","minimum_order_quantity":"1 Stück","name":"Präzise CNC-Drehteile aus Stahl für Maschinenbau & Bahntechnik – Schnelle Fertigung kleiner Serien","price":{"currency":"EUR","kind":"from","min":"500","original_currency":"EUR","original_min":"500","vat_included":false},"sell_points":[],"trace_info_id":"c9bc3468b76741068dd7c1ada3b06f79","uuid":"37074004-2b90-4733-923c-1d26d3988f42"},{"company":{"average_response_time":"<24h","country_code":"FR","is_email_existing":false,"is_quick_responder":true,"is_top_partner":false,"is_top_responder":true,"is_verified":true,"logo_url":"https://media.visable-staging.com/https://wlw-1-company-facts-media20191122174836234900000006.s3.eu-central-1.amazonaws.com/ce9392f4-ff62-4a9a-b744-81ad0f431445.png?w=300&h=300","name":"NOCE MATERIAUX","response_rate":"98%","uuid":"0e4fd54b-1f5b-409a-8012-d1613226ea0b"},"id":"f9e02b42-fe13-416f-81d2-28d0a8fab1a7","image":{"url":"https://media.visable-staging.com/https://supplier-offers-media-production.s3.eu-central-1.amazonaws.com/8927a38e-1e79-11f1-aed2-0a58a9feac02.jpeg?w=300&h=300"},"images":[{"url":"https://media.visable-staging.com/https://supplier-offers-media-production.s3.eu-central-1.amazonaws.com/8927a38e-1e79-11f1-aed2-0a58a9feac02.jpeg?w=300&h=300"}],"language":"de","minimum_order_quantity":"1 Einheit","name":"Anpassbarer modularer Bungalow mit Sanitäranlagen","price":{"currency":"EUR","kind":"fixed","min":"3.500","original_currency":"EUR","original_min":"3.500","vat_included":false},"sell_points":[],"trace_info_id":"c9bc3468b76741068dd7c1ada3b06f79","uuid":"f9e02b42-fe13-416f-81d2-28d0a8fab1a7"},{"company":{"average_response_time":"24h-48h","country_code":"DE","is_email_existing":false,"is_quick_responder":false,"is_top_partner":false,"is_top_responder":true,"is_verified":false,"logo_url":"https://media.visable-staging.com/https://wlw-1-company-facts-media20191122174836234900000006.s3.eu-central-1.amazonaws.com/a3ecae6d-3880-4706-adc7-d9ca032f4c7e.png?w=300&h=300","name":"TRADIUM GmbH","response_rate":"100%","uuid":"00505682-f25b-1ee9-bd91-d253db7997fb"},"id":"096f51dd-c12c-50a9-ba48-d136951be506","image":{"url":"https://media.visable-staging.com/https://supplier-offers-media-production.s3.eu-central-1.amazonaws.com/e50e4d46-1b87-11f0-9a42-0a58a9feac02.jpeg?w=300&h=300"},"images":[{"url":"https://media.visable-staging.com/https://supplier-offers-media-production.s3.eu-central-1.amazonaws.com/e50e4d46-1b87-11f0-9a42-0a58a9feac02.jpeg?w=300&h=300"}],"language":"de","minimum_order_quantity":"1 Stück","name":"Gold","sell_points":[],"trace_info_id":"c9bc3468b76741068dd7c1ada3b06f79","uuid":"096f51dd-c12c-50a9-ba48-d136951be506"},{"company":{"average_response_time":"<24h","country_code":"DE","is_email_existing":false,"is_quick_responder":false,"is_top_partner":false,"is_top_responder":false,"is_verified":true,"logo_url":"https://media.visable-staging.com/https://wlw-1-company-facts-media20191122174836234900000006.s3.eu-central-1.amazonaws.com/c6bf8545-d01d-49ad-9716-f07b5bd03fc7.png?w=300&h=300","name":"Wolf System GmbH","response_rate":"0%","uuid":"00505682-f25b-1ee9-bd91-d25a6a66d7fb"},"id":"32b9bef0-da77-5389-82e1-40f135f6f035","image":{"url":"https://media.visable-staging.com/https://supplier-offers-media-production.s3.eu-central-1.amazonaws.com/69b51e13-8dd8-11ee-b571-0a58a9feac02.png?w=300&h=300"},"images":[{"url":"https://media.visable-staging.com/https://supplier-offers-media-production.s3.eu-central-1.amazonaws.com/69b51e13-8dd8-11ee-b571-0a58a9feac02.png?w=300&h=300"}],"language":"de","name":"Fertighaus in  Modularbauweise","sell_points":[],"trace_info_id":"c9bc3468b76741068dd7c1ada3b06f79","uuid":"32b9bef0-da77-5389-82e1-40f135f6f035"},{"company":{"country_code":"DE","is_email_existing":false,"is_quick_responder":false,"is_top_partner":false,"is_top_responder":false,"is_verified":true,"logo_url":"https://media.visable-staging.com/https://wlw-1-company-facts-media20191122174836234900000006.s3.eu-central-1.amazonaws.com/04405c84-d59d-44c1-854d-389c66098f3d.jpeg?w=300&h=300","name":"Mechanik-Moduls GmbH","response_rate":"33%","uuid":"00505682-f25b-1ee9-bd91-d25475df57fb"},"id":"593ff3cd-d7b5-5ac4-b0fb-118eb517b0b4","image":{"url":"https://media.visable-staging.com/https://supplier-offers-media-production.s3.eu-central-1.amazonaws.com/c2af8310-5350-11f1-996b-0a58a9feac02.jpeg?w=300&h=300"},"images":[{"url":"https://media.visable-staging.com/https://supplier-offers-media-production.s3.eu-central-1.amazonaws.com/c2af8310-5350-11f1-996b-0a58a9feac02.jpeg?w=300&h=300"}],"language":"de","minimum_order_quantity":"1 Stück","name":"CNC-Kleinserienfertigung","sell_points":[],"trace_info_id":"c9bc3468b76741068dd7c1ada3b06f79","uuid":"593ff3cd-d7b5-5ac4-b0fb-118eb517b0b4"},{"company":{"average_response_time":"<24h","country_code":"DE","is_email_existing":false,"is_quick_responder":true,"is_top_partner":false,"is_top_responder":true,"is_verified":true,"logo_url":"https://media.visable-staging.com/https://wlw-1-company-facts-media20191122174836234900000006.s3.eu-central-1.amazonaws.com/dcf0cef4-0e70-4149-8029-5e4520b6a458.png?w=300&h=300","name":"WE-MA Werkzeug- und Maschinenbau GmbH","response_rate":"97%","uuid":"00505682-f25b-1ee9-bd91-d25559ab37fb"},"id":"813d1632-0d3f-4e01-83d3-3877ae3ea210","image":{"url":"https://media.visable-staging.com/https://supplier-offers-media-production.s3.eu-central-1.amazonaws.com/6e338865-5413-11f1-b4ac-0a58a9feac02.jpeg?w=300&h=300"},"images":[{"url":"https://media.visable-staging.com/https://supplier-offers-media-production.s3.eu-central-1.amazonaws.com/6e338865-5413-11f1-b4ac-0a58a9feac02.jpeg?w=300&h=300"}],"language":"de","minimum_order_quantity":"1 Stück","name":"CNC-Drehen / CNC-Drehteile für Industrie, Maschinenbau & Präzisionsteile | Lohnfertigung","price":{"currency":"EUR","kind":"from","min":"1","original_currency":"EUR","original_min":"1","vat_included":false},"sell_points":[],"trace_info_id":"c9bc3468b76741068dd7c1ada3b06f79","uuid":"813d1632-0d3f-4e01-83d3-3877ae3ea210"},{"company":{"average_response_time":"<24h","country_code":"AT","is_email_existing":false,"is_quick_responder":false,"is_top_partner":false,"is_top_responder":false,"is_verified":false,"logo_url":"https://media.visable-staging.com/https://wlw-1-company-facts-media20191122174836234900000006.s3.eu-central-1.amazonaws.com/76dc6b35-e117-4490-b071-76473f48ddca.png?w=300&h=300","name":"Mavego Ca...(truncated)