{"uid":"b796a0ae3d664417","name":"product recommendations FR","historyId":"5c362b44-5af7-4e41-af7c-939236a80484","time":{"start":1784862917215,"stop":1784862917367,"duration":152},"status":"failed","statusMessage":"Company object: expected undefined to be a string","statusTrace":"folder=Endpoint tests / Homepage, products\nenv=Hummingbird_Staging\nenvUid=10155542-4ef9191e-ae13-46f4-bfc1-7b40219e3634\nmethod=GET\nurl=https://api.staging.visable.io/mobile/public_api/products/recommendations\nhttpStatus=200\nresponseTimeMs=152\nresponseBody={\"display_products\":true,\"paging\":{\"current_page\":1,\"total\":51,\"total_pages\":2},\"products\":[{\"company\":{\"country_code\":\"DE\",\"is_email_existing\":false,\"is_quick_responder\":false,\"is_top_partner\":false,\"is_top_responder\":false,\"is_verified\":true,\"logo_url\":\"https://media.visable-staging.com/https://wlw-1-company-facts-media20191122174836234900000006.s3.eu-central-1.amazonaws.com/ed57bc5e-72ba-471f-ae1e-39e4c5cf9bd8.jpeg?w=300&h=300\",\"name\":\"ZEG Zentraleinkauf Holz+Kunststoff eG\",\"response_rate\":\"100%\",\"uuid\":\"00505682-f25b-1ee9-bd91-d25d643bd7fb\"},\"id\":\"246ba8ce-acdb-5712-8278-4270e4f6854d\",\"image\":{\"url\":\"https://media.visable-staging.com/https://supplier-offers-media-production.s3.eu-central-1.amazonaws.com/088610a1-52ae-11f1-8b83-0a58a9feac02.jpeg?w=300&h=300\"},\"images\":[{\"url\":\"https://media.visable-staging.com/https://supplier-offers-media-production.s3.eu-central-1.amazonaws.com/088610a1-52ae-11f1-8b83-0a58a9feac02.jpeg?w=300&h=300\"}],\"language\":\"fr\",\"name\":\"Makita DHP485ZEG 18V – Perceuse à percussion incl. 2x 6Ah batterie\",\"sell_points\":[],\"trace_info_id\":\"b29731ab8772473fb2e0f4e5427a9b0f\",\"uuid\":\"246ba8ce-acdb-5712-8278-4270e4f6854d\"},{\"company\":{\"average_response_time\":\"24h-48h\",\"country_code\":\"DE\",\"is_email_existing\":false,\"is_quick_responder\":false,\"is_top_partner\":false,\"is_top_responder\":false,\"is_verified\":true,\"logo_url\":\"https://media.visable-staging.com/https://wlw-1-company-facts-media20191122174836234900000006.s3.eu-central-1.amazonaws.com/6f614fd1-83ea-44dc-9704-91fe763a94fe.jpeg?w=300&h=300\",\"name\":\"tk accelis Materials GmbH, Zweigniederlassung Eisenmetall\",\"response_rate\":\"3%\",\"uuid\":\"00505682-f25b-1ee9-bd91-d265bd28f7fb\"},\"id\":\"35bce858-fc4b-5fb0-809f-bedfe73ba9a9\",\"image\":{\"url\":\"https://media.visable-staging.com/https://supplier-offers-media-production.s3.eu-central-1.amazonaws.com/a0c1047d-2155-11ee-95e4-0a58a9feac02.jpeg?w=300&h=300\"},\"images\":[{\"url\":\"https://media.visable-staging.com/https://supplier-offers-media-production.s3.eu-central-1.amazonaws.com/a0c1047d-2155-11ee-95e4-0a58a9feac02.jpeg?w=300&h=300\"}],\"language\":\"fr\",\"name\":\"Plaques en aluminium / Découpes de plaques\",\"sell_points\":[],\"trace_info_id\":\"b29731ab8772473fb2e0f4e5427a9b0f\",\"uuid\":\"35bce858-fc4b-5fb0-809f-bedfe73ba9a9\"},{\"company\":{\"average_response_time\":\"<24h\",\"country_code\":\"PL\",\"is_email_existing\":false,\"is_quick_responder\":true,\"is_top_partner\":false,\"is_top_responder\":true,\"is_verified\":true,\"logo_url\":\"https://media.visable-staging.com/https://wlw-1-company-facts-media20191122174836234900000006.s3.eu-central-1.amazonaws.com/edffc1b0-bfb2-435f-a003-44568b1874f7.gif?w=300&h=300\",\"name\":\"SPRINGOS SP\",\"response_rate\":\"97%\",\"uuid\":\"61d4efe3-d34b-3816-9b10-05429527b7a5\"},\"id\":\"9f700bfd-8f74-4ca5-baf2-8352d4b398b5\",\"image\":{\"url\":\"https://media.visable-staging.com/https://supplier-offers-media-production.s3.eu-central-1.amazonaws.com/6231dff4-02cd-11f1-888b-0a58a9feac02.jpeg?w=300&h=300\"},\"images\":[{\"url\":\"https://media.visable-staging.com/https://su...(truncated)","flaky":false,"newFailed":false,"newBroken":false,"newPassed":false,"retriesCount":0,"retriesStatusChange":false,"beforeStages":[],"testStage":{"status":"failed","statusMessage":"Company object: expected undefined to be a string","statusTrace":"folder=Endpoint tests / Homepage, products\nenv=Hummingbird_Staging\nenvUid=10155542-4ef9191e-ae13-46f4-bfc1-7b40219e3634\nmethod=GET\nurl=https://api.staging.visable.io/mobile/public_api/products/recommendations\nhttpStatus=200\nresponseTimeMs=152\nresponseBody={\"display_products\":true,\"paging\":{\"current_page\":1,\"total\":51,\"total_pages\":2},\"products\":[{\"company\":{\"country_code\":\"DE\",\"is_email_existing\":false,\"is_quick_responder\":false,\"is_top_partner\":false,\"is_top_responder\":false,\"is_verified\":true,\"logo_url\":\"https://media.visable-staging.com/https://wlw-1-company-facts-media20191122174836234900000006.s3.eu-central-1.amazonaws.com/ed57bc5e-72ba-471f-ae1e-39e4c5cf9bd8.jpeg?w=300&h=300\",\"name\":\"ZEG Zentraleinkauf Holz+Kunststoff eG\",\"response_rate\":\"100%\",\"uuid\":\"00505682-f25b-1ee9-bd91-d25d643bd7fb\"},\"id\":\"246ba8ce-acdb-5712-8278-4270e4f6854d\",\"image\":{\"url\":\"https://media.visable-staging.com/https://supplier-offers-media-production.s3.eu-central-1.amazonaws.com/088610a1-52ae-11f1-8b83-0a58a9feac02.jpeg?w=300&h=300\"},\"images\":[{\"url\":\"https://media.visable-staging.com/https://supplier-offers-media-production.s3.eu-central-1.amazonaws.com/088610a1-52ae-11f1-8b83-0a58a9feac02.jpeg?w=300&h=300\"}],\"language\":\"fr\",\"name\":\"Makita DHP485ZEG 18V – Perceuse à percussion incl. 2x 6Ah batterie\",\"sell_points\":[],\"trace_info_id\":\"b29731ab8772473fb2e0f4e5427a9b0f\",\"uuid\":\"246ba8ce-acdb-5712-8278-4270e4f6854d\"},{\"company\":{\"average_response_time\":\"24h-48h\",\"country_code\":\"DE\",\"is_email_existing\":false,\"is_quick_responder\":false,\"is_top_partner\":false,\"is_top_responder\":false,\"is_verified\":true,\"logo_url\":\"https://media.visable-staging.com/https://wlw-1-company-facts-media20191122174836234900000006.s3.eu-central-1.amazonaws.com/6f614fd1-83ea-44dc-9704-91fe763a94fe.jpeg?w=300&h=300\",\"name\":\"tk accelis Materials GmbH, Zweigniederlassung Eisenmetall\",\"response_rate\":\"3%\",\"uuid\":\"00505682-f25b-1ee9-bd91-d265bd28f7fb\"},\"id\":\"35bce858-fc4b-5fb0-809f-bedfe73ba9a9\",\"image\":{\"url\":\"https://media.visable-staging.com/https://supplier-offers-media-production.s3.eu-central-1.amazonaws.com/a0c1047d-2155-11ee-95e4-0a58a9feac02.jpeg?w=300&h=300\"},\"images\":[{\"url\":\"https://media.visable-staging.com/https://supplier-offers-media-production.s3.eu-central-1.amazonaws.com/a0c1047d-2155-11ee-95e4-0a58a9feac02.jpeg?w=300&h=300\"}],\"language\":\"fr\",\"name\":\"Plaques en aluminium / Découpes de plaques\",\"sell_points\":[],\"trace_info_id\":\"b29731ab8772473fb2e0f4e5427a9b0f\",\"uuid\":\"35bce858-fc4b-5fb0-809f-bedfe73ba9a9\"},{\"company\":{\"average_response_time\":\"<24h\",\"country_code\":\"PL\",\"is_email_existing\":false,\"is_quick_responder\":true,\"is_top_partner\":false,\"is_top_responder\":true,\"is_verified\":true,\"logo_url\":\"https://media.visable-staging.com/https://wlw-1-company-facts-media20191122174836234900000006.s3.eu-central-1.amazonaws.com/edffc1b0-bfb2-435f-a003-44568b1874f7.gif?w=300&h=300\",\"name\":\"SPRINGOS SP\",\"response_rate\":\"97%\",\"uuid\":\"61d4efe3-d34b-3816-9b10-05429527b7a5\"},\"id\":\"9f700bfd-8f74-4ca5-baf2-8352d4b398b5\",\"image\":{\"url\":\"https://media.visable-staging.com/https://supplier-offers-media-production.s3.eu-central-1.amazonaws.com/6231dff4-02cd-11f1-888b-0a58a9feac02.jpeg?w=300&h=300\"},\"images\":[{\"url\":\"https://media.visable-staging.com/https://su...(truncated)","steps":[{"name":"GET https://api.staging.visable.io/mobile/public_api/products/recommendations","time":{"start":1784862917215,"stop":1784862917367,"duration":152},"status":"passed","steps":[],"attachments":[],"parameters":[{"name":"httpStatus","value":"200"},{"name":"responseTimeMs","value":"152"}],"shouldDisplayMessage":false,"stepsCount":0,"attachmentsCount":0,"hasContent":true},{"name":"assert: Status code is 200 or 201","time":{},"status":"passed","steps":[],"attachments":[],"parameters":[],"shouldDisplayMessage":false,"stepsCount":0,"attachmentsCount":0,"hasContent":false},{"name":"assert: Response time is less than 8000ms","time":{},"status":"passed","steps":[],"attachments":[],"parameters":[],"shouldDisplayMessage":false,"stepsCount":0,"attachmentsCount":0,"hasContent":false},{"name":"assert: Response body is JSON","time":{},"status":"passed","steps":[],"attachments":[],"parameters":[],"shouldDisplayMessage":false,"stepsCount":0,"attachmentsCount":0,"hasContent":false},{"name":"assert: Header Content-Type is application/json","time":{},"status":"passed","steps":[],"attachments":[],"parameters":[],"shouldDisplayMessage":false,"stepsCount":0,"attachmentsCount":0,"hasContent":false},{"name":"assert: Pagination","time":{},"status":"passed","steps":[],"attachments":[],"parameters":[],"shouldDisplayMessage":false,"stepsCount":0,"attachmentsCount":0,"hasContent":false},{"name":"assert: Company object","time":{},"status":"failed","statusMessage":"expected undefined to be a string","steps":[],"attachments":[],"parameters":[],"shouldDisplayMessage":true,"stepsCount":0,"attachmentsCount":0,"hasContent":true},{"name":"assert: Product object","time":{},"status":"passed","steps":[],"attachments":[],"parameters":[],"shouldDisplayMessage":false,"stepsCount":0,"attachmentsCount":0,"hasContent":false},{"name":"assert: MOQ and price are string if the exist","time":{},"status":"passed","steps":[],"attachments":[],"parameters":[],"shouldDisplayMessage":false,"stepsCount":0,"attachmentsCount":0,"hasContent":false}],"attachments":[{"uid":"3c9ddfe01d7f8125","name":"request","source":"3c9ddfe01d7f8125.txt","type":"text/plain","size":627},{"uid":"9d65c9286239c594","name":"response","source":"9d65c9286239c594.txt","type":"text/plain","size":56234}],"parameters":[],"shouldDisplayMessage":true,"stepsCount":9,"attachmentsCount":2,"hasContent":true},"afterStages":[],"labels":[{"name":"epic","value":"Hummingbird"},{"name":"feature","value":"Technical"},{"name":"framework","value":"newman"},{"name":"language","value":"javascript"},{"name":"parentSuite","value":"1.1 Team Hummingbird - BFF | WLW app"},{"name":"suite","value":"Endpoint tests"},{"name":"subSuite","value":"Homepage, products"},{"name":"testClass","value":"product recommendations FR"},{"name":"package","value":"1.1 Team Hummingbird - BFF | WLW app / Endpoint tests / Homepage, products"},{"name":"resultFormat","value":"allure2"}],"parameters":[{"name":"env","value":"Hummingbird_Staging"},{"name":"envUid","value":"10155542-4ef9191e-ae13-46f4-bfc1-7b40219e3634"},{"name":"folder","value":"Endpoint tests / Homepage, products"},{"name":"httpStatus","value":"200"},{"name":"method","value":"GET"},{"name":"url","value":"https://api.staging.visable.io/mobile/public_api/products/recommendations"}],"links":[],"hidden":false,"retry":false,"extra":{"severity":"normal","retries":[],"categories":[{"name":"Product defects","matchedStatuses":[],"flaky":false}],"tags":[]},"source":"b796a0ae3d664417.json","parameterValues":["Hummingbird_Staging","10155542-4ef9191e-ae13-46f4-bfc1-7b40219e3634","Endpoint tests / Homepage, products","200","GET","https://api.staging.visable.io/mobile/public_api/products/recommendations"]}