{"uid":"c42bd396de973196","name":"product recommendations EN","historyId":"50352e48-9ff0-4b41-898a-cf258e94bb4d","time":{"start":1784862917115,"stop":1784862917260,"duration":145},"status":"failed","statusMessage":"MOQ and price are string if the exist: expected { Object (currency, kind, ...) } to be a string","statusTrace":"folder=Endpoint tests / Homepage, products\nenv=Hummingbird_Staging\nenvUid=10155542-4ef9191e-ae13-46f4-bfc1-7b40219e3634\nmethod=GET\nurl=https://api.staging.visable.io/mobile/public_api/products/recommendations\nhttpStatus=200\nresponseTimeMs=145\nresponseBody={\"display_products\":true,\"paging\":{\"current_page\":1,\"total\":51,\"total_pages\":2},\"products\":[{\"company\":{\"average_response_time\":\"<24h\",\"country_code\":\"GB\",\"is_email_existing\":false,\"is_quick_responder\":true,\"is_top_partner\":false,\"is_top_responder\":true,\"is_verified\":true,\"logo_url\":\"https://media.visable-staging.com/https://wlw-1-company-facts-media20191122174836234900000006.s3.eu-central-1.amazonaws.com/64058567-fc73-499e-8b95-9686dd524db1.jpeg?w=300&h=300\",\"name\":\"M. McKenzie Old Pentland LLP\",\"response_rate\":\"53%\",\"uuid\":\"5b8a09e2-9d5a-445b-ab59-78aec7e2992b\"},\"id\":\"f79c2ad3-2380-4e14-aa6b-187e31593212\",\"image\":{\"url\":\"https://media.visable-staging.com/https://supplier-offers-media-production.s3.eu-central-1.amazonaws.com/4d5c528f-d963-11f0-af60-0a58a9feac02.jpeg?w=300&h=300\"},\"images\":[{\"url\":\"https://media.visable-staging.com/https://supplier-offers-media-production.s3.eu-central-1.amazonaws.com/4d5c528f-d963-11f0-af60-0a58a9feac02.jpeg?w=300&h=300\"}],\"language\":\"en\",\"minimum_order_quantity\":\"10 units\",\"name\":\"Wholesale Apple iPhones for Retailers, Telecom Operators & Global Resellers\",\"price\":{\"currency\":\"EUR\",\"kind\":\"range\",\"max\":\"1.650\",\"min\":\"150\",\"original_currency\":\"EUR\",\"original_max\":\"1.650\",\"original_min\":\"150\",\"vat_included\":false},\"sell_points\":[],\"trace_info_id\":\"34a57f3f424e473ebfb315f73da7800f\",\"uuid\":\"f79c2ad3-2380-4e14-aa6b-187e31593212\"},{\"company\":{\"average_response_time\":\"<24h\",\"country_code\":\"DE\",\"is_email_existing\":false,\"is_quick_responder\":false,\"is_top_partner\":false,\"is_top_responder\":false,\"is_verified\":false,\"logo_url\":\"https://media.visable-staging.com/https://wlw-1-company-facts-media20191122174836234900000006.s3.eu-central-1.amazonaws.com/f619a06a-ffdc-4e8f-bc74-7b59313c868b.png?w=300&h=300\",\"name\":\"EDV-Werbeartikel.de GmbH\",\"response_rate\":\"-1%\",\"uuid\":\"00505682-f25b-1ee9-bd91-d293f0c717fb\"},\"id\":\"525f8d9b-7f19-5ed3-bfb2-1bfa8673ee37\",\"image\":{\"url\":\"https://media.visable-staging.com/https://supplier-offers-media-production.s3.eu-central-1.amazonaws.com/a3569eab-dea0-11ed-8d7a-0a58a9feac02.jpeg?w=300&h=300\"},\"images\":[{\"url\":\"https://media.visable-staging.com/https://supplier-offers-media-production.s3.eu-central-1.amazonaws.com/a3569eab-dea0-11ed-8d7a-0a58a9feac02.jpeg?w=300&h=300\"}],\"language\":\"en\",\"name\":\"Smartphone Wireless Charger POWER\",\"sell_points\":[],\"trace_info_id\":\"34a57f3f424e473ebfb315f73da7800f\",\"uuid\":\"525f8d9b-7f19-5ed3-bfb2-1bfa8673ee37\"},{\"company\":{\"average_response_time\":\"<24h\",\"country_code\":\"AT\",\"is_email_existing\":false,\"is_quick_responder\":false,\"is_top_partner\":false,\"is_top_responder\":false,\"is_verified\":false,\"logo_url\":\"https://media.visable-staging.com/https://wlw-1-company-facts-media20191122174836234900000006.s3.eu-central-1.amazonaws.com/06875012-2cff-4112-be2a-ba179f0aa6b3.png?w=300&h=300\",\"name\":\"BARTEC Elektrotechnik GmbH\",\"response_rate\":\"-1%\",\"uuid\":\"00505682-f25b-1ee9-bd91-d2a4ef7917fb\"},\"id\":\"d16d8c10-b804-5ccb-8b81-207b29ae2593\",\"image\":{\"url\":\"https://media.visable-stag...(truncated)","flaky":false,"newFailed":false,"newBroken":false,"newPassed":false,"retriesCount":0,"retriesStatusChange":false,"beforeStages":[],"testStage":{"status":"failed","statusMessage":"MOQ and price are string if the exist: expected { Object (currency, kind, ...) } to be a string","statusTrace":"folder=Endpoint tests / Homepage, products\nenv=Hummingbird_Staging\nenvUid=10155542-4ef9191e-ae13-46f4-bfc1-7b40219e3634\nmethod=GET\nurl=https://api.staging.visable.io/mobile/public_api/products/recommendations\nhttpStatus=200\nresponseTimeMs=145\nresponseBody={\"display_products\":true,\"paging\":{\"current_page\":1,\"total\":51,\"total_pages\":2},\"products\":[{\"company\":{\"average_response_time\":\"<24h\",\"country_code\":\"GB\",\"is_email_existing\":false,\"is_quick_responder\":true,\"is_top_partner\":false,\"is_top_responder\":true,\"is_verified\":true,\"logo_url\":\"https://media.visable-staging.com/https://wlw-1-company-facts-media20191122174836234900000006.s3.eu-central-1.amazonaws.com/64058567-fc73-499e-8b95-9686dd524db1.jpeg?w=300&h=300\",\"name\":\"M. McKenzie Old Pentland LLP\",\"response_rate\":\"53%\",\"uuid\":\"5b8a09e2-9d5a-445b-ab59-78aec7e2992b\"},\"id\":\"f79c2ad3-2380-4e14-aa6b-187e31593212\",\"image\":{\"url\":\"https://media.visable-staging.com/https://supplier-offers-media-production.s3.eu-central-1.amazonaws.com/4d5c528f-d963-11f0-af60-0a58a9feac02.jpeg?w=300&h=300\"},\"images\":[{\"url\":\"https://media.visable-staging.com/https://supplier-offers-media-production.s3.eu-central-1.amazonaws.com/4d5c528f-d963-11f0-af60-0a58a9feac02.jpeg?w=300&h=300\"}],\"language\":\"en\",\"minimum_order_quantity\":\"10 units\",\"name\":\"Wholesale Apple iPhones for Retailers, Telecom Operators & Global Resellers\",\"price\":{\"currency\":\"EUR\",\"kind\":\"range\",\"max\":\"1.650\",\"min\":\"150\",\"original_currency\":\"EUR\",\"original_max\":\"1.650\",\"original_min\":\"150\",\"vat_included\":false},\"sell_points\":[],\"trace_info_id\":\"34a57f3f424e473ebfb315f73da7800f\",\"uuid\":\"f79c2ad3-2380-4e14-aa6b-187e31593212\"},{\"company\":{\"average_response_time\":\"<24h\",\"country_code\":\"DE\",\"is_email_existing\":false,\"is_quick_responder\":false,\"is_top_partner\":false,\"is_top_responder\":false,\"is_verified\":false,\"logo_url\":\"https://media.visable-staging.com/https://wlw-1-company-facts-media20191122174836234900000006.s3.eu-central-1.amazonaws.com/f619a06a-ffdc-4e8f-bc74-7b59313c868b.png?w=300&h=300\",\"name\":\"EDV-Werbeartikel.de GmbH\",\"response_rate\":\"-1%\",\"uuid\":\"00505682-f25b-1ee9-bd91-d293f0c717fb\"},\"id\":\"525f8d9b-7f19-5ed3-bfb2-1bfa8673ee37\",\"image\":{\"url\":\"https://media.visable-staging.com/https://supplier-offers-media-production.s3.eu-central-1.amazonaws.com/a3569eab-dea0-11ed-8d7a-0a58a9feac02.jpeg?w=300&h=300\"},\"images\":[{\"url\":\"https://media.visable-staging.com/https://supplier-offers-media-production.s3.eu-central-1.amazonaws.com/a3569eab-dea0-11ed-8d7a-0a58a9feac02.jpeg?w=300&h=300\"}],\"language\":\"en\",\"name\":\"Smartphone Wireless Charger POWER\",\"sell_points\":[],\"trace_info_id\":\"34a57f3f424e473ebfb315f73da7800f\",\"uuid\":\"525f8d9b-7f19-5ed3-bfb2-1bfa8673ee37\"},{\"company\":{\"average_response_time\":\"<24h\",\"country_code\":\"AT\",\"is_email_existing\":false,\"is_quick_responder\":false,\"is_top_partner\":false,\"is_top_responder\":false,\"is_verified\":false,\"logo_url\":\"https://media.visable-staging.com/https://wlw-1-company-facts-media20191122174836234900000006.s3.eu-central-1.amazonaws.com/06875012-2cff-4112-be2a-ba179f0aa6b3.png?w=300&h=300\",\"name\":\"BARTEC Elektrotechnik GmbH\",\"response_rate\":\"-1%\",\"uuid\":\"00505682-f25b-1ee9-bd91-d2a4ef7917fb\"},\"id\":\"d16d8c10-b804-5ccb-8b81-207b29ae2593\",\"image\":{\"url\":\"https://media.visable-stag...(truncated)","steps":[{"name":"GET https://api.staging.visable.io/mobile/public_api/products/recommendations","time":{"start":1784862917115,"stop":1784862917260,"duration":145},"status":"passed","steps":[],"attachments":[],"parameters":[{"name":"httpStatus","value":"200"},{"name":"responseTimeMs","value":"145"}],"shouldDisplayMessage":false,"stepsCount":0,"attachmentsCount":0,"hasContent":true},{"name":"assert: Status code is 200 or 201","time":{},"status":"passed","steps":[],"attachments":[],"parameters":[],"shouldDisplayMessage":false,"stepsCount":0,"attachmentsCount":0,"hasContent":false},{"name":"assert: Response time is less than 8000ms","time":{},"status":"passed","steps":[],"attachments":[],"parameters":[],"shouldDisplayMessage":false,"stepsCount":0,"attachmentsCount":0,"hasContent":false},{"name":"assert: Response body is JSON","time":{},"status":"passed","steps":[],"attachments":[],"parameters":[],"shouldDisplayMessage":false,"stepsCount":0,"attachmentsCount":0,"hasContent":false},{"name":"assert: Header Content-Type is application/json","time":{},"status":"passed","steps":[],"attachments":[],"parameters":[],"shouldDisplayMessage":false,"stepsCount":0,"attachmentsCount":0,"hasContent":false},{"name":"assert: Pagination","time":{},"status":"passed","steps":[],"attachments":[],"parameters":[],"shouldDisplayMessage":false,"stepsCount":0,"attachmentsCount":0,"hasContent":false},{"name":"assert: Company object","time":{},"status":"passed","steps":[],"attachments":[],"parameters":[],"shouldDisplayMessage":false,"stepsCount":0,"attachmentsCount":0,"hasContent":false},{"name":"assert: Product object","time":{},"status":"passed","steps":[],"attachments":[],"parameters":[],"shouldDisplayMessage":false,"stepsCount":0,"attachmentsCount":0,"hasContent":false},{"name":"assert: MOQ and price are string if the exist","time":{},"status":"failed","statusMessage":"expected { Object (currency, kind, ...) } to be a string","steps":[],"attachments":[],"parameters":[],"shouldDisplayMessage":true,"stepsCount":0,"attachmentsCount":0,"hasContent":true}],"attachments":[{"uid":"aa42f19f87ebe971","name":"request","source":"aa42f19f87ebe971.txt","type":"text/plain","size":752},{"uid":"50280c7bc071e13f","name":"response","source":"50280c7bc071e13f.txt","type":"text/plain","size":56154}],"parameters":[],"shouldDisplayMessage":true,"stepsCount":9,"attachmentsCount":2,"hasContent":true},"afterStages":[],"labels":[{"name":"epic","value":"Hummingbird"},{"name":"feature","value":"Technical"},{"name":"framework","value":"newman"},{"name":"language","value":"javascript"},{"name":"parentSuite","value":"1.1 Team Hummingbird - BFF | WLW app"},{"name":"suite","value":"Endpoint tests"},{"name":"subSuite","value":"Homepage, products"},{"name":"testClass","value":"product recommendations EN"},{"name":"package","value":"1.1 Team Hummingbird - BFF | WLW app / Endpoint tests / Homepage, products"},{"name":"resultFormat","value":"allure2"}],"parameters":[{"name":"env","value":"Hummingbird_Staging"},{"name":"envUid","value":"10155542-4ef9191e-ae13-46f4-bfc1-7b40219e3634"},{"name":"folder","value":"Endpoint tests / Homepage, products"},{"name":"httpStatus","value":"200"},{"name":"method","value":"GET"},{"name":"url","value":"https://api.staging.visable.io/mobile/public_api/products/recommendations"}],"links":[],"hidden":false,"retry":false,"extra":{"severity":"normal","retries":[],"categories":[{"name":"Product defects","matchedStatuses":[],"flaky":false}],"tags":[]},"source":"c42bd396de973196.json","parameterValues":["Hummingbird_Staging","10155542-4ef9191e-ae13-46f4-bfc1-7b40219e3634","Endpoint tests / Homepage, products","200","GET","https://api.staging.visable.io/mobile/public_api/products/recommendations"]}