httpStatus=200
responseTimeMs=231
responseSize=4748
headers=
Date: Fri, 24 Jul 2026 02:35:21 GMT
Content-Type: application/json
Transfer-Encoding: chunked
Connection: keep-alive
Vary: Origin
Vary: Access-Control-Request-Method
Vary: Access-Control-Request-Headers
X-Content-Type-Options: nosniff
X-XSS-Protection: 0
Cache-Control: no-cache, no-store, max-age=0, must-revalidate
Pragma: no-cache
Expires: 0
X-Frame-Options: DENY

body=
{"recommendations":[{"rfqId":"0917d899-37ac-4a88-bdfb-99fc4a6bc7b9","senderId":"16923a37-5298-4bb4-b6e5-9a75a2f8100c","createdAt":"2026-07-24T00:02:45.208936Z","rfqOrigin":"CONNECT_ONE_FORM","interestedCount":0,"title":"Bulk Purchase Inquiry: Hemo-15 Wholesale Pricing","quantity":"hinges","deliveryLocation":"Dublin, Ireland","conversationId":null,"isBlocked":false,"matchType":"sortByTime","status":"PROCESSED","convertedFromQdr":true,"hasReachedLimit":false,"platform":"EP","isResponded":false},{"rfqId":"32224674-9930-44ad-bafc-1f39f2a40591","senderId":"1c765158-2cd9-405b-a63f-b00c455f4db5","createdAt":"2026-07-24T00:02:44.505271Z","rfqOrigin":"APP","interestedCount":0,"title":"Olio Del Borgo – Huile D'olive Extra Vierge – Bouteille De 5l Pet","quantity":"200","deliveryLocation":"Le Luc, France","conversationId":null,"isBlocked":false,"matchType":"sortByTime","status":"PROCESSED","convertedFromQdr":true,"hasReachedLimit":false,"platform":"EP","isResponded":false},{"rfqId":"10a925b4-ae1b-44f5-8364-8d1e17026e62","senderId":"43bad953-4310-48f5-bcd5-7d5346b1a224","createdAt":"2026-07-24T00:02:44.350671Z","rfqOrigin":"CONNECT_ONE_FORM","interestedCount":0,"title":"SVENDITA - Paddle gonfiabile 320cm DF SPORTS con pacchetto accessori - Modello Palawan - Grigio","quantity":"5","deliveryLocation":"Latina, LT, Italia","conversationId":null,"isBlocked":false,"matchType":"sortByTime","status":"ACCEPTED","convertedFromQdr":true,"hasReachedLimit":false,"platform":"EP","isResponded":false},{"rfqId":"6f29633c-eb62-4eff-86c2-a5a8d828428b","senderId":"9f679acb-a1a8-4c9c-95b0-103d6b049c42","createdAt":"2026-07-24T00:02:44.010692Z","rfqOrigin":"CONNECT_ONE_FORM","interestedCount":0,"title":"Commande de boîte de jouets relaxant","quantity":"200 pièces","deliveryLocation":"Roquefort-sur-Garonne, France","conversationId":null,"isBlocked":false,"matchType":"sortByTime","status":"PROCESSED","convertedFromQdr":true,"hasReachedLimit":false,"platform":"EP","isResponded":false},{"rfqId":"be7688aa-60ed-443d-83f6-ef2db1f1ca22","senderId":"0c1b26ba-0608-41b1-a8e4-9a0f8a47241d","createdAt":"2026-07-24T00:02:43.836698Z","rfqOrigin":"CONNECT_ONE_FORM","interestedCount":0,"title":"savoir le prix en gros de 10-20 unités ","quantity":"20 pièces ","deliveryLocation":"Évreux, France","conversationId":null,"isBlocked":false,"matchType":"sortByTime","status":"PROCESSED","convertedFromQdr":true,"hasReachedLimit":false,"platform":"EP","isResponded":false},{"rfqId":"fa952d92-309d-4fc9-8506-94d662a7cb26","senderId":"ec12fc44-e4cb-4262-aeff-4f700ad86f31","createdAt":"2026-07-24T00:02:43.662991Z","rfqOrigin":"CONNECT_ONE_FORM","interestedCount":0,"title":"GAZ 410A ,R22,R134A,R404CMC","quantity":"100 articles","deliveryLocation":"Casablanca, Maroc","conversationId":null,"isBlocked":false,"matchType":"sortByTime","status":"PROCESSED","convertedFromQdr":true,"hasReachedLimit":false,"platform":"EP","isResponded":false},{"rfqId":"7f3cb3cb-e1db-442f-8f37-2bc8234ec429","senderId":"31fa91e2-0899-4465-bf03-87ac85b7b01a","createdAt":"2026-07-24T00:02:43.303300Z","rfqOrigin":"CONNECT_ONE_FORM","interestedCount":0,"title":"Gimnasio y Fitness - Ropa Activa","quantity":"100","deliveryLocation":"44670","conversationId":null,"isBlocked":false,"matchType":"sortByTime","status":"PROCESSED","convertedFromQdr":true,"hasReachedLimit":false,"platform":"EP","isResponded":false},{"rfqId":"8a0ee1bb-dbc0-4004-af9c-56c02a086e97","senderId":"0b2c0f8d-6829-474d-a831-7fb0a11a1751","createdAt":"2026-07-24T00:02:43.122901Z","rfqOrigin":"APP","interestedCount":0,"title":"Frango Congelado Inteiro - Partes De Frango Congeladas","quantity":"5000-10000","deliveryLocation":"Barreiro, Portugal","conversationId":null,"isBlocked":false,"matchType":"sortByTime","status":"PROCESSED","convertedFromQdr":true,"hasReachedLimit":false,"platform":"EP","isResponded":false},{"rfqId":"37d29b6e-9988-4095-aff6-2d3e23d8ec49","senderId":"611a2027-4cf8-4c4d-af37-bade9a5159fc","createdAt":"2026-07-24T00:02:42.942134Z","rfqOrigin":"CONNECT_ONE_FORM","interestedCount":0,"title":"padel","quantity":"200","deliveryLocation":"berlin","conversationId":null,"isBlocked":false,"matchType":"sortByTime","status":"PROCESSED","convertedFromQdr":true,"hasReachedLimit":false,"platform":"EP","isResponded":false},{"rfqId":"3fac981f-a02d-4c04-9114-d070b24bf932","senderId":"9183d402-7cb5-4b0a-b77c-ff7dc781f6c4","createdAt":"2026-07-24T00:02:42.104473Z","rfqOrigin":"APP","interestedCount":0,"title":"14 Karat Gold","quantity":"100g","deliveryLocation":"Netherlands","conversationId":null,"isBlocked":false,"matchType":"sortByTime","status":"PROCESSED","convertedFromQdr":true,"hasReachedLimit":false,"platform":"EP","isResponded":false}],"page":1,"pageSize":10,"total":5000,"next":2}