httpStatus=200
responseTimeMs=178
responseSize=4771
headers=
Date: Fri, 24 Jul 2026 02:35:22 GMT
Content-Type: application/json
Transfer-Encoding: chunked
Connection: keep-alive
Vary: Origin
Vary: Access-Control-Request-Method
Vary: Access-Control-Request-Headers
X-Content-Type-Options: nosniff
X-XSS-Protection: 0
Cache-Control: no-cache, no-store, max-age=0, must-revalidate
Pragma: no-cache
Expires: 0
X-Frame-Options: DENY

body=
{"recommendations":[{"rfqId":"4a057766-238c-4eb6-a25d-81e417ae3702","senderId":"ca7c9bd9-fb51-4da0-b5af-49135539df37","createdAt":"2026-07-24T02:32:15.674154Z","rfqOrigin":"ALI","interestedCount":0,"title":"Frosted Translucent Portfolio Folder Sleeves Protectors Document Organizer","quantity":"10000 Piece/Pieces","deliveryLocation":"IT","conversationId":null,"isBlocked":false,"matchType":"sortByTime","status":"PROCESSED","convertedFromQdr":false,"hasReachedLimit":false,"platform":"EP","isResponded":false},{"rfqId":"e03b0329-14c3-448e-a0a8-92a474630619","senderId":"c17ee789-87cd-42b9-8519-e34e7a4bffe0","createdAt":"2026-07-24T02:30:58.351572Z","rfqOrigin":"ALI","interestedCount":0,"title":"Transparent Acrylic Display Rack for Pokémon Trading Cards & Packs","quantity":"5 Piece/Pieces","deliveryLocation":"NO","conversationId":null,"isBlocked":false,"matchType":"sortByTime","status":"PROCESSED","convertedFromQdr":false,"hasReachedLimit":false,"platform":"EP","isResponded":false},{"rfqId":"4067f5f1-463d-45ab-8367-2b1c06bd757f","senderId":"6bc8a5e4-baaf-4ffc-905d-24955aa1ccfd","createdAt":"2026-07-24T02:02:04.985782Z","rfqOrigin":"ALI","interestedCount":0,"title":"Hand Crash Danger Adhesive PVC 140mm","quantity":"10000 Piece/Pieces","deliveryLocation":"IT","conversationId":null,"isBlocked":false,"matchType":"sortByTime","status":"PROCESSED","convertedFromQdr":false,"hasReachedLimit":false,"platform":"EP","isResponded":false},{"rfqId":"5567968e-26d7-453e-9352-065f7afc7e9f","senderId":"606685f0-f01d-443a-96e6-2e7aee95cddf","createdAt":"2026-07-24T01:49:42.185692Z","rfqOrigin":"ALI","interestedCount":0,"title":"Plastic Bucket 55 Gallon with Top Open Lid Metal Ring (30L/50L)","quantity":"5000 Piece/Pieces","deliveryLocation":"DE","conversationId":null,"isBlocked":false,"matchType":"sortByTime","status":"PROCESSED","convertedFromQdr":false,"hasReachedLimit":false,"platform":"WLW","isResponded":false},{"rfqId":"1e50bb07-95a1-4a3c-98ee-56673f254b18","senderId":"33f218f7-8560-4dd6-88f3-b474b770034b","createdAt":"2026-07-24T01:49:41.405259Z","rfqOrigin":"ALI","interestedCount":0,"title":"This product is very expensive, please lower the price a bit.","quantity":"1 Piece/Pieces","deliveryLocation":"TR","conversationId":null,"isBlocked":false,"matchType":"sortByTime","status":"PROCESSED","convertedFromQdr":false,"hasReachedLimit":false,"platform":"EP","isResponded":false},{"rfqId":"ee33bd2b-75ec-4c09-9ce3-2e0783a911a0","senderId":"18be64ea-cc6d-4dd3-9d12-0fd540d11011","createdAt":"2026-07-24T00:53:59.582992Z","rfqOrigin":"CONNECT_ONE_FORM","interestedCount":0,"title":"Enquiry to Purchase Products – Distribution for Israel","quantity":"10","deliveryLocation":"Jerusalem, Israel","conversationId":null,"isBlocked":false,"matchType":"sortByTime","status":"PROCESSED","convertedFromQdr":false,"hasReachedLimit":false,"platform":"EP","isResponded":false},{"rfqId":"cad3451e-e4cb-4d38-9924-e10712fd9831","senderId":"39a2cbfa-0070-43e9-9ce8-c9adf9393de4","createdAt":"2026-07-24T00:49:03.993850Z","rfqOrigin":"ALI","interestedCount":0,"title":"window cleaning robot","quantity":"1000 Piece/Pieces","deliveryLocation":"ES","conversationId":null,"isBlocked":false,"matchType":"sortByTime","status":"ACCEPTED","convertedFromQdr":false,"hasReachedLimit":false,"platform":"EP","isResponded":false},{"rfqId":"71ab67e9-9cea-469d-ae79-e6b28e585888","senderId":"9fabf940-35d1-418a-869a-091b25ad4017","createdAt":"2026-07-24T00:02:45.676804Z","rfqOrigin":"CONNECT_ONE_FORM","interestedCount":0,"title":"leather item catalog","quantity":"50","deliveryLocation":"Hankey, South Africa","conversationId":null,"isBlocked":false,"matchType":"sortByTime","status":"PROCESSED","convertedFromQdr":true,"hasReachedLimit":false,"platform":"EP","isResponded":false},{"rfqId":"8db4d84b-0552-49f0-a0ad-96ac92d49072","senderId":"e3ed3c8b-8d31-4f05-b666-b4254b401b38","createdAt":"2026-07-24T00:02:45.521717Z","rfqOrigin":"APP","interestedCount":0,"title":"Adidas Spray Deodorant 150ml. Fragrance Champions League 48h. Durable.","quantity":"30","deliveryLocation":"Annemasse, France","conversationId":null,"isBlocked":false,"matchType":"sortByTime","status":"PROCESSED","convertedFromQdr":true,"hasReachedLimit":false,"platform":"EP","isResponded":false},{"rfqId":"47de1173-1e0c-4c74-847b-a94c5bc2107e","senderId":"32cfa04a-9e06-4610-abe6-2192886bb1c6","createdAt":"2026-07-24T00:02:45.364010Z","rfqOrigin":"CONNECT_ONE_FORM","interestedCount":0,"title":"Refurbished Laptop with 24-Month Warranty","quantity":"500","deliveryLocation":"Brussels, Belgium","conversationId":null,"isBlocked":false,"matchType":"sortByTime","status":"PROCESSED","convertedFromQdr":true,"hasReachedLimit":false,"platform":"EP","isResponded":false}],"page":0,"pageSize":10,"total":5000,"next":1}