httpStatus=200
responseTimeMs=100
responseSize=4816
headers=
Date: Fri, 24 Jul 2026 03:13:09 GMT
Content-Type: application/json
Transfer-Encoding: chunked
Connection: keep-alive
Vary: Origin
Vary: Access-Control-Request-Method
Vary: Access-Control-Request-Headers
X-Content-Type-Options: nosniff
X-XSS-Protection: 0
Cache-Control: no-cache, no-store, max-age=0, must-revalidate
Pragma: no-cache
Expires: 0
X-Frame-Options: DENY

body=
{"recommendations":[{"rfqId":"cad3451e-e4cb-4d38-9924-e10712fd9831","senderId":"39a2cbfa-0070-43e9-9ce8-c9adf9393de4","createdAt":"2026-07-24T00:49:03.993850Z","rfqOrigin":"ALI","interestedCount":0,"title":"window cleaning robot","quantity":"1000 Piece/Pieces","deliveryLocation":"ES","conversationId":null,"isBlocked":false,"matchType":"sortByTime","status":"ACCEPTED","convertedFromQdr":false,"hasReachedLimit":false,"platform":"EP","isResponded":false},{"rfqId":"71ab67e9-9cea-469d-ae79-e6b28e585888","senderId":"9fabf940-35d1-418a-869a-091b25ad4017","createdAt":"2026-07-24T00:02:45.676804Z","rfqOrigin":"CONNECT_ONE_FORM","interestedCount":0,"title":"leather item catalog","quantity":"50","deliveryLocation":"Hankey, South Africa","conversationId":null,"isBlocked":false,"matchType":"sortByTime","status":"PROCESSED","convertedFromQdr":true,"hasReachedLimit":false,"platform":"EP","isResponded":false},{"rfqId":"8db4d84b-0552-49f0-a0ad-96ac92d49072","senderId":"e3ed3c8b-8d31-4f05-b666-b4254b401b38","createdAt":"2026-07-24T00:02:45.521717Z","rfqOrigin":"APP","interestedCount":0,"title":"Adidas Spray Déodorant 150ml. Fragrance Champions League 48h. Durable","quantity":"30","deliveryLocation":"Annemasse, France","conversationId":null,"isBlocked":false,"matchType":"sortByTime","status":"PROCESSED","convertedFromQdr":true,"hasReachedLimit":false,"platform":"EP","isResponded":false},{"rfqId":"47de1173-1e0c-4c74-847b-a94c5bc2107e","senderId":"32cfa04a-9e06-4610-abe6-2192886bb1c6","createdAt":"2026-07-24T00:02:45.364010Z","rfqOrigin":"CONNECT_ONE_FORM","interestedCount":0,"title":"Refurbished Laptop with 24-Month Warranty","quantity":"500","deliveryLocation":"Brussels, Belgium","conversationId":null,"isBlocked":false,"matchType":"sortByTime","status":"PROCESSED","convertedFromQdr":true,"hasReachedLimit":false,"platform":"EP","isResponded":false},{"rfqId":"0917d899-37ac-4a88-bdfb-99fc4a6bc7b9","senderId":"16923a37-5298-4bb4-b6e5-9a75a2f8100c","createdAt":"2026-07-24T00:02:45.208936Z","rfqOrigin":"CONNECT_ONE_FORM","interestedCount":0,"title":"Bulk Purchase Inquiry: Hemo-15 Wholesale Pricing","quantity":"hinges","deliveryLocation":"Dublin, Ireland","conversationId":null,"isBlocked":false,"matchType":"sortByTime","status":"PROCESSED","convertedFromQdr":true,"hasReachedLimit":false,"platform":"EP","isResponded":false},{"rfqId":"32224674-9930-44ad-bafc-1f39f2a40591","senderId":"1c765158-2cd9-405b-a63f-b00c455f4db5","createdAt":"2026-07-24T00:02:44.505271Z","rfqOrigin":"APP","interestedCount":0,"title":"Olio Del Borgo – Huile D'olive Extra Vierge – Bouteille De 5l Pet","quantity":"200","deliveryLocation":"Le Luc, France","conversationId":null,"isBlocked":false,"matchType":"sortByTime","status":"PROCESSED","convertedFromQdr":true,"hasReachedLimit":false,"platform":"EP","isResponded":false},{"rfqId":"10a925b4-ae1b-44f5-8364-8d1e17026e62","senderId":"43bad953-4310-48f5-bcd5-7d5346b1a224","createdAt":"2026-07-24T00:02:44.350671Z","rfqOrigin":"CONNECT_ONE_FORM","interestedCount":0,"title":"SVENDITA - Paddle gonfiabile 320cm DF SPORTS con pacchetto accessori - Modello Palawan - Grigio","quantity":"5","deliveryLocation":"Latina, LT, Italia","conversationId":null,"isBlocked":false,"matchType":"sortByTime","status":"ACCEPTED","convertedFromQdr":true,"hasReachedLimit":false,"platform":"EP","isResponded":false},{"rfqId":"6f29633c-eb62-4eff-86c2-a5a8d828428b","senderId":"9f679acb-a1a8-4c9c-95b0-103d6b049c42","createdAt":"2026-07-24T00:02:44.010692Z","rfqOrigin":"CONNECT_ONE_FORM","interestedCount":0,"title":"Commande de boîte de jouets relaxant","quantity":"200 pièces","deliveryLocation":"Roquefort-sur-Garonne, France","conversationId":null,"isBlocked":false,"matchType":"sortByTime","status":"PROCESSED","convertedFromQdr":true,"hasReachedLimit":false,"platform":"EP","isResponded":false},{"rfqId":"be7688aa-60ed-443d-83f6-ef2db1f1ca22","senderId":"0c1b26ba-0608-41b1-a8e4-9a0f8a47241d","createdAt":"2026-07-24T00:02:43.836698Z","rfqOrigin":"CONNECT_ONE_FORM","interestedCount":0,"title":"savoir le prix en gros de 10-20 unités ","quantity":"20 pièces ","deliveryLocation":"Évreux, France","conversationId":null,"isBlocked":false,"matchType":"sortByTime","status":"PROCESSED","convertedFromQdr":true,"hasReachedLimit":false,"platform":"EP","isResponded":false},{"rfqId":"fa952d92-309d-4fc9-8506-94d662a7cb26","senderId":"ec12fc44-e4cb-4262-aeff-4f700ad86f31","createdAt":"2026-07-24T00:02:43.662991Z","rfqOrigin":"CONNECT_ONE_FORM","interestedCount":0,"title":"GAZ 410A ,R22,R134A,R404CMC","quantity":"100 articles","deliveryLocation":"Casablanca, Maroc","conversationId":null,"isBlocked":false,"matchType":"sortByTime","status":"PROCESSED","convertedFromQdr":true,"hasReachedLimit":false,"platform":"EP","isResponded":false}],"page":1,"pageSize":10,"total":5000,"next":2}