httpStatus=200
responseTimeMs=87
responseSize=4782
headers=
Date: Fri, 24 Jul 2026 03:13:10 GMT
Content-Type: application/json
Transfer-Encoding: chunked
Connection: keep-alive
Vary: Origin
Vary: Access-Control-Request-Method
Vary: Access-Control-Request-Headers
X-Content-Type-Options: nosniff
X-XSS-Protection: 0
Cache-Control: no-cache, no-store, max-age=0, must-revalidate
Pragma: no-cache
Expires: 0
X-Frame-Options: DENY

body=
{"recommendations":[{"rfqId":"e58c7083-9f37-49d7-8d8e-89fb4ac55b9f","senderId":"ad282528-e89b-4c52-9c06-a3bb65cd4987","createdAt":"2026-07-24T02:57:56.738873Z","rfqOrigin":"CONNECT_ONE_FORM","interestedCount":0,"title":"Titration Solutions (Normadose)","quantity":"9","deliveryLocation":"Troyes, France","conversationId":null,"isBlocked":false,"matchType":"sortByTime","status":"PROCESSED","convertedFromQdr":false,"hasReachedLimit":false,"platform":"EP","isResponded":false},{"rfqId":"2767f47a-e264-4c52-b3b6-3e8c7fad173c","senderId":"ad282528-e89b-4c52-9c06-a3bb65cd4987","createdAt":"2026-07-24T02:56:26.856075Z","rfqOrigin":"CONNECT_ONE_FORM","interestedCount":0,"title":"Physico-Chemical Analysis Reagents (HACH Range)","quantity":"15","deliveryLocation":"Troyes, France","conversationId":null,"isBlocked":false,"matchType":"sortByTime","status":"PROCESSED","convertedFromQdr":false,"hasReachedLimit":false,"platform":"EP","isResponded":false},{"rfqId":"9772a209-4e84-40cc-a14b-e86e80dc8ee5","senderId":"ad282528-e89b-4c52-9c06-a3bb65cd4987","createdAt":"2026-07-24T02:52:42.552524Z","rfqOrigin":"CONNECT_ONE_FORM","interestedCount":0,"title":"Laboratory Consumables and Accessories","quantity":"1250","deliveryLocation":"Troyes, France","conversationId":null,"isBlocked":false,"matchType":"sortByTime","status":"PROCESSED","convertedFromQdr":false,"hasReachedLimit":false,"platform":"EP","isResponded":false},{"rfqId":"77842699-19d2-421c-b970-940ef8ef6b17","senderId":"ad282528-e89b-4c52-9c06-a3bb65cd4987","createdAt":"2026-07-24T02:43:14.467460Z","rfqOrigin":"CONNECT_ONE_FORM","interestedCount":0,"title":"Microbiological Reagents and Tests","quantity":"7","deliveryLocation":"Troyes, France","conversationId":null,"isBlocked":false,"matchType":"sortByTime","status":"ACCEPTED","convertedFromQdr":false,"hasReachedLimit":false,"platform":"EP","isResponded":false},{"rfqId":"4a057766-238c-4eb6-a25d-81e417ae3702","senderId":"ca7c9bd9-fb51-4da0-b5af-49135539df37","createdAt":"2026-07-24T02:32:15.674154Z","rfqOrigin":"ALI","interestedCount":0,"title":"Frosted Translucent Portfolio Folder Sleeves Protectors Document Organizer","quantity":"10000 Piece/Pieces","deliveryLocation":"IT","conversationId":null,"isBlocked":false,"matchType":"sortByTime","status":"PROCESSED","convertedFromQdr":false,"hasReachedLimit":false,"platform":"EP","isResponded":false},{"rfqId":"e03b0329-14c3-448e-a0a8-92a474630619","senderId":"c17ee789-87cd-42b9-8519-e34e7a4bffe0","createdAt":"2026-07-24T02:30:58.351572Z","rfqOrigin":"ALI","interestedCount":0,"title":"Transparent Acrylic Display Rack for Pokémon Trading Cards & Packs","quantity":"5 Piece/Pieces","deliveryLocation":"NO","conversationId":null,"isBlocked":false,"matchType":"sortByTime","status":"PROCESSED","convertedFromQdr":false,"hasReachedLimit":false,"platform":"EP","isResponded":false},{"rfqId":"4067f5f1-463d-45ab-8367-2b1c06bd757f","senderId":"6bc8a5e4-baaf-4ffc-905d-24955aa1ccfd","createdAt":"2026-07-24T02:02:04.985782Z","rfqOrigin":"ALI","interestedCount":0,"title":"Hand Crash Danger Adhesive PVC 140mm","quantity":"10000 Piece/Pieces","deliveryLocation":"IT","conversationId":null,"isBlocked":false,"matchType":"sortByTime","status":"PROCESSED","convertedFromQdr":false,"hasReachedLimit":false,"platform":"EP","isResponded":false},{"rfqId":"5567968e-26d7-453e-9352-065f7afc7e9f","senderId":"606685f0-f01d-443a-96e6-2e7aee95cddf","createdAt":"2026-07-24T01:49:42.185692Z","rfqOrigin":"ALI","interestedCount":0,"title":"Plastic Bucket 55 Gallon with Top Open Lid Metal Ring (30L/50L)","quantity":"5000 Piece/Pieces","deliveryLocation":"DE","conversationId":null,"isBlocked":false,"matchType":"sortByTime","status":"PROCESSED","convertedFromQdr":false,"hasReachedLimit":false,"platform":"WLW","isResponded":false},{"rfqId":"1e50bb07-95a1-4a3c-98ee-56673f254b18","senderId":"33f218f7-8560-4dd6-88f3-b474b770034b","createdAt":"2026-07-24T01:49:41.405259Z","rfqOrigin":"ALI","interestedCount":0,"title":"This product is very expensive, please lower the price a bit.","quantity":"1 Piece/Pieces","deliveryLocation":"TR","conversationId":null,"isBlocked":false,"matchType":"sortByTime","status":"PROCESSED","convertedFromQdr":false,"hasReachedLimit":false,"platform":"EP","isResponded":false},{"rfqId":"ee33bd2b-75ec-4c09-9ce3-2e0783a911a0","senderId":"18be64ea-cc6d-4dd3-9d12-0fd540d11011","createdAt":"2026-07-24T00:53:59.582992Z","rfqOrigin":"CONNECT_ONE_FORM","interestedCount":0,"title":"Enquiry to Purchase Products – Distribution for Israel","quantity":"10","deliveryLocation":"Jerusalem, Israel","conversationId":null,"isBlocked":false,"matchType":"sortByTime","status":"PROCESSED","convertedFromQdr":false,"hasReachedLimit":false,"platform":"EP","isResponded":false}],"page":0,"pageSize":10,"total":5000,"next":1}